measurements/break_slope_150fF/tek0000ALL.csv

Model,MDO3034
Firmware Version,1.08

Waveform Type,ANALOG,,
Point Format,Y,,
Horizontal Units,s,,
Horizontal Scale,1e-05,,
Horizontal Delay,0,,
Sample Interval,1e-08,,
Record Length,10000,,
Gating,0.0% to 100.0%,,
Probe Attenuation,10,10,1
Vertical Units,V,V,V
Vertical Offset,0,0,0
Vertical Scale,1,1,1
Vertical Position,0,-0.02,0
,,,
,,,
,,,
Label,M2024,M2029,M2030
TIME,CH1,CH3,CH4
-5.000000e-05,-0.0225,1.55125,3.22734
-4.999000e-05,-0.0223437,1.55297,3.22719
-4.998000e-05,-0.0229687,1.55328,3.22984
-4.997000e-05,-0.0217188,1.55547,3.22781
-4.996000e-05,-0.0229687,1.55172,3.22828
-4.995000e-05,-0.0240625,1.54875,3.23078
-4.994000e-05,-0.021875,1.55063,3.22891
-4.993000e-05,-0.0234375,1.54781,3.23016
-4.992000e-05,-0.0220312,1.55516,3.22703
-4.991000e-05,-0.0221875,1.54812,3.22906
-4.990000e-05,-0.0215625,1.55,3.22469
-4.989000e-05,-0.0226562,1.55063,3.23031
-4.988000e-05,-0.0215625,1.55609,3.22953
-4.987000e-05,-0.0223437,1.55031,3.22875
-4.986000e-05,-0.021875,1.54719,3.22531
-4.985000e-05,-0.0229687,1.55063,3.22875
-4.984000e-05,-0.0223437,1.54969,3.22656
-4.983000e-05,-0.0234375,1.55203,3.22625
-4.982000e-05,-0.0209375,1.55359,3.225
-4.981000e-05,-0.0223437,1.55078,3.23078
-4.980000e-05,-0.0217188,1.54859,3.23516
-4.979000e-05,-0.0220312,1.55313,3.22375
-4.978000e-05,-0.0220312,1.55078,3.2275
-4.977000e-05,-0.0234375,1.55188,3.23078
-4.976000e-05,-0.023125,1.55047,3.22531
-4.975000e-05,-0.023125,1.55219,3.22422
-4.974000e-05,-0.0226562,1.55313,3.23016
-4.973000e-05,-0.0228125,1.55016,3.22562
-4.972000e-05,-0.02375,1.54984,3.22688
-4.971000e-05,-0.0229687,1.55203,3.23031
-4.970000e-05,-0.0209375,1.55203,3.23031
-4.969000e-05,-0.0221875,1.55328,3.22734
-4.968000e-05,-0.0223437,1.55172,3.22828
-4.967000e-05,-0.0214063,1.55156,3.22781
-4.966000e-05,-0.02375,1.55391,3.2275
-4.965000e-05,-0.0225,1.55547,3.22812
-4.964000e-05,-0.0232812,1.54984,3.22797
-4.963000e-05,-0.0235938,1.54766,3.23219
-4.962000e-05,-0.0220312,1.55156,3.22906
-4.961000e-05,-0.0240625,1.54797,3.23078
-4.960000e-05,-0.0221875,1.55156,3.22547
-4.959000e-05,-0.0226562,1.54812,3.23047
-4.958000e-05,-0.0214063,1.55,3.225
-4.957000e-05,-0.0235938,1.55156,3.23016
-4.956000e-05,-0.02125,1.55656,3.22922
-4.955000e-05,-0.0235938,1.55125,3.22875
-4.954000e-05,-0.023125,1.54719,3.22562
-4.953000e-05,-0.0235938,1.55094,3.22844
-4.952000e-05,-0.0220312,1.55109,3.22609
-4.951000e-05,-0.023125,1.55016,3.22578
-4.950000e-05,-0.0209375,1.55219,3.22484
-4.949000e-05,-0.0235938,1.55172,3.23031
-4.948000e-05,-0.0220312,1.55188,3.23047
-4.947000e-05,-0.0221875,1.55359,3.22531
-4.946000e-05,-0.0221875,1.55125,3.22781
-4.945000e-05,-0.0235938,1.55063,3.23094
-4.944000e-05,-0.0228125,1.54969,3.22531
-4.943000e-05,-0.0239063,1.5525,3.22531
-4.942000e-05,-0.0210938,1.55406,3.22922
-4.941000e-05,-0.0240625,1.54969,3.22594
-4.940000e-05,-0.021875,1.55172,3.22672
-4.939000e-05,-0.0228125,1.55203,3.22969
-4.938000e-05,-0.02125,1.55297,3.23047
-4.937000e-05,-0.0223437,1.55391,3.22953
-4.936000e-05,-0.0228125,1.55063,3.22859
-4.935000e-05,-0.0210938,1.55234,3.22719
-4.934000e-05,-0.0232812,1.55219,3.22844
-4.933000e-05,-0.0223437,1.55422,3.22922
-4.932000e-05,-0.0242188,1.54969,3.22719
-4.931000e-05,-0.023125,1.54719,3.23
-4.930000e-05,-0.0221875,1.55375,3.22844
-4.929000e-05,-0.0242188,1.54906,3.22859
-4.928000e-05,-0.0221875,1.55469,3.22547
-4.927000e-05,-0.0223437,1.54984,3.22672
-4.926000e-05,-0.0239063,1.55016,3.22609
-4.925000e-05,-0.0228125,1.55141,3.22984
-4.924000e-05,-0.0223437,1.55609,3.23047
-4.923000e-05,-0.023125,1.55094,3.22781
-4.922000e-05,-0.0229687,1.55031,3.22516
-4.921000e-05,-0.0232812,1.55109,3.23
-4.920000e-05,-0.0221875,1.55141,3.22688
-4.919000e-05,-0.0225,1.55203,3.22797
-4.918000e-05,-0.0207813,1.55469,3.22766
-4.917000e-05,-0.0229687,1.5525,3.22812
-4.916000e-05,-0.0225,1.55031,3.23125
-4.915000e-05,-0.0214063,1.55453,3.22578
-4.914000e-05,-0.023125,1.55109,3.22625
-4.913000e-05,-0.0221875,1.55047,3.23172
-4.912000e-05,-0.0235938,1.54922,3.22531
-4.911000e-05,-0.0235938,1.55219,3.22453
-4.910000e-05,-0.0207813,1.55547,3.23047
-4.909000e-05,-0.0246875,1.54844,3.22672
-4.908000e-05,-0.0210938,1.55391,3.22594
-4.907000e-05,-0.0223437,1.55297,3.22797
-4.906000e-05,-0.0217188,1.55375,3.22969
-4.905000e-05,-0.0221875,1.55453,3.22766
-4.904000e-05,-0.0223437,1.55156,3.22844
-4.903000e-05,-0.0215625,1.5525,3.22672
-4.902000e-05,-0.023125,1.55328,3.22953
-4.901000e-05,-0.0210938,1.55594,3.22703
-4.900000e-05,-0.023125,1.55422,3.22922
-4.899000e-05,-0.0242188,1.55016,3.23047
-4.898000e-05,-0.0225,1.55344,3.22922
-4.897000e-05,-0.0229687,1.54906,3.22969
-4.896000e-05,-0.0215625,1.55469,3.22828
-4.895000e-05,-0.0220312,1.55063,3.22859
-4.894000e-05,-0.0214063,1.55203,3.22734
-4.893000e-05,-0.0210938,1.55156,3.23031
-4.892000e-05,-0.021875,1.55547,3.23047
-4.891000e-05,-0.02375,1.54969,3.22891
-4.890000e-05,-0.0248438,1.54891,3.22641
-4.889000e-05,-0.0228125,1.55016,3.22797
-4.888000e-05,-0.0220312,1.55094,3.22516
-4.887000e-05,-0.0221875,1.55578,3.22547
-4.886000e-05,-0.0214063,1.55281,3.22594
-4.885000e-05,-0.0232812,1.55172,3.22906
-4.884000e-05,-0.0229687,1.55203,3.23391
-4.883000e-05,-0.0223437,1.55484,3.22625
-4.882000e-05,-0.02125,1.55156,3.22656
-4.881000e-05,-0.0235938,1.55,3.23062
-4.880000e-05,-0.0234375,1.55063,3.22734
-4.879000e-05,-0.0239063,1.55078,3.22562
-4.878000e-05,-0.0215625,1.55375,3.23125
-4.877000e-05,-0.023125,1.54969,3.22688
-4.876000e-05,-0.02125,1.55094,3.22578
-4.875000e-05,-0.0220312,1.55203,3.22953
-4.874000e-05,-0.0226562,1.55422,3.23141
-4.873000e-05,-0.0226562,1.55359,3.22969
-4.872000e-05,-0.0240625,1.55266,3.22734
-4.871000e-05,-0.0210938,1.55328,3.22906
-4.870000e-05,-0.0234375,1.55328,3.22969
-4.869000e-05,-0.0220312,1.555,3.22812
-4.868000e-05,-0.0223437,1.5525,3.22625
-4.867000e-05,-0.0239063,1.55,3.23156
-4.866000e-05,-0.0223437,1.55281,3.23188
-4.865000e-05,-0.0221875,1.54953,3.22859
-4.864000e-05,-0.0239063,1.55438,3.22594
-4.863000e-05,-0.023125,1.54812,3.22984
-4.862000e-05,-0.0223437,1.55031,3.22594
-4.861000e-05,-0.0217188,1.55047,3.22906
-4.860000e-05,-0.0223437,1.55703,3.22953
-4.859000e-05,-0.0229687,1.55109,3.22828
-4.858000e-05,-0.023125,1.54891,3.22625
-4.857000e-05,-0.0228125,1.55156,3.22984
-4.856000e-05,-0.0215625,1.55266,3.22797
-4.855000e-05,-0.0225,1.55547,3.22766
-4.854000e-05,-0.0209375,1.55297,3.22594
-4.853000e-05,-0.0242188,1.55141,3.22906
-4.852000e-05,-0.0226562,1.55328,3.23313
-4.851000e-05,-0.0220312,1.55328,3.22391
-4.850000e-05,-0.0221875,1.55109,3.22812
-4.849000e-05,-0.0228125,1.54984,3.23031
-4.848000e-05,-0.0232812,1.55125,3.22562
-4.847000e-05,-0.0232812,1.55219,3.22703
-4.846000e-05,-0.0210938,1.55578,3.2325
-4.845000e-05,-0.0232812,1.54891,3.22641
-4.844000e-05,-0.0217188,1.55203,3.22828
-4.843000e-05,-0.0220312,1.55266,3.22922
-4.842000e-05,-0.0210938,1.5525,3.22906
-4.841000e-05,-0.0223437,1.55453,3.2275
-4.840000e-05,-0.0229687,1.55125,3.22938
-4.839000e-05,-0.0207813,1.55141,3.22641
-4.838000e-05,-0.0229687,1.55109,3.22922
-4.837000e-05,-0.0220312,1.55547,3.22953
-4.836000e-05,-0.0229687,1.54984,3.22812
-4.835000e-05,-0.0229687,1.54906,3.23234
-4.834000e-05,-0.02125,1.55344,3.22797
-4.833000e-05,-0.0223437,1.54891,3.22812
-4.832000e-05,-0.0221875,1.55484,3.22578
-4.831000e-05,-0.023125,1.55234,3.23016
-4.830000e-05,-0.0228125,1.55016,3.22609
-4.829000e-05,-0.0220312,1.55188,3.22938
-4.828000e-05,-0.021875,1.55766,3.23188
-4.827000e-05,-0.0228125,1.55031,3.22906
-4.826000e-05,-0.02375,1.5525,3.22531
-4.825000e-05,-0.0234375,1.55219,3.23047
-4.824000e-05,-0.0220312,1.55094,3.22688
-4.823000e-05,-0.0221875,1.55531,3.22641
-4.822000e-05,-0.0210938,1.55391,3.22578
-4.821000e-05,-0.0232812,1.55344,3.22797
-4.820000e-05,-0.02125,1.55406,3.23375
-4.819000e-05,-0.0223437,1.55297,3.22297
-4.818000e-05,-0.0228125,1.55094,3.22609
-4.817000e-05,-0.0240625,1.55016,3.23062
-4.816000e-05,-0.02375,1.55125,3.22484
-4.815000e-05,-0.0239063,1.55156,3.22625
-4.814000e-05,-0.0210938,1.55203,3.23062
-4.813000e-05,-0.0235938,1.54844,3.22672
-4.812000e-05,-0.0214063,1.55188,3.22656
-4.811000e-05,-0.0220312,1.55313,3.22766
-4.810000e-05,-0.0214063,1.55344,3.22938
-4.809000e-05,-0.0226562,1.55406,3.22797
-4.808000e-05,-0.0239063,1.5525,3.22781
-4.807000e-05,-0.0215625,1.55469,3.22859
-4.806000e-05,-0.02375,1.55281,3.22938
-4.805000e-05,-0.0215625,1.55578,3.22875
-4.804000e-05,-0.0225,1.55297,3.22719
-4.803000e-05,-0.021875,1.55188,3.23141
-4.802000e-05,-0.0221875,1.55203,3.22969
-4.801000e-05,-0.0234375,1.55094,3.22859
-4.800000e-05,-0.0214063,1.55297,3.22656
-4.799000e-05,-0.023125,1.55016,3.22875
-4.798000e-05,-0.0232812,1.55063,3.22781
-4.797000e-05,-0.0220312,1.55031,3.22859
-4.796000e-05,-0.0214063,1.55578,3.22906
-4.795000e-05,-0.0221875,1.54984,3.22844
-4.794000e-05,-0.0234375,1.54969,3.22547
-4.793000e-05,-0.023125,1.55172,3.22766
-4.792000e-05,-0.0214063,1.55078,3.22766
-4.791000e-05,-0.0223437,1.55547,3.22812
-4.790000e-05,-0.0214063,1.55281,3.22578
-4.789000e-05,-0.0229687,1.55094,3.23047
-4.788000e-05,-0.021875,1.55234,3.23297
-4.787000e-05,-0.0225,1.55438,3.22625
-4.786000e-05,-0.0217188,1.55141,3.22703
-4.785000e-05,-0.0239063,1.54984,3.23297
-4.784000e-05,-0.0239063,1.55094,3.22594
-4.783000e-05,-0.0235938,1.55359,3.22562
-4.782000e-05,-0.0207813,1.55594,3.23078
-4.781000e-05,-0.0229687,1.54906,3.22688
-4.780000e-05,-0.0214063,1.55203,3.22781
-4.779000e-05,-0.0239063,1.55438,3.22656
-4.778000e-05,-0.0214063,1.55234,3.22953
-4.777000e-05,-0.023125,1.55422,3.22828
-4.776000e-05,-0.0225,1.55172,3.22531
-4.775000e-05,-0.0220312,1.55359,3.23047
-4.774000e-05,-0.0239063,1.55531,3.22859
-4.773000e-05,-0.0221875,1.55406,3.22719
-4.772000e-05,-0.0229687,1.55125,3.22766
-4.771000e-05,-0.0226562,1.55063,3.2325
-4.770000e-05,-0.023125,1.55313,3.22797
-4.769000e-05,-0.0225,1.54922,3.2275
-4.768000e-05,-0.0209375,1.55375,3.22609
-4.767000e-05,-0.0221875,1.55031,3.22766
-4.766000e-05,-0.0228125,1.5525,3.22641
-4.765000e-05,-0.0228125,1.55156,3.22719
-4.764000e-05,-0.0220312,1.55641,3.22844
-4.763000e-05,-0.0235938,1.55047,3.22797
-4.762000e-05,-0.0226562,1.55156,3.22594
-4.761000e-05,-0.0228125,1.55203,3.22844
-4.760000e-05,-0.021875,1.55031,3.22906
-4.759000e-05,-0.0221875,1.55453,3.22734
-4.758000e-05,-0.02125,1.55391,3.22531
-4.757000e-05,-0.023125,1.55297,3.22828
-4.756000e-05,-0.0225,1.55297,3.23156
-4.755000e-05,-0.0215625,1.55422,3.22375
-4.754000e-05,-0.0239063,1.55188,3.22703
-4.753000e-05,-0.0246875,1.55,3.23
-4.752000e-05,-0.023125,1.55297,3.22453
-4.751000e-05,-0.0235938,1.55281,3.22609
-4.750000e-05,-0.0215625,1.555,3.23266
-4.749000e-05,-0.02375,1.54875,3.22547
-4.748000e-05,-0.0221875,1.55109,3.22891
-4.747000e-05,-0.0235938,1.55406,3.22922
-4.746000e-05,-0.0228125,1.55438,3.22984
-4.745000e-05,-0.0229687,1.55594,3.22781
-4.744000e-05,-0.0225,1.55266,3.22734
-4.743000e-05,-0.0210938,1.55219,3.22859
-4.742000e-05,-0.0235938,1.55313,3.22703
-4.741000e-05,-0.0225,1.55516,3.23
-4.740000e-05,-0.0232812,1.55453,3.22797
-4.739000e-05,-0.02375,1.55031,3.23297
-4.738000e-05,-0.0223437,1.55297,3.22672
-4.737000e-05,-0.0246875,1.54859,3.22938
-4.736000e-05,-0.021875,1.55484,3.22547
-4.735000e-05,-0.0226562,1.55078,3.22984
-4.734000e-05,-0.0220312,1.5525,3.22641
-4.733000e-05,-0.0223437,1.55219,3.22828
-4.732000e-05,-0.0239063,1.55641,3.22922
-4.731000e-05,-0.0229687,1.54953,3.22734
-4.730000e-05,-0.0225,1.55188,3.22609
-4.729000e-05,-0.0228125,1.55156,3.22609
-4.728000e-05,-0.021875,1.55203,3.22594
-4.727000e-05,-0.0215625,1.55406,3.22812
-4.726000e-05,-0.0210938,1.55406,3.22453
-4.725000e-05,-0.0226562,1.55297,3.22938
-4.724000e-05,-0.0229687,1.55266,3.23203
-4.723000e-05,-0.0220312,1.55469,3.22406
-4.722000e-05,-0.0234375,1.55125,3.22594
-4.721000e-05,-0.023125,1.55156,3.23031
-4.720000e-05,-0.02375,1.55328,3.22578
-4.719000e-05,-0.0228125,1.55188,3.22781
-4.718000e-05,-0.021875,1.55422,3.23234
-4.717000e-05,-0.0223437,1.54922,3.22625
-4.716000e-05,-0.0232812,1.55281,3.22688
-4.715000e-05,-0.0235938,1.55344,3.23
-4.714000e-05,-0.0215625,1.55453,3.23078
-4.713000e-05,-0.0217188,1.55594,3.22969
-4.712000e-05,-0.0223437,1.55234,3.22594
-4.711000e-05,-0.02125,1.55344,3.22828
-4.710000e-05,-0.023125,1.55297,3.22828
-4.709000e-05,-0.02125,1.55516,3.22828
-4.708000e-05,-0.0229687,1.55359,3.22609
-4.707000e-05,-0.0232812,1.55094,3.23
-4.706000e-05,-0.0226562,1.55203,3.23016
-4.705000e-05,-0.0217188,1.55031,3.22891
-4.704000e-05,-0.023125,1.55469,3.22797
-4.703000e-05,-0.0229687,1.55063,3.23031
-4.702000e-05,-0.0228125,1.55391,3.22625
-4.701000e-05,-0.0220312,1.55344,3.22828
-4.700000e-05,-0.0225,1.55609,3.23031
-4.699000e-05,-0.0234375,1.55047,3.22766
-4.698000e-05,-0.02375,1.55328,3.22672
-4.697000e-05,-0.0229687,1.55156,3.2275
-4.696000e-05,-0.0215625,1.55203,3.22719
-4.695000e-05,-0.0221875,1.55656,3.22812
-4.694000e-05,-0.0217188,1.55344,3.22547
-4.693000e-05,-0.0234375,1.55313,3.22969
-4.692000e-05,-0.0220312,1.55406,3.23
-4.691000e-05,-0.0228125,1.55453,3.22406
-4.690000e-05,-0.023125,1.55219,3.22844
-4.689000e-05,-0.02375,1.55172,3.23016
-4.688000e-05,-0.02375,1.55266,3.22531
-4.687000e-05,-0.0221875,1.55344,3.22625
-4.686000e-05,-0.0217188,1.55406,3.23109
-4.685000e-05,-0.0223437,1.54922,3.22609
-4.684000e-05,-0.0217188,1.55297,3.22906
-4.683000e-05,-0.0220312,1.55516,3.22891
-4.682000e-05,-0.0221875,1.55422,3.23078
-4.681000e-05,-0.0225,1.55609,3.22938
-4.680000e-05,-0.0223437,1.55047,3.2275
-4.679000e-05,-0.0214063,1.55156,3.23094
-4.678000e-05,-0.023125,1.55469,3.22828
-4.677000e-05,-0.021875,1.55641,3.22891
-4.676000e-05,-0.023125,1.55422,3.22641
-4.675000e-05,-0.0235938,1.55125,3.23281
-4.674000e-05,-0.023125,1.55313,3.22922
-4.673000e-05,-0.0228125,1.54984,3.22875
-4.672000e-05,-0.0214063,1.55531,3.22594
-4.671000e-05,-0.0240625,1.55,3.22812
-4.670000e-05,-0.0217188,1.55,3.22547
-4.669000e-05,-0.0217188,1.55297,3.22797
-4.668000e-05,-0.0214063,1.55609,3.23031
-4.667000e-05,-0.0239063,1.55125,3.22906
-4.666000e-05,-0.0234375,1.55328,3.22781
-4.665000e-05,-0.02375,1.55188,3.22938
-4.664000e-05,-0.0223437,1.555,3.22906
-4.663000e-05,-0.021875,1.55594,3.22625
-4.662000e-05,-0.021875,1.5525,3.22484
-4.661000e-05,-0.0221875,1.55313,3.22812
-4.660000e-05,-0.0220312,1.55422,3.23266
-4.659000e-05,-0.0225,1.55547,3.22359
-4.658000e-05,-0.023125,1.55047,3.22766
-4.657000e-05,-0.0225,1.55031,3.22953
-4.656000e-05,-0.024375,1.54922,3.225
-4.655000e-05,-0.0217188,1.55453,3.22578
-4.654000e-05,-0.0220312,1.55516,3.23016
-4.653000e-05,-0.0217188,1.54828,3.22547
-4.652000e-05,-0.0226562,1.55281,3.23047
-4.651000e-05,-0.0220312,1.55422,3.22828
-4.650000e-05,-0.021875,1.55578,3.23
-4.649000e-05,-0.0215625,1.55578,3.23
-4.648000e-05,-0.02375,1.55141,3.22516
-4.647000e-05,-0.0217188,1.55563,3.22953
-4.646000e-05,-0.0239063,1.55391,3.22656
-4.645000e-05,-0.0209375,1.55594,3.23016
-4.644000e-05,-0.0232812,1.55125,3.22688
-4.643000e-05,-0.0239063,1.55125,3.2325
-4.642000e-05,-0.0232812,1.55234,3.22547
-4.641000e-05,-0.0228125,1.55063,3.22781
-4.640000e-05,-0.02125,1.55563,3.22688
-4.639000e-05,-0.0242188,1.55109,3.22875
-4.638000e-05,-0.0228125,1.55016,3.22609
-4.637000e-05,-0.0223437,1.55109,3.2275
-4.636000e-05,-0.02125,1.55641,3.23188
-4.635000e-05,-0.0234375,1.54937,3.22734
-4.634000e-05,-0.02125,1.55297,3.22703
-4.633000e-05,-0.0225,1.55172,3.22891
-4.632000e-05,-0.0226562,1.55375,3.22594
-4.631000e-05,-0.021875,1.55703,3.22922
-4.630000e-05,-0.0223437,1.55406,3.22406
-4.629000e-05,-0.023125,1.55484,3.22906
-4.628000e-05,-0.0229687,1.55313,3.23141
-4.627000e-05,-0.0226562,1.55328,3.22344
-4.626000e-05,-0.023125,1.55172,3.22812
-4.625000e-05,-0.0223437,1.55234,3.23125
-4.624000e-05,-0.0234375,1.55234,3.22531
-4.623000e-05,-0.0217188,1.55313,3.22547
-4.622000e-05,-0.0215625,1.55516,3.23109
-4.621000e-05,-0.0240625,1.54984,3.22609
-4.620000e-05,-0.0234375,1.55281,3.23094
-4.619000e-05,-0.0228125,1.55531,3.22625
-4.618000e-05,-0.0217188,1.55453,3.22969
-4.617000e-05,-0.0225,1.55516,3.23047
-4.616000e-05,-0.0221875,1.55188,3.22656
-4.615000e-05,-0.0210938,1.55656,3.23234
-4.614000e-05,-0.0240625,1.55531,3.22578
-4.613000e-05,-0.02125,1.555,3.23016
-4.612000e-05,-0.0234375,1.55328,3.22766
-4.611000e-05,-0.0228125,1.55094,3.23172
-4.610000e-05,-0.0226562,1.5525,3.225
-4.609000e-05,-0.0234375,1.55,3.22844
-4.608000e-05,-0.02125,1.55453,3.225
-4.607000e-05,-0.023125,1.55063,3.22797
-4.606000e-05,-0.0225,1.55328,3.22453
-4.605000e-05,-0.0229687,1.5525,3.22938
-4.604000e-05,-0.0214063,1.55594,3.23406
-4.603000e-05,-0.023125,1.55047,3.22875
-4.602000e-05,-0.0248438,1.55266,3.22625
-4.601000e-05,-0.0232812,1.5525,3.22797
-4.600000e-05,-0.0229687,1.55234,3.22562
-4.599000e-05,-0.021875,1.55594,3.22812
-4.598000e-05,-0.0210938,1.55438,3.22625
-4.597000e-05,-0.0232812,1.55484,3.22719
-4.596000e-05,-0.0228125,1.55344,3.22984
-4.595000e-05,-0.0226562,1.55438,3.22453
-4.594000e-05,-0.0215625,1.55234,3.22734
-4.593000e-05,-0.0242188,1.55,3.22938
-4.592000e-05,-0.0240625,1.55344,3.22531
-4.591000e-05,-0.0221875,1.55141,3.22406
-4.590000e-05,-0.020625,1.55563,3.22938
-4.589000e-05,-0.0234375,1.54891,3.22516
-4.588000e-05,-0.0232812,1.55328,3.23062
-4.587000e-05,-0.0232812,1.55484,3.22844
-4.586000e-05,-0.021875,1.55406,3.22906
-4.585000e-05,-0.0225,1.55469,3.23
-4.584000e-05,-0.0229687,1.55141,3.22891
-4.583000e-05,-0.0215625,1.5575,3.23188
-4.582000e-05,-0.0229687,1.55188,3.22766
-4.581000e-05,-0.0215625,1.55672,3.22797
-4.580000e-05,-0.0221875,1.55469,3.22719
-4.579000e-05,-0.0225,1.55266,3.23
-4.578000e-05,-0.023125,1.55313,3.22578
-4.577000e-05,-0.0228125,1.55219,3.22984
-4.576000e-05,-0.0223437,1.55547,3.22609
-4.575000e-05,-0.0240625,1.55078,3.22781
-4.574000e-05,-0.0223437,1.55047,3.22375
-4.573000e-05,-0.0226562,1.55406,3.23016
-4.572000e-05,-0.02125,1.55703,3.23125
-4.571000e-05,-0.0240625,1.54969,3.22812
-4.570000e-05,-0.0228125,1.55344,3.22844
-4.569000e-05,-0.0228125,1.5525,3.22797
-4.568000e-05,-0.0221875,1.55453,3.22422
-4.567000e-05,-0.0215625,1.55766,3.22953
-4.566000e-05,-0.0215625,1.55484,3.22406
-4.565000e-05,-0.0228125,1.55516,3.22812
-4.564000e-05,-0.0225,1.55344,3.23266
-4.563000e-05,-0.021875,1.55469,3.22484
-4.562000e-05,-0.0221875,1.55281,3.22734
-4.561000e-05,-0.021875,1.55297,3.23109
-4.560000e-05,-0.0239063,1.55422,3.22625
-4.559000e-05,-0.0210938,1.55391,3.22453
-4.558000e-05,-0.0228125,1.55531,3.23016
-4.557000e-05,-0.0221875,1.54984,3.22578
-4.556000e-05,-0.0220312,1.55219,3.22812
-4.555000e-05,-0.0232812,1.55625,3.22859
-4.554000e-05,-0.0217188,1.55422,3.22938
-4.553000e-05,-0.0229687,1.55719,3.22891
-4.552000e-05,-0.0225,1.55266,3.22719
-4.551000e-05,-0.0214063,1.55719,3.23203
-4.550000e-05,-0.0235938,1.55344,3.22609
-4.549000e-05,-0.02125,1.55516,3.22875
-4.548000e-05,-0.0226562,1.55547,3.22672
-4.547000e-05,-0.0228125,1.55125,3.23188
-4.546000e-05,-0.02375,1.55297,3.22688
-4.545000e-05,-0.0234375,1.55141,3.22797
-4.544000e-05,-0.0209375,1.55609,3.22406
-4.543000e-05,-0.0228125,1.55031,3.23016
-4.542000e-05,-0.0226562,1.55328,3.22344
-4.541000e-05,-0.02375,1.55375,3.23109
-4.540000e-05,-0.02125,1.55578,3.23219
-4.539000e-05,-0.0234375,1.54984,3.2275
-4.538000e-05,-0.020625,1.55375,3.22906
-4.537000e-05,-0.0226562,1.55203,3.22625
-4.536000e-05,-0.0220312,1.55344,3.22719
-4.535000e-05,-0.0223437,1.55547,3.23062
-4.534000e-05,-0.0221875,1.55516,3.22406
-4.533000e-05,-0.0223437,1.55531,3.22797
-4.532000e-05,-0.02125,1.55359,3.23188
-4.531000e-05,-0.02375,1.55469,3.22328
-4.530000e-05,-0.0225,1.55156,3.22781
-4.529000e-05,-0.0228125,1.55203,3.23188
-4.528000e-05,-0.0221875,1.55313,3.22453
-4.527000e-05,-0.0228125,1.55313,3.22719
-4.526000e-05,-0.0209375,1.55563,3.22875
-4.525000e-05,-0.0225,1.55156,3.22484
-4.524000e-05,-0.0223437,1.55484,3.22828
-4.523000e-05,-0.0226562,1.55531,3.22625
-4.522000e-05,-0.0214063,1.555,3.23031
-4.521000e-05,-0.0232812,1.55563,3.22781
-4.520000e-05,-0.02375,1.55188,3.22578
-4.519000e-05,-0.0214063,1.55734,3.23141
-4.518000e-05,-0.0239063,1.55375,3.22922
-4.517000e-05,-0.0209375,1.55625,3.22938
-4.516000e-05,-0.0226562,1.55547,3.22641
-4.515000e-05,-0.0248438,1.55109,3.23172
