measurements/slope_350fF/tek0002ALL.csv

Model,MDO3034
Firmware Version,1.08

Waveform Type,ANALOG,,
Point Format,Y,,
Horizontal Units,s,,
Horizontal Scale,4e-06,,
Horizontal Delay,0,,
Sample Interval,4e-09,,
Record Length,10000,,
Gating,0.0% to 100.0%,,
Probe Attenuation,10,10,1
Vertical Units,V,V,V
Vertical Offset,0,0,0
Vertical Scale,1,1,1
Vertical Position,0,-0.02,0
,,,
,,,
,,,
Label,M2024,M2029,M2030
TIME,CH1,CH3,CH4
-2.000000e-05,1.34781,1.42797,-0.0565625
-1.999600e-05,1.34719,1.42312,-0.0545313
-1.999200e-05,1.35125,1.42516,-0.0570312
-1.998800e-05,1.34828,1.42875,-0.0535938
-1.998400e-05,1.3475,1.42688,-0.058125
-1.998000e-05,1.35109,1.42344,-0.0534375
-1.997600e-05,1.35094,1.42469,-0.0578125
-1.997200e-05,1.34953,1.4225,-0.0553125
-1.996800e-05,1.34609,1.42609,-0.0592188
-1.996400e-05,1.34984,1.42578,-0.0551563
-1.996000e-05,1.34766,1.42437,-0.0585938
-1.995600e-05,1.35031,1.42531,-0.0565625
-1.995200e-05,1.355,1.43281,-0.0554688
-1.994800e-05,1.35062,1.42703,-0.0565625
-1.994400e-05,1.34828,1.42344,-0.0560937
-1.994000e-05,1.34922,1.42328,-0.0578125
-1.993600e-05,1.34875,1.42781,-0.0589063
-1.993200e-05,1.34859,1.42516,-0.055625
-1.992800e-05,1.34641,1.42781,-0.058125
-1.992400e-05,1.35078,1.42828,-0.0539063
-1.992000e-05,1.35375,1.42563,-0.054375
-1.991600e-05,1.345,1.42781,-0.0584375
-1.991200e-05,1.34594,1.42922,-0.055625
-1.990800e-05,1.35047,1.42609,-0.0557813
-1.990400e-05,1.34563,1.42469,-0.0584375
-1.990000e-05,1.34609,1.42594,-0.0579687
-1.989600e-05,1.35172,1.43016,-0.0529688
-1.989200e-05,1.34641,1.42141,-0.0565625
-1.988800e-05,1.34688,1.42344,-0.0590625
-1.988400e-05,1.34813,1.42578,-0.055
-1.988000e-05,1.35125,1.42734,-0.0567187
-1.987600e-05,1.35016,1.42531,-0.0567187
-1.987200e-05,1.34781,1.4275,-0.0565625
-1.986800e-05,1.34813,1.42625,-0.0553125
-1.986400e-05,1.34906,1.42828,-0.0571875
-1.986000e-05,1.35016,1.42938,-0.0535938
-1.985600e-05,1.34813,1.42594,-0.0551563
-1.985200e-05,1.35187,1.42406,-0.0532813
-1.984800e-05,1.35266,1.425,-0.0579687
-1.984400e-05,1.34891,1.42297,-0.0545313
-1.984000e-05,1.34688,1.42531,-0.0590625
-1.983600e-05,1.34922,1.42437,-0.0529688
-1.983200e-05,1.34578,1.42297,-0.0567187
-1.982800e-05,1.34969,1.42563,-0.055625
-1.982400e-05,1.35,1.43172,-0.0567187
-1.982000e-05,1.35062,1.42719,-0.0564062
-1.981600e-05,1.345,1.42188,-0.0557813
-1.981200e-05,1.35047,1.42406,-0.0573437
-1.980800e-05,1.34844,1.42594,-0.0592188
-1.980400e-05,1.34922,1.42797,-0.0554688
-1.980000e-05,1.34828,1.42609,-0.0584375
-1.979600e-05,1.35,1.42828,-0.0551563
-1.979200e-05,1.35359,1.42563,-0.0529688
-1.978800e-05,1.34578,1.42875,-0.0579687
-1.978400e-05,1.34563,1.42703,-0.0576562
-1.978000e-05,1.35062,1.42578,-0.0548438
-1.977600e-05,1.34563,1.42203,-0.0578125
-1.977200e-05,1.34703,1.42688,-0.0585938
-1.976800e-05,1.35187,1.43016,-0.0540625
-1.976400e-05,1.34609,1.4225,-0.0565625
-1.976000e-05,1.34719,1.42344,-0.0573437
-1.975600e-05,1.34844,1.42625,-0.055
-1.975200e-05,1.35031,1.42734,-0.0546875
-1.974800e-05,1.34906,1.42813,-0.0576562
-1.974400e-05,1.34813,1.42844,-0.0565625
-1.974000e-05,1.34875,1.42391,-0.0545313
-1.973600e-05,1.35031,1.42453,-0.0564062
-1.973200e-05,1.34875,1.43016,-0.0542188
-1.972800e-05,1.34828,1.42703,-0.0571875
-1.972400e-05,1.35219,1.42391,-0.0551563
-1.972000e-05,1.34813,1.42609,-0.0567187
-1.971600e-05,1.35156,1.42141,-0.0539063
-1.971200e-05,1.34516,1.42469,-0.0590625
-1.970800e-05,1.35047,1.42547,-0.054375
-1.970400e-05,1.34672,1.42391,-0.0571875
-1.970000e-05,1.34969,1.42391,-0.0553125
-1.969600e-05,1.34906,1.43016,-0.054375
-1.969200e-05,1.35078,1.42625,-0.05625
-1.968800e-05,1.34578,1.42422,-0.0564062
-1.968400e-05,1.35031,1.42344,-0.0565625
-1.968000e-05,1.34516,1.42828,-0.058125
-1.967600e-05,1.35016,1.42609,-0.056875
-1.967200e-05,1.34891,1.42734,-0.0567187
-1.966800e-05,1.35,1.42703,-0.054375
-1.966400e-05,1.35359,1.42484,-0.0540625
-1.966000e-05,1.34375,1.42766,-0.0570312
-1.965600e-05,1.34625,1.42906,-0.0575
-1.965200e-05,1.35187,1.42469,-0.055
-1.964800e-05,1.34547,1.42297,-0.0575
-1.964400e-05,1.34656,1.42609,-0.0584375
-1.964000e-05,1.35203,1.42797,-0.0535938
-1.963600e-05,1.34656,1.42437,-0.0570312
-1.963200e-05,1.34625,1.42266,-0.0573437
-1.962800e-05,1.34875,1.42625,-0.0553125
-1.962400e-05,1.35047,1.42672,-0.0565625
-1.962000e-05,1.34953,1.42719,-0.0554688
-1.961600e-05,1.34875,1.42656,-0.055625
-1.961200e-05,1.34891,1.42406,-0.0540625
-1.960800e-05,1.35016,1.42625,-0.0575
-1.960400e-05,1.3475,1.42875,-0.0535938
-1.960000e-05,1.34859,1.42719,-0.05625
-1.959600e-05,1.35187,1.42531,-0.0535938
-1.959200e-05,1.35203,1.425,-0.0567187
-1.958800e-05,1.34891,1.42172,-0.0546875
-1.958400e-05,1.35047,1.42641,-0.0585938
-1.958000e-05,1.35078,1.42516,-0.053125
-1.957600e-05,1.34781,1.42391,-0.056875
-1.957200e-05,1.35,1.42563,-0.0551563
-1.956800e-05,1.34984,1.43125,-0.0582812
-1.956400e-05,1.35062,1.42797,-0.05625
-1.956000e-05,1.34922,1.42203,-0.056875
-1.955600e-05,1.34844,1.42406,-0.0573437
-1.955200e-05,1.34734,1.42594,-0.0584375
-1.954800e-05,1.34781,1.42688,-0.0559375
-1.954400e-05,1.34859,1.42828,-0.0573437
-1.954000e-05,1.34937,1.42547,-0.0553125
-1.953600e-05,1.35516,1.42484,-0.051875
-1.953200e-05,1.34516,1.42734,-0.0579687
-1.952800e-05,1.34531,1.42797,-0.0557813
-1.952400e-05,1.34922,1.42547,-0.0539063
-1.952000e-05,1.34688,1.42281,-0.0576562
-1.951600e-05,1.34891,1.42625,-0.0589063
-1.951200e-05,1.35172,1.43063,-0.0540625
-1.950800e-05,1.34734,1.42188,-0.0578125
-1.950400e-05,1.34766,1.42344,-0.0575
-1.950000e-05,1.34953,1.42406,-0.0553125
-1.949600e-05,1.35297,1.42734,-0.0529688
-1.949200e-05,1.35,1.43047,-0.05625
-1.948800e-05,1.34797,1.42516,-0.05625
-1.948400e-05,1.3475,1.42375,-0.0554688
-1.948000e-05,1.34969,1.42875,-0.0571875
-1.947600e-05,1.34766,1.4275,-0.0546875
-1.947200e-05,1.34875,1.42688,-0.0573437
-1.946800e-05,1.35266,1.42375,-0.0528125
-1.946400e-05,1.35141,1.42563,-0.0573437
-1.946000e-05,1.34906,1.42172,-0.0576562
-1.945600e-05,1.34672,1.42484,-0.0585938
-1.945200e-05,1.34937,1.42484,-0.0551563
-1.944800e-05,1.34703,1.42219,-0.0578125
-1.944400e-05,1.34891,1.42312,-0.0554688
-1.944000e-05,1.35156,1.43125,-0.0554688
-1.943600e-05,1.34922,1.42578,-0.056875
-1.943200e-05,1.34672,1.42328,-0.0560937
-1.942800e-05,1.34906,1.4225,-0.0564062
-1.942400e-05,1.35078,1.425,-0.0582812
-1.942000e-05,1.34969,1.42797,-0.0557813
-1.941600e-05,1.34734,1.42828,-0.058125
-1.941200e-05,1.34969,1.42594,-0.055625
-1.940800e-05,1.35359,1.42656,-0.0525
-1.940400e-05,1.34438,1.42844,-0.0585938
-1.940000e-05,1.34906,1.42781,-0.05625
-1.939600e-05,1.35313,1.42484,-0.0553125
-1.939200e-05,1.34547,1.42219,-0.058125
-1.938800e-05,1.34672,1.42906,-0.05875
-1.938400e-05,1.35484,1.42859,-0.0532813
-1.938000e-05,1.3475,1.42203,-0.0578125
-1.937600e-05,1.34797,1.42656,-0.0573437
-1.937200e-05,1.34734,1.425,-0.0554688
-1.936800e-05,1.35094,1.42641,-0.055
-1.936400e-05,1.34859,1.42875,-0.0554688
-1.936000e-05,1.34781,1.42625,-0.0554688
-1.935600e-05,1.34906,1.42437,-0.0554688
-1.935200e-05,1.34937,1.42281,-0.0576562
-1.934800e-05,1.35047,1.42797,-0.0534375
-1.934400e-05,1.34797,1.42609,-0.0585938
-1.934000e-05,1.35344,1.42359,-0.0526563
-1.933600e-05,1.35266,1.42563,-0.0570312
-1.933200e-05,1.34969,1.42266,-0.0551563
-1.932800e-05,1.34703,1.42922,-0.0584375
-1.932400e-05,1.34891,1.42437,-0.0535938
-1.932000e-05,1.34766,1.42422,-0.0579687
-1.931600e-05,1.35281,1.42297,-0.0560937
-1.931200e-05,1.35016,1.4275,-0.0565625
-1.930800e-05,1.34937,1.42578,-0.0545313
-1.930400e-05,1.34734,1.42312,-0.05625
-1.930000e-05,1.35,1.42469,-0.0567187
-1.929600e-05,1.34828,1.42656,-0.05875
-1.929200e-05,1.34906,1.42781,-0.0559375
-1.928800e-05,1.34922,1.42703,-0.0564062
-1.928400e-05,1.34922,1.42766,-0.055625
-1.928000e-05,1.35438,1.42516,-0.0529688
-1.927600e-05,1.34406,1.42703,-0.05875
-1.927200e-05,1.34766,1.42766,-0.0579687
-1.926800e-05,1.34969,1.42437,-0.0559375
-1.926400e-05,1.34641,1.42312,-0.0578125
-1.926000e-05,1.34766,1.42656,-0.0565625
-1.925600e-05,1.35219,1.43047,-0.0542188
-1.925200e-05,1.34781,1.42359,-0.0575
-1.924800e-05,1.34766,1.42312,-0.0565625
-1.924400e-05,1.34688,1.42531,-0.0545313
-1.924000e-05,1.35031,1.425,-0.05625
-1.923600e-05,1.35,1.43016,-0.0570312
-1.923200e-05,1.34844,1.42672,-0.0565625
-1.922800e-05,1.34953,1.42484,-0.0545313
-1.922400e-05,1.35078,1.42578,-0.056875
-1.922000e-05,1.34859,1.43031,-0.0534375
-1.921600e-05,1.34844,1.42547,-0.0582812
-1.921200e-05,1.35297,1.42312,-0.0529688
-1.920800e-05,1.35,1.42422,-0.0571875
-1.920400e-05,1.34984,1.42234,-0.0564062
-1.920000e-05,1.34875,1.42578,-0.059375
-1.919600e-05,1.34844,1.42469,-0.0532813
-1.919200e-05,1.34516,1.42328,-0.0579687
-1.918800e-05,1.35062,1.42219,-0.0557813
-1.918400e-05,1.35078,1.43109,-0.0560937
-1.918000e-05,1.34937,1.42797,-0.0553125
-1.917600e-05,1.34688,1.42203,-0.0557813
-1.917200e-05,1.35109,1.42328,-0.0578125
-1.916800e-05,1.35094,1.42703,-0.05875
-1.916400e-05,1.35062,1.42547,-0.0557813
-1.916000e-05,1.34609,1.42813,-0.0575
-1.915600e-05,1.34875,1.42797,-0.055625
-1.915200e-05,1.35266,1.42703,-0.0529688
-1.914800e-05,1.34609,1.42859,-0.0585938
-1.914400e-05,1.34734,1.42641,-0.055625
-1.914000e-05,1.35031,1.42422,-0.0565625
-1.913600e-05,1.34656,1.42344,-0.0579687
-1.913200e-05,1.34875,1.42734,-0.0565625
-1.912800e-05,1.3525,1.42969,-0.0534375
-1.912400e-05,1.34641,1.42266,-0.0565625
-1.912000e-05,1.35125,1.42625,-0.0578125
-1.911600e-05,1.34906,1.42625,-0.0553125
-1.911200e-05,1.35,1.42625,-0.0546875
-1.910800e-05,1.35,1.42844,-0.0546875
-1.910400e-05,1.34766,1.42656,-0.0559375
-1.910000e-05,1.35078,1.42469,-0.055
-1.909600e-05,1.34766,1.42656,-0.0576562
-1.909200e-05,1.34953,1.42688,-0.0532813
-1.908800e-05,1.34922,1.42578,-0.0570312
-1.908400e-05,1.35266,1.42375,-0.053125
-1.908000e-05,1.35109,1.42297,-0.0565625
-1.907600e-05,1.34969,1.4225,-0.055625
-1.907200e-05,1.34766,1.42891,-0.059375
-1.906800e-05,1.34906,1.42484,-0.0548438
-1.906400e-05,1.34641,1.42344,-0.0565625
-1.906000e-05,1.35219,1.42203,-0.055
-1.905600e-05,1.35031,1.43094,-0.0571875
-1.905200e-05,1.34844,1.42531,-0.05625
-1.904800e-05,1.34641,1.42359,-0.0557813
-1.904400e-05,1.34969,1.42422,-0.0560937
-1.904000e-05,1.34656,1.42938,-0.0582812
-1.903600e-05,1.34937,1.42734,-0.0546875
-1.903200e-05,1.34547,1.42688,-0.0578125
-1.902800e-05,1.35062,1.42531,-0.0557813
-1.902400e-05,1.35469,1.42672,-0.053125
-1.902000e-05,1.34547,1.42625,-0.0579687
-1.901600e-05,1.34969,1.42828,-0.055625
-1.901200e-05,1.35016,1.42375,-0.0546875
-1.900800e-05,1.34766,1.42297,-0.0575
-1.900400e-05,1.34781,1.42594,-0.058125
-1.900000e-05,1.35172,1.42938,-0.0535938
-1.899600e-05,1.34516,1.42141,-0.0560937
-1.899200e-05,1.35125,1.42141,-0.0570312
-1.898800e-05,1.34906,1.42641,-0.0551563
-1.898400e-05,1.35047,1.42781,-0.053125
-1.898000e-05,1.34937,1.42703,-0.0571875
-1.897600e-05,1.34766,1.42672,-0.055
-1.897200e-05,1.34937,1.42375,-0.0548438
-1.896800e-05,1.34906,1.42516,-0.0578125
-1.896400e-05,1.34906,1.4275,-0.0539063
-1.896000e-05,1.34828,1.42359,-0.0567187
-1.895600e-05,1.35234,1.425,-0.0521875
-1.895200e-05,1.35109,1.42453,-0.05625
-1.894800e-05,1.34906,1.42234,-0.0551563
-1.894400e-05,1.34719,1.42844,-0.0592188
-1.894000e-05,1.35016,1.42188,-0.0559375
-1.893600e-05,1.3475,1.42234,-0.0575
-1.893200e-05,1.35109,1.42141,-0.0551563
-1.892800e-05,1.34813,1.42969,-0.05625
-1.892400e-05,1.34828,1.42453,-0.0559375
-1.892000e-05,1.34844,1.42266,-0.05625
-1.891600e-05,1.34813,1.42328,-0.056875
-1.891200e-05,1.34625,1.42625,-0.0579687
-1.890800e-05,1.34859,1.42828,-0.0553125
-1.890400e-05,1.34625,1.42922,-0.0576562
-1.890000e-05,1.34844,1.42781,-0.0564062
-1.889600e-05,1.35406,1.42672,-0.0529688
-1.889200e-05,1.34422,1.42688,-0.0578125
-1.888800e-05,1.34844,1.42719,-0.055625
-1.888400e-05,1.34922,1.42406,-0.0551563
-1.888000e-05,1.3475,1.42312,-0.0582812
-1.887600e-05,1.34609,1.42844,-0.058125
-1.887200e-05,1.35313,1.42938,-0.0546875
-1.886800e-05,1.34578,1.42203,-0.05625
-1.886400e-05,1.34844,1.42641,-0.0564062
-1.886000e-05,1.34797,1.42609,-0.0553125
-1.885600e-05,1.35016,1.425,-0.0564062
-1.885200e-05,1.34797,1.43219,-0.0560937
-1.884800e-05,1.34844,1.42578,-0.0560937
-1.884400e-05,1.35062,1.42516,-0.0546875
-1.884000e-05,1.34906,1.42578,-0.0571875
-1.883600e-05,1.35094,1.42969,-0.0521875
-1.883200e-05,1.3475,1.42375,-0.0576562
-1.882800e-05,1.35359,1.42359,-0.0532813
-1.882400e-05,1.35125,1.42516,-0.056875
-1.882000e-05,1.34875,1.42219,-0.0554688
-1.881600e-05,1.34719,1.42938,-0.059375
-1.881200e-05,1.35062,1.42469,-0.0546875
-1.880800e-05,1.34547,1.42078,-0.0571875
-1.880400e-05,1.34859,1.42266,-0.0553125
-1.880000e-05,1.35344,1.43156,-0.0557813
-1.879600e-05,1.34797,1.42625,-0.0567187
-1.879200e-05,1.35047,1.42484,-0.0559375
-1.878800e-05,1.35125,1.42484,-0.0573437
-1.878400e-05,1.34781,1.42719,-0.0570312
-1.878000e-05,1.34859,1.42703,-0.0554688
-1.877600e-05,1.34781,1.42406,-0.05875
-1.877200e-05,1.34828,1.42734,-0.0557813
-1.876800e-05,1.35266,1.42406,-0.0529688
-1.876400e-05,1.34406,1.4275,-0.0585938
-1.876000e-05,1.34781,1.42766,-0.0553125
-1.875600e-05,1.35078,1.42422,-0.0542188
-1.875200e-05,1.34516,1.42297,-0.0582812
-1.874800e-05,1.34547,1.42781,-0.0585938
-1.874400e-05,1.35297,1.43047,-0.0529688
-1.874000e-05,1.34625,1.42031,-0.056875
-1.873600e-05,1.35109,1.4225,-0.0546875
-1.873200e-05,1.34766,1.42547,-0.0551563
-1.872800e-05,1.34953,1.42688,-0.0539063
-1.872400e-05,1.34922,1.43063,-0.0560937
-1.872000e-05,1.34844,1.42484,-0.0553125
-1.871600e-05,1.35219,1.42391,-0.0546875
-1.871200e-05,1.34844,1.42391,-0.0570312
-1.870800e-05,1.35016,1.43,-0.05375
-1.870400e-05,1.34922,1.42609,-0.0571875
-1.870000e-05,1.35187,1.42437,-0.051875
-1.869600e-05,1.35313,1.42453,-0.055625
-1.869200e-05,1.3475,1.42281,-0.0567187
-1.868800e-05,1.34531,1.43,-0.05875
-1.868400e-05,1.35031,1.42453,-0.055625
-1.868000e-05,1.3475,1.42141,-0.056875
-1.867600e-05,1.35,1.42453,-0.0542188
-1.867200e-05,1.35219,1.43125,-0.0545313
-1.866800e-05,1.34922,1.42391,-0.0560937
-1.866400e-05,1.34797,1.42297,-0.0553125
-1.866000e-05,1.34688,1.42359,-0.056875
-1.865600e-05,1.35125,1.425,-0.0590625
-1.865200e-05,1.34719,1.42656,-0.05625
-1.864800e-05,1.34547,1.42469,-0.0585938
-1.864400e-05,1.34891,1.42672,-0.0554688
-1.864000e-05,1.35328,1.42688,-0.0525
-1.863600e-05,1.345,1.42766,-0.056875
-1.863200e-05,1.34813,1.42734,-0.05625
-1.862800e-05,1.34984,1.42266,-0.054375
-1.862400e-05,1.34641,1.42094,-0.05875
-1.862000e-05,1.34578,1.42859,-0.0575
-1.861600e-05,1.35453,1.42953,-0.0521875
-1.861200e-05,1.34719,1.42109,-0.0565625
-1.860800e-05,1.35203,1.42594,-0.0567187
-1.860400e-05,1.34844,1.42484,-0.0554688
-1.860000e-05,1.35031,1.42734,-0.0560937
-1.859600e-05,1.34922,1.43,-0.0554688
-1.859200e-05,1.34844,1.42469,-0.0554688
-1.858800e-05,1.35156,1.42406,-0.054375
-1.858400e-05,1.34859,1.42312,-0.0579687
-1.858000e-05,1.35062,1.42938,-0.0535938
-1.857600e-05,1.34797,1.42391,-0.0585938
-1.857200e-05,1.35266,1.42406,-0.0534375
-1.856800e-05,1.34906,1.42469,-0.0564062
-1.856400e-05,1.34922,1.42328,-0.0551563
-1.856000e-05,1.34547,1.43156,-0.0592188
-1.855600e-05,1.35031,1.42484,-0.0553125
-1.855200e-05,1.34531,1.42266,-0.0567187
-1.854800e-05,1.35094,1.42172,-0.05625
-1.854400e-05,1.35172,1.43125,-0.0551563
-1.854000e-05,1.34844,1.42531,-0.0553125
-1.853600e-05,1.35016,1.42469,-0.0565625
-1.853200e-05,1.34969,1.42437,-0.058125
-1.852800e-05,1.3475,1.42641,-0.0592188
-1.852400e-05,1.34922,1.42531,-0.0560937
-1.852000e-05,1.34547,1.42813,-0.058125
-1.851600e-05,1.35062,1.42719,-0.0567187
-1.851200e-05,1.35406,1.42484,-0.0528125
-1.850800e-05,1.34578,1.42656,-0.0582812
-1.850400e-05,1.34922,1.42719,-0.0565625
-1.850000e-05,1.35031,1.42344,-0.0542188
-1.849600e-05,1.34563,1.4225,-0.0575
-1.849200e-05,1.34734,1.42766,-0.0570312
-1.848800e-05,1.35266,1.42906,-0.0532813
-1.848400e-05,1.34688,1.42172,-0.05625
-1.848000e-05,1.35219,1.42281,-0.0553125
-1.847600e-05,1.34859,1.42641,-0.0564062
-1.847200e-05,1.34969,1.4275,-0.0532813
-1.846800e-05,1.34953,1.43078,-0.0553125
-1.846400e-05,1.34844,1.42609,-0.0559375
-1.846000e-05,1.35141,1.42437,-0.0542188
-1.845600e-05,1.34688,1.42563,-0.058125
-1.845200e-05,1.35078,1.43016,-0.0526563
-1.844800e-05,1.34531,1.42281,-0.0582812
-1.844400e-05,1.35484,1.42391,-0.05375
-1.844000e-05,1.34797,1.42375,-0.0559375
-1.843600e-05,1.35031,1.42141,-0.054375
-1.843200e-05,1.34656,1.42969,-0.0584375
-1.842800e-05,1.34766,1.42406,-0.0546875
-1.842400e-05,1.34609,1.42,-0.0584375
-1.842000e-05,1.35172,1.42344,-0.055
-1.841600e-05,1.3525,1.43219,-0.055625
-1.841200e-05,1.35,1.42563,-0.0570312
-1.840800e-05,1.34953,1.425,-0.0573437
-1.840400e-05,1.34984,1.42047,-0.0564062
-1.840000e-05,1.34937,1.42578,-0.0584375
-1.839600e-05,1.34984,1.42641,-0.0548438
-1.839200e-05,1.34656,1.42594,-0.0584375
-1.838800e-05,1.34969,1.42703,-0.0554688
-1.838400e-05,1.35078,1.42656,-0.05375
-1.838000e-05,1.34359,1.42656,-0.0571875
-1.837600e-05,1.34891,1.42516,-0.0557813
-1.837200e-05,1.3525,1.42344,-0.053125
-1.836800e-05,1.34734,1.42297,-0.0578125
-1.836400e-05,1.34563,1.42484,-0.05875
-1.836000e-05,1.3525,1.42828,-0.05375
-1.835600e-05,1.34609,1.41984,-0.0565625
-1.835200e-05,1.3525,1.42406,-0.0575
-1.834800e-05,1.34797,1.42422,-0.0553125
-1.834400e-05,1.35016,1.42625,-0.0564062
-1.834000e-05,1.34937,1.42828,-0.0554688
-1.833600e-05,1.34859,1.42281,-0.0567187
-1.833200e-05,1.35406,1.42344,-0.055
-1.832800e-05,1.34922,1.42531,-0.0576562
-1.832400e-05,1.34937,1.43016,-0.053125
-1.832000e-05,1.34609,1.42547,-0.0582812
-1.831600e-05,1.35391,1.42484,-0.0529688
-1.831200e-05,1.35,1.42469,-0.0573437
-1.830800e-05,1.35047,1.42125,-0.0557813
-1.830400e-05,1.34797,1.42922,-0.058125
-1.830000e-05,1.35047,1.42531,-0.054375
-1.829600e-05,1.34391,1.42,-0.0575
-1.829200e-05,1.35172,1.42109,-0.0553125
-1.828800e-05,1.35328,1.43219,-0.0540625
-1.828400e-05,1.34875,1.42563,-0.0559375
-1.828000e-05,1.35125,1.42437,-0.0560937
-1.827600e-05,1.35,1.42359,-0.0582812
-1.827200e-05,1.34953,1.42594,-0.0582812
-1.826800e-05,1.35016,1.42984,-0.0551563
-1.826400e-05,1.34531,1.42688,-0.0576562
-1.826000e-05,1.34969,1.42813,-0.0554688
-1.825600e-05,1.35219,1.42563,-0.0521875
-1.825200e-05,1.34453,1.42563,-0.0582812
-1.824800e-05,1.34875,1.42594,-0.0546875
-1.824400e-05,1.35156,1.42563,-0.0545313
-1.824000e-05,1.34688,1.4225,-0.0573437
-1.823600e-05,1.34656,1.42672,-0.0582812
-1.823200e-05,1.35187,1.43031,-0.0540625
-1.822800e-05,1.34672,1.42125,-0.0570312
-1.822400e-05,1.35172,1.42766,-0.0570312
-1.822000e-05,1.34828,1.42437,-0.0545313
-1.821600e-05,1.35031,1.42516,-0.053125
-1.821200e-05,1.34953,1.42828,-0.0559375
-1.820800e-05,1.34875,1.42437,-0.0565625
-1.820400e-05,1.35219,1.42563,-0.0548438
-1.820000e-05,1.34813,1.42516,-0.0579687
-1.819600e-05,1.35062,1.42781,-0.0539063
-1.819200e-05,1.34766,1.42688,-0.0571875
-1.818800e-05,1.35313,1.425,-0.0528125
-1.818400e-05,1.34688,1.42344,-0.05625
-1.818000e-05,1.34891,1.42047,-0.0560937
-1.817600e-05,1.34797,1.43047,-0.0596875
-1.817200e-05,1.34906,1.42422,-0.0535938
-1.816800e-05,1.34516,1.41906,-0.058125
-1.816400e-05,1.34969,1.42188,-0.0554688
-1.816000e-05,1.35641,1.43078,-0.0525
-1.815600e-05,1.34859,1.42688,-0.0557813
-1.815200e-05,1.35,1.42359,-0.0560937
-1.814800e-05,1.3475,1.42484,-0.0559375
-1.814400e-05,1.3475,1.42578,-0.058125
-1.814000e-05,1.35109,1.42734,-0.0553125
-1.813600e-05,1.34531,1.42453,-0.058125
-1.813200e-05,1.35047,1.42797,-0.055625
-1.812800e-05,1.35391,1.42547,-0.0532813
-1.812400e-05,1.34516,1.42609,-0.0592188
-1.812000e-05,1.34766,1.42656,-0.0565625
-1.811600e-05,1.35281,1.42469,-0.05375
-1.811200e-05,1.3475,1.42391,-0.0582812
-1.810800e-05,1.34813,1.42891,-0.058125
-1.810400e-05,1.3525,1.42859,-0.0542188
-1.810000e-05,1.34563,1.42156,-0.0571875
-1.809600e-05,1.35078,1.42484,-0.056875
-1.809200e-05,1.34766,1.42375,-0.0567187
-1.808800e-05,1.35172,1.42641,-0.0560937
-1.808400e-05,1.35172,1.42859,-0.0570312
-1.808000e-05,1.34781,1.42312,-0.0564062
-1.807600e-05,1.35203,1.42469,-0.0548438
-1.807200e-05,1.34969,1.42406,-0.0560937
-1.806800e-05,1.35141,1.43031,-0.0539063
-1.806400e-05,1.34766,1.42422,-0.0584375
-1.806000e-05,1.35234,1.42531,-0.0528125
