measurements/bre_slope_150fF/tek0007ALL.csv

Model,MDO3034
Firmware Version,1.08

Waveform Type,ANALOG,,
Point Format,Y,,
Horizontal Units,s,,
Horizontal Scale,2e-07,,
Horizontal Delay,0,,
Sample Interval,4e-10,,
Record Length,10000,,
Gating,0.0% to 100.0%,,
Probe Attenuation,10,10,1
Vertical Units,V,V,V
Vertical Offset,0,0,0
Vertical Scale,1,1,1
Vertical Position,0,0,0
,,,
,,,
,,,
Label,,M2029,M2030
TIME,CH1,CH3,CH4
-2.000000e-06,1.37,1.52047,-0.0192187
-1.999600e-06,1.37109,1.51656,-0.0201563
-1.999200e-06,1.36938,1.52,-0.0182812
-1.998800e-06,1.36969,1.52156,-0.0182812
-1.998400e-06,1.37109,1.52016,-0.0210938
-1.998000e-06,1.36844,1.52188,-0.0192187
-1.997600e-06,1.37125,1.51984,-0.0201563
-1.997200e-06,1.36875,1.52016,-0.0189062
-1.996800e-06,1.37234,1.52,-0.0189062
-1.996400e-06,1.37016,1.51641,-0.0179688
-1.996000e-06,1.37156,1.51875,-0.0201563
-1.995600e-06,1.36984,1.52156,-0.0160938
-1.995200e-06,1.37094,1.52391,-0.0176563
-1.994800e-06,1.37031,1.52047,-0.0190625
-1.994400e-06,1.36844,1.51828,-0.0182812
-1.994000e-06,1.3675,1.51922,-0.0196875
-1.993600e-06,1.36969,1.52,-0.0175
-1.993200e-06,1.37031,1.51766,-0.0203125
-1.992800e-06,1.37219,1.51859,-0.0184375
-1.992400e-06,1.36906,1.52172,-0.0185937
-1.992000e-06,1.36781,1.51953,-0.019375
-1.991600e-06,1.36969,1.51828,-0.0214063
-1.991200e-06,1.37234,1.52203,-0.0190625
-1.990800e-06,1.37156,1.52078,-0.0196875
-1.990400e-06,1.36969,1.52,-0.0203125
-1.990000e-06,1.37375,1.52297,-0.016875
-1.989600e-06,1.36984,1.51859,-0.0207813
-1.989200e-06,1.36781,1.51797,-0.0195312
-1.988800e-06,1.37094,1.51906,-0.0203125
-1.988400e-06,1.37125,1.52094,-0.0179688
-1.988000e-06,1.37031,1.52359,-0.0179688
-1.987600e-06,1.37031,1.51828,-0.0170313
-1.987200e-06,1.37203,1.51906,-0.0190625
-1.986800e-06,1.37125,1.51891,-0.0196875
-1.986400e-06,1.37094,1.51984,-0.0170313
-1.986000e-06,1.36953,1.51703,-0.020625
-1.985600e-06,1.37031,1.51844,-0.018125
-1.985200e-06,1.37,1.52031,-0.0184375
-1.984800e-06,1.36984,1.51859,-0.020625
-1.984400e-06,1.37047,1.51891,-0.0176563
-1.984000e-06,1.37172,1.51594,-0.01875
-1.983600e-06,1.36938,1.51672,-0.0221875
-1.983200e-06,1.37156,1.52,-0.020625
-1.982800e-06,1.36969,1.52406,-0.0159375
-1.982400e-06,1.36672,1.52172,-0.0157813
-1.982000e-06,1.37031,1.51984,-0.0196875
-1.981600e-06,1.36922,1.52031,-0.0182812
-1.981200e-06,1.36891,1.51922,-0.0190625
-1.980800e-06,1.36938,1.52172,-0.0184375
-1.980400e-06,1.37156,1.51891,-0.0198438
-1.980000e-06,1.37109,1.52188,-0.0196875
-1.979600e-06,1.37219,1.51984,-0.0178125
-1.979200e-06,1.36906,1.5225,-0.0167188
-1.978800e-06,1.36547,1.52016,-0.02
-1.978400e-06,1.36891,1.52063,-0.0164063
-1.978000e-06,1.37,1.51953,-0.0189062
-1.977600e-06,1.37031,1.51859,-0.0192187
-1.977200e-06,1.36969,1.52,-0.01625
-1.976800e-06,1.37047,1.51766,-0.0178125
-1.976400e-06,1.36953,1.52,-0.0201563
-1.976000e-06,1.37141,1.51859,-0.0201563
-1.975600e-06,1.36953,1.51812,-0.0196875
-1.975200e-06,1.37,1.51812,-0.0179688
-1.974800e-06,1.36703,1.51844,-0.0192187
-1.974400e-06,1.37047,1.52109,-0.0195312
-1.974000e-06,1.37344,1.52,-0.02125
-1.973600e-06,1.37344,1.52453,-0.0198438
-1.973200e-06,1.36703,1.51797,-0.019375
-1.972800e-06,1.36875,1.51812,-0.0207813
-1.972400e-06,1.36891,1.5225,-0.0182812
-1.972000e-06,1.37031,1.52031,-0.020625
-1.971600e-06,1.37062,1.52094,-0.0201563
-1.971200e-06,1.36906,1.52188,-0.020625
-1.970800e-06,1.3675,1.51844,-0.0221875
-1.970400e-06,1.37078,1.51859,-0.0196875
-1.970000e-06,1.37109,1.52281,-0.0167188
-1.969600e-06,1.37094,1.52328,-0.0176563
-1.969200e-06,1.37047,1.51969,-0.0195312
-1.968800e-06,1.37359,1.51812,-0.0179688
-1.968400e-06,1.37078,1.51844,-0.018125
-1.968000e-06,1.37156,1.51953,-0.0204688
-1.967600e-06,1.37312,1.51844,-0.02
-1.967200e-06,1.37187,1.51984,-0.0185937
-1.966800e-06,1.36703,1.51844,-0.01875
-1.966400e-06,1.37,1.52156,-0.0185937
-1.966000e-06,1.37109,1.52,-0.0184375
-1.965600e-06,1.37031,1.52156,-0.01875
-1.965200e-06,1.36969,1.51969,-0.020625
-1.964800e-06,1.36813,1.52031,-0.020625
-1.964400e-06,1.37266,1.5225,-0.0179688
-1.964000e-06,1.37047,1.51656,-0.0203125
-1.963600e-06,1.36984,1.51766,-0.0192187
-1.963200e-06,1.37297,1.51938,-0.0221875
-1.962800e-06,1.37,1.51984,-0.0198438
-1.962400e-06,1.36844,1.51906,-0.0184375
-1.962000e-06,1.37062,1.52078,-0.0175
-1.961600e-06,1.37,1.51922,-0.0173438
-1.961200e-06,1.37,1.51844,-0.0182812
-1.960800e-06,1.36844,1.52141,-0.0170313
-1.960400e-06,1.36984,1.5175,-0.0204688
-1.960000e-06,1.36891,1.51906,-0.0198438
-1.959600e-06,1.36844,1.51969,-0.020625
-1.959200e-06,1.36969,1.52203,-0.018125
-1.958800e-06,1.36938,1.52094,-0.0184375
-1.958400e-06,1.37281,1.52156,-0.020625
-1.958000e-06,1.37078,1.51875,-0.0207813
-1.957600e-06,1.37016,1.51984,-0.0215625
-1.957200e-06,1.36844,1.52016,-0.01625
-1.956800e-06,1.37281,1.51687,-0.0198438
-1.956400e-06,1.36984,1.51859,-0.0215625
-1.956000e-06,1.36891,1.52016,-0.0192187
-1.955600e-06,1.36781,1.52047,-0.019375
-1.955200e-06,1.37219,1.51766,-0.0178125
-1.954800e-06,1.37047,1.51844,-0.0173438
-1.954400e-06,1.36813,1.51797,-0.0195312
-1.954000e-06,1.36859,1.51984,-0.0182812
-1.953600e-06,1.36875,1.52328,-0.0192187
-1.953200e-06,1.36922,1.51938,-0.0189062
-1.952800e-06,1.36906,1.52109,-0.0190625
-1.952400e-06,1.37078,1.51938,-0.019375
-1.952000e-06,1.36813,1.52141,-0.0198438
-1.951600e-06,1.37172,1.5225,-0.0170313
-1.951200e-06,1.36813,1.5175,-0.0198438
-1.950800e-06,1.37062,1.52156,-0.0203125
-1.950400e-06,1.36953,1.52078,-0.0201563
-1.950000e-06,1.37094,1.51672,-0.0182812
-1.949600e-06,1.37187,1.51859,-0.0157813
-1.949200e-06,1.37016,1.52188,-0.0182812
-1.948800e-06,1.36969,1.52156,-0.02
-1.948400e-06,1.3725,1.51844,-0.0182812
-1.948000e-06,1.36828,1.52125,-0.0189062
-1.947600e-06,1.36969,1.52188,-0.0190625
-1.947200e-06,1.37141,1.52047,-0.0201563
-1.946800e-06,1.37031,1.52188,-0.0185937
-1.946400e-06,1.37187,1.51938,-0.02
-1.946000e-06,1.36984,1.51875,-0.019375
-1.945600e-06,1.36906,1.52016,-0.0190625
-1.945200e-06,1.36891,1.52016,-0.0196875
-1.944800e-06,1.37359,1.51875,-0.0203125
-1.944400e-06,1.36922,1.52281,-0.0164063
-1.944000e-06,1.36969,1.52281,-0.0176563
-1.943600e-06,1.36953,1.52109,-0.0203125
-1.943200e-06,1.36844,1.51984,-0.0196875
-1.942800e-06,1.37094,1.51844,-0.0182812
-1.942400e-06,1.37141,1.52047,-0.0171875
-1.942000e-06,1.37047,1.51906,-0.0204688
-1.941600e-06,1.37016,1.51812,-0.0176563
-1.941200e-06,1.37344,1.52,-0.0178125
-1.940800e-06,1.37078,1.52047,-0.0195312
-1.940400e-06,1.37187,1.52,-0.0184375
-1.940000e-06,1.37094,1.51828,-0.0189062
-1.939600e-06,1.36813,1.51625,-0.0196875
-1.939200e-06,1.37141,1.52016,-0.01875
-1.938800e-06,1.37531,1.52234,-0.0184375
-1.938400e-06,1.37141,1.52016,-0.0195312
-1.938000e-06,1.37141,1.52047,-0.0190625
-1.937600e-06,1.37,1.51734,-0.0196875
-1.937200e-06,1.36984,1.52063,-0.0182812
-1.936800e-06,1.37156,1.51922,-0.0165625
-1.936400e-06,1.37187,1.5225,-0.0184375
-1.936000e-06,1.37172,1.52125,-0.0196875
-1.935600e-06,1.37031,1.52156,-0.0214063
-1.935200e-06,1.37125,1.52141,-0.01875
-1.934800e-06,1.36891,1.51766,-0.0207813
-1.934400e-06,1.37031,1.51812,-0.021875
-1.934000e-06,1.37031,1.52188,-0.018125
-1.933600e-06,1.36984,1.51734,-0.02
-1.933200e-06,1.37016,1.51656,-0.0192187
-1.932800e-06,1.37047,1.52313,-0.0192187
-1.932400e-06,1.36969,1.51953,-0.0192187
-1.932000e-06,1.36734,1.52125,-0.0196875
-1.931600e-06,1.37,1.52422,-0.0173438
-1.931200e-06,1.37094,1.52016,-0.0171875
-1.930800e-06,1.37062,1.51891,-0.0182812
-1.930400e-06,1.37078,1.51859,-0.0192187
-1.930000e-06,1.37172,1.51984,-0.0185937
-1.929600e-06,1.37203,1.52156,-0.0214063
-1.929200e-06,1.37281,1.52172,-0.0214063
-1.928800e-06,1.36984,1.51828,-0.0192187
-1.928400e-06,1.37016,1.52203,-0.0198438
-1.928000e-06,1.36984,1.51969,-0.0165625
-1.927600e-06,1.37094,1.52078,-0.0160938
-1.927200e-06,1.36984,1.52359,-0.0179688
-1.926800e-06,1.37094,1.51953,-0.0209375
-1.926400e-06,1.37,1.52094,-0.0190625
-1.926000e-06,1.37047,1.52094,-0.0178125
-1.925600e-06,1.37094,1.52031,-0.0215625
-1.925200e-06,1.37109,1.52016,-0.0190625
-1.924800e-06,1.36844,1.51875,-0.018125
-1.924400e-06,1.36859,1.52047,-0.0190625
-1.924000e-06,1.37031,1.52328,-0.0173438
-1.923600e-06,1.37203,1.52031,-0.0209375
-1.923200e-06,1.37016,1.52109,-0.0203125
-1.922800e-06,1.36906,1.52047,-0.0195312
-1.922400e-06,1.37094,1.51938,-0.01875
-1.922000e-06,1.37094,1.51812,-0.0184375
-1.921600e-06,1.37047,1.51938,-0.0190625
-1.921200e-06,1.36891,1.52172,-0.018125
-1.920800e-06,1.36938,1.52,-0.0198438
-1.920400e-06,1.36797,1.52078,-0.0198438
-1.920000e-06,1.37,1.52125,-0.0204688
-1.919600e-06,1.37141,1.52078,-0.0196875
-1.919200e-06,1.37016,1.52063,-0.018125
-1.918800e-06,1.36797,1.52297,-0.0157813
-1.918400e-06,1.37031,1.52156,-0.016875
-1.918000e-06,1.3725,1.52031,-0.0192187
-1.917600e-06,1.36813,1.52078,-0.0192187
-1.917200e-06,1.36906,1.51797,-0.0203125
-1.916800e-06,1.37078,1.51859,-0.019375
-1.916400e-06,1.37266,1.51844,-0.020625
-1.916000e-06,1.37156,1.51859,-0.0182812
-1.915600e-06,1.36953,1.52047,-0.0185937
-1.915200e-06,1.36906,1.52422,-0.0185937
-1.914800e-06,1.3675,1.52125,-0.018125
-1.914400e-06,1.36828,1.52469,-0.019375
-1.914000e-06,1.37031,1.51797,-0.0203125
-1.913600e-06,1.37,1.51938,-0.0189062
-1.913200e-06,1.37266,1.52203,-0.0153125
-1.912800e-06,1.37187,1.51641,-0.020625
-1.912400e-06,1.36906,1.51844,-0.0203125
-1.912000e-06,1.37156,1.52156,-0.0207813
-1.911600e-06,1.37187,1.52063,-0.0190625
-1.911200e-06,1.37266,1.52125,-0.0170313
-1.910800e-06,1.36969,1.51547,-0.018125
-1.910400e-06,1.37234,1.52016,-0.0189062
-1.910000e-06,1.36844,1.51781,-0.0190625
-1.909600e-06,1.37047,1.51938,-0.0175
-1.909200e-06,1.36656,1.52047,-0.0221875
-1.908800e-06,1.37078,1.52203,-0.0179688
-1.908400e-06,1.37125,1.52109,-0.019375
-1.908000e-06,1.36984,1.52,-0.02
-1.907600e-06,1.36938,1.52344,-0.0182812
-1.907200e-06,1.37359,1.52047,-0.02
-1.906800e-06,1.36875,1.51812,-0.0204688
-1.906400e-06,1.37078,1.52,-0.0198438
-1.906000e-06,1.36906,1.52453,-0.0170313
-1.905600e-06,1.37047,1.5225,-0.0170313
-1.905200e-06,1.3725,1.52172,-0.018125
-1.904800e-06,1.37109,1.51938,-0.0189062
-1.904400e-06,1.36813,1.52078,-0.0185937
-1.904000e-06,1.36953,1.52313,-0.0198438
-1.903600e-06,1.36938,1.51906,-0.02
-1.903200e-06,1.37109,1.51922,-0.0195312
-1.902800e-06,1.37141,1.52188,-0.0167188
-1.902400e-06,1.37109,1.52063,-0.018125
-1.902000e-06,1.36984,1.52141,-0.018125
-1.901600e-06,1.36938,1.51984,-0.0210938
-1.901200e-06,1.37062,1.52281,-0.0223437
-1.900800e-06,1.36938,1.51938,-0.0209375
-1.900400e-06,1.37391,1.52203,-0.0165625
-1.900000e-06,1.37109,1.51875,-0.0225
-1.899600e-06,1.37062,1.51906,-0.0198438
-1.899200e-06,1.3725,1.51641,-0.0209375
-1.898800e-06,1.36891,1.51766,-0.0167188
-1.898400e-06,1.36891,1.52234,-0.0165625
-1.898000e-06,1.37125,1.52,-0.0182812
-1.897600e-06,1.36984,1.51922,-0.0190625
-1.897200e-06,1.36938,1.52031,-0.0214063
-1.896800e-06,1.37156,1.52203,-0.0192187
-1.896400e-06,1.37016,1.52344,-0.0184375
-1.896000e-06,1.36594,1.52141,-0.016875
-1.895600e-06,1.37234,1.52031,-0.0182812
-1.895200e-06,1.37,1.52281,-0.0190625
-1.894800e-06,1.36891,1.51719,-0.018125
-1.894400e-06,1.37266,1.51812,-0.0192187
-1.894000e-06,1.36969,1.51828,-0.020625
-1.893600e-06,1.36969,1.51891,-0.019375
-1.893200e-06,1.36984,1.52406,-0.0151562
-1.892800e-06,1.37156,1.51984,-0.0189062
-1.892400e-06,1.36953,1.52,-0.019375
-1.892000e-06,1.37172,1.52125,-0.0184375
-1.891600e-06,1.37141,1.52125,-0.0196875
-1.891200e-06,1.37203,1.52172,-0.0171875
-1.890800e-06,1.37,1.51656,-0.0196875
-1.890400e-06,1.36813,1.52031,-0.0198438
-1.890000e-06,1.36922,1.52109,-0.0175
-1.889600e-06,1.36813,1.52313,-0.0184375
-1.889200e-06,1.36984,1.52328,-0.0171875
-1.888800e-06,1.37141,1.51812,-0.0192187
-1.888400e-06,1.37,1.52094,-0.0196875
-1.888000e-06,1.36891,1.52063,-0.0189062
-1.887600e-06,1.37375,1.52328,-0.0173438
-1.887200e-06,1.37156,1.51906,-0.0214063
-1.886800e-06,1.37172,1.51594,-0.0203125
-1.886400e-06,1.37,1.5175,-0.0214063
-1.886000e-06,1.36969,1.51859,-0.0209375
-1.885600e-06,1.36953,1.52219,-0.0175
-1.885200e-06,1.36953,1.52125,-0.0184375
-1.884800e-06,1.37203,1.51922,-0.0179688
-1.884400e-06,1.37281,1.51875,-0.0192187
-1.884000e-06,1.37234,1.52078,-0.0204688
-1.883600e-06,1.37109,1.51766,-0.021875
-1.883200e-06,1.37031,1.51844,-0.0196875
-1.882800e-06,1.36859,1.52047,-0.0185937
-1.882400e-06,1.36859,1.51922,-0.0204688
-1.882000e-06,1.36891,1.51984,-0.0171875
-1.881600e-06,1.36938,1.51969,-0.0185937
-1.881200e-06,1.36906,1.52047,-0.0215625
-1.880800e-06,1.37297,1.51703,-0.0210938
-1.880400e-06,1.36906,1.52203,-0.0167188
-1.880000e-06,1.36797,1.52016,-0.0201563
-1.879600e-06,1.36891,1.52031,-0.019375
-1.879200e-06,1.37141,1.51938,-0.0182812
-1.878800e-06,1.36984,1.51859,-0.0184375
-1.878400e-06,1.36828,1.52125,-0.0189062
-1.878000e-06,1.36953,1.52141,-0.0185937
-1.877600e-06,1.37187,1.51984,-0.0185937
-1.877200e-06,1.37406,1.52125,-0.018125
-1.876800e-06,1.36859,1.51984,-0.01875
-1.876400e-06,1.37187,1.52016,-0.0171875
-1.876000e-06,1.37141,1.52125,-0.018125
-1.875600e-06,1.36938,1.51812,-0.0214063
-1.875200e-06,1.36922,1.51641,-0.0189062
-1.874800e-06,1.37016,1.52266,-0.0157813
-1.874400e-06,1.37031,1.51719,-0.0207813
-1.874000e-06,1.36922,1.51687,-0.0201563
-1.873600e-06,1.37125,1.51797,-0.0201563
-1.873200e-06,1.36953,1.52219,-0.0214063
-1.872800e-06,1.36797,1.52422,-0.0159375
-1.872400e-06,1.37203,1.51719,-0.0179688
-1.872000e-06,1.37016,1.51953,-0.0185937
-1.871600e-06,1.37,1.51875,-0.0226562
-1.871200e-06,1.37344,1.52266,-0.0192187
-1.870800e-06,1.36984,1.52094,-0.0192187
-1.870400e-06,1.36891,1.51797,-0.019375
-1.870000e-06,1.37016,1.52047,-0.019375
-1.869600e-06,1.36766,1.51969,-0.0217188
-1.869200e-06,1.36859,1.52328,-0.0207813
-1.868800e-06,1.36984,1.51859,-0.0217188
-1.868400e-06,1.36953,1.51984,-0.0221875
-1.868000e-06,1.36969,1.51922,-0.0203125
-1.867600e-06,1.36875,1.52313,-0.0160938
-1.867200e-06,1.37141,1.51984,-0.0182812
-1.866800e-06,1.36703,1.52109,-0.0175
-1.866400e-06,1.37156,1.52125,-0.02
-1.866000e-06,1.37141,1.52047,-0.0189062
-1.865600e-06,1.37,1.52141,-0.0167188
-1.865200e-06,1.36984,1.51672,-0.0171875
-1.864800e-06,1.37078,1.51687,-0.02
-1.864400e-06,1.37016,1.51984,-0.0196875
-1.864000e-06,1.37016,1.51859,-0.01625
-1.863600e-06,1.37078,1.52031,-0.0196875
-1.863200e-06,1.36984,1.52031,-0.019375
-1.862800e-06,1.36953,1.51891,-0.0182812
-1.862400e-06,1.37062,1.51953,-0.0189062
-1.862000e-06,1.36938,1.52547,-0.0179688
-1.861600e-06,1.37047,1.51719,-0.0217188
-1.861200e-06,1.36844,1.52063,-0.0179688
-1.860800e-06,1.36969,1.52016,-0.0214063
-1.860400e-06,1.37156,1.51797,-0.0195312
-1.860000e-06,1.37094,1.52219,-0.0179688
-1.859600e-06,1.37,1.51875,-0.0178125
-1.859200e-06,1.36938,1.52063,-0.0189062
-1.858800e-06,1.36938,1.51812,-0.02125
-1.858400e-06,1.37031,1.51906,-0.0167188
-1.858000e-06,1.37281,1.51906,-0.0196875
-1.857600e-06,1.37359,1.51922,-0.0178125
-1.857200e-06,1.36875,1.51781,-0.0203125
-1.856800e-06,1.37234,1.52016,-0.0209375
-1.856400e-06,1.37031,1.51906,-0.0182812
-1.856000e-06,1.37016,1.51781,-0.0175
-1.855600e-06,1.36984,1.51922,-0.0217188
-1.855200e-06,1.36891,1.51781,-0.0204688
-1.854800e-06,1.36781,1.52313,-0.01625
-1.854400e-06,1.36969,1.51812,-0.020625
-1.854000e-06,1.37047,1.51781,-0.0189062
-1.853600e-06,1.37312,1.52031,-0.02
-1.853200e-06,1.37078,1.51844,-0.0178125
-1.852800e-06,1.37187,1.52016,-0.0154687
-1.852400e-06,1.36938,1.51719,-0.0223437
-1.852000e-06,1.37016,1.52156,-0.0189062
-1.851600e-06,1.37125,1.52344,-0.0189062
-1.851200e-06,1.37016,1.52063,-0.019375
-1.850800e-06,1.36938,1.52031,-0.0196875
-1.850400e-06,1.37031,1.52063,-0.019375
-1.850000e-06,1.37078,1.51656,-0.0184375
-1.849600e-06,1.36891,1.51859,-0.0182812
-1.849200e-06,1.37125,1.52219,-0.015625
-1.848800e-06,1.37094,1.51656,-0.0203125
-1.848400e-06,1.37141,1.51953,-0.0198438
-1.848000e-06,1.36969,1.51531,-0.0189062
-1.847600e-06,1.37141,1.51922,-0.0204688
-1.847200e-06,1.36906,1.52375,-0.0173438
-1.846800e-06,1.37062,1.51891,-0.01875
-1.846400e-06,1.37312,1.52313,-0.0178125
-1.846000e-06,1.37109,1.5175,-0.0184375
-1.845600e-06,1.37125,1.52188,-0.0182812
-1.845200e-06,1.36734,1.51719,-0.0195312
-1.844800e-06,1.36766,1.52125,-0.019375
-1.844400e-06,1.36891,1.51906,-0.02
-1.844000e-06,1.36516,1.52047,-0.0184375
-1.843600e-06,1.36969,1.51984,-0.0160938
-1.843200e-06,1.36875,1.52016,-0.0192187
-1.842800e-06,1.37156,1.51547,-0.0214063
-1.842400e-06,1.36891,1.51906,-0.020625
-1.842000e-06,1.37187,1.52344,-0.0159375
-1.841600e-06,1.37156,1.51969,-0.019375
-1.841200e-06,1.36859,1.51953,-0.0179688
-1.840800e-06,1.36922,1.51719,-0.0185937
-1.840400e-06,1.36766,1.51672,-0.0207813
-1.840000e-06,1.36797,1.51703,-0.0182812
-1.839600e-06,1.36891,1.51859,-0.0190625
-1.839200e-06,1.36781,1.51984,-0.020625
-1.838800e-06,1.36641,1.52266,-0.018125
-1.838400e-06,1.37031,1.51906,-0.0182812
-1.838000e-06,1.37047,1.51844,-0.0176563
-1.837600e-06,1.37172,1.51891,-0.0185937
-1.837200e-06,1.37172,1.51703,-0.0190625
-1.836800e-06,1.37016,1.51812,-0.0173438
-1.836400e-06,1.37062,1.52438,-0.0154687
-1.836000e-06,1.36859,1.51531,-0.0223437
-1.835600e-06,1.36953,1.51906,-0.0192187
-1.835200e-06,1.37031,1.51859,-0.0207813
-1.834800e-06,1.36953,1.51703,-0.0209375
-1.834400e-06,1.37094,1.51875,-0.01625
-1.834000e-06,1.37187,1.51906,-0.0209375
-1.833600e-06,1.37187,1.51953,-0.01875
-1.833200e-06,1.37125,1.52,-0.02
-1.832800e-06,1.37281,1.52109,-0.0195312
-1.832400e-06,1.36953,1.52063,-0.0215625
-1.832000e-06,1.37312,1.52109,-0.0189062
-1.831600e-06,1.36953,1.51984,-0.0178125
-1.831200e-06,1.36797,1.52016,-0.0185937
-1.830800e-06,1.37078,1.52219,-0.0192187
-1.830400e-06,1.37125,1.51828,-0.0176563
-1.830000e-06,1.36859,1.51984,-0.0201563
-1.829600e-06,1.37187,1.51906,-0.0215625
-1.829200e-06,1.37094,1.52406,-0.0145313
-1.828800e-06,1.36625,1.52156,-0.0173438
-1.828400e-06,1.36672,1.51953,-0.0190625
-1.828000e-06,1.36875,1.51828,-0.0184375
-1.827600e-06,1.36906,1.51766,-0.0203125
-1.827200e-06,1.37094,1.52203,-0.019375
-1.826800e-06,1.36922,1.51844,-0.0223437
-1.826400e-06,1.36828,1.52125,-0.019375
-1.826000e-06,1.37047,1.52109,-0.0185937
-1.825600e-06,1.36797,1.51875,-0.0154687
-1.825200e-06,1.37187,1.51812,-0.0198438
-1.824800e-06,1.37203,1.51891,-0.01875
-1.824400e-06,1.36938,1.515,-0.02125
-1.824000e-06,1.37016,1.52109,-0.0207813
-1.823600e-06,1.37031,1.52313,-0.0176563
-1.823200e-06,1.37031,1.51687,-0.0248438
-1.822800e-06,1.37406,1.51906,-0.0198438
-1.822400e-06,1.37266,1.51703,-0.0223437
-1.822000e-06,1.37109,1.51719,-0.02
-1.821600e-06,1.37266,1.51938,-0.0170313
-1.821200e-06,1.36859,1.51953,-0.0201563
-1.820800e-06,1.37219,1.5225,-0.016875
-1.820400e-06,1.36875,1.51953,-0.020625
-1.820000e-06,1.37156,1.51938,-0.016875
-1.819600e-06,1.36969,1.52172,-0.0195312
-1.819200e-06,1.37328,1.52172,-0.0176563
-1.818800e-06,1.36953,1.52156,-0.0204688
-1.818400e-06,1.37078,1.52047,-0.0196875
-1.818000e-06,1.36938,1.51969,-0.0170313
-1.817600e-06,1.37047,1.52047,-0.0192187
-1.817200e-06,1.37047,1.51922,-0.0207813
-1.816800e-06,1.37,1.51969,-0.0214063
-1.816400e-06,1.36984,1.52125,-0.0160938
-1.816000e-06,1.37031,1.51797,-0.02
-1.815600e-06,1.37016,1.51969,-0.0189062
-1.815200e-06,1.37078,1.51781,-0.0214063
-1.814800e-06,1.36984,1.52188,-0.0198438
-1.814400e-06,1.37047,1.51797,-0.0190625
-1.814000e-06,1.36922,1.51719,-0.01875
-1.813600e-06,1.37141,1.52281,-0.0195312
-1.813200e-06,1.37344,1.52016,-0.019375
-1.812800e-06,1.36984,1.51969,-0.018125
-1.812400e-06,1.36828,1.52078,-0.0190625
-1.812000e-06,1.37219,1.51766,-0.0184375
-1.811600e-06,1.36938,1.51812,-0.0195312
-1.811200e-06,1.37,1.52,-0.0203125
-1.810800e-06,1.36828,1.52266,-0.0173438
-1.810400e-06,1.37125,1.51906,-0.0201563
-1.810000e-06,1.37281,1.51906,-0.0195312
-1.809600e-06,1.37047,1.51719,-0.0204688
-1.809200e-06,1.36984,1.51875,-0.0192187
-1.808800e-06,1.36703,1.51875,-0.0153125
-1.808400e-06,1.37062,1.51969,-0.020625
-1.808000e-06,1.37,1.52125,-0.0184375
-1.807600e-06,1.36828,1.51891,-0.0176563
-1.807200e-06,1.37266,1.52234,-0.0173438
-1.806800e-06,1.37344,1.51938,-0.0179688
-1.806400e-06,1.36953,1.51875,-0.0190625
-1.806000e-06,1.36781,1.52063,-0.0175
-1.805600e-06,1.36969,1.51844,-0.02
