measurements/bre_slope_150fF/tek0004ALL.csv

Model,MDO3034
Firmware Version,1.08

Waveform Type,ANALOG,,
Point Format,Y,,
Horizontal Units,s,,
Horizontal Scale,2e-07,,
Horizontal Delay,0,,
Sample Interval,4e-10,,
Record Length,10000,,
Gating,0.0% to 100.0%,,
Probe Attenuation,10,10,1
Vertical Units,V,V,V
Vertical Offset,0,0,0
Vertical Scale,1,1,1
Vertical Position,0,0,0
,,,
,,,
,,,
Label,,M2029,M2030
TIME,CH1,CH3,CH4
-2.000000e-06,1.38672,1.48453,-0.02
-1.999600e-06,1.38891,1.48484,-0.0207813
-1.999200e-06,1.38578,1.48609,-0.0196875
-1.998800e-06,1.3875,1.48422,-0.0198438
-1.998400e-06,1.38234,1.485,-0.0195312
-1.998000e-06,1.38688,1.48656,-0.0195312
-1.997600e-06,1.38547,1.48078,-0.0220312
-1.997200e-06,1.38984,1.48734,-0.0195312
-1.996800e-06,1.38672,1.48406,-0.0210938
-1.996400e-06,1.38375,1.48578,-0.02125
-1.996000e-06,1.38906,1.48484,-0.0210938
-1.995600e-06,1.38969,1.48781,-0.0157813
-1.995200e-06,1.38375,1.48922,-0.0170313
-1.994800e-06,1.38797,1.48672,-0.0201563
-1.994400e-06,1.38734,1.48766,-0.0210938
-1.994000e-06,1.38422,1.48453,-0.021875
-1.993600e-06,1.38906,1.48578,-0.0189062
-1.993200e-06,1.38672,1.48359,-0.021875
-1.992800e-06,1.38594,1.48516,-0.0196875
-1.992400e-06,1.38641,1.48438,-0.0190625
-1.992000e-06,1.38594,1.48687,-0.0203125
-1.991600e-06,1.3875,1.48531,-0.0221875
-1.991200e-06,1.38234,1.4875,-0.018125
-1.990800e-06,1.3875,1.48766,-0.0207813
-1.990400e-06,1.38781,1.48375,-0.0203125
-1.990000e-06,1.38688,1.48703,-0.0195312
-1.989600e-06,1.38297,1.48125,-0.0201563
-1.989200e-06,1.38609,1.4825,-0.0214063
-1.988800e-06,1.38672,1.48719,-0.0210938
-1.988400e-06,1.38828,1.48578,-0.019375
-1.988000e-06,1.38578,1.48781,-0.0203125
-1.987600e-06,1.38609,1.48531,-0.020625
-1.987200e-06,1.38328,1.48297,-0.0198438
-1.986800e-06,1.38547,1.48625,-0.0234375
-1.986400e-06,1.38891,1.48359,-0.0209375
-1.986000e-06,1.38875,1.48656,-0.0240625
-1.985600e-06,1.38563,1.48313,-0.0204688
-1.985200e-06,1.38578,1.48719,-0.0207813
-1.984800e-06,1.38281,1.48438,-0.0195312
-1.984400e-06,1.38672,1.48687,-0.0215625
-1.984000e-06,1.38906,1.48375,-0.020625
-1.983600e-06,1.38578,1.48406,-0.0239063
-1.983200e-06,1.38813,1.48422,-0.019375
-1.982800e-06,1.38906,1.48562,-0.0185937
-1.982400e-06,1.38531,1.48641,-0.0184375
-1.982000e-06,1.38578,1.48406,-0.0228125
-1.981600e-06,1.38641,1.48703,-0.0192187
-1.981200e-06,1.38719,1.48578,-0.0207813
-1.980800e-06,1.38406,1.48469,-0.0196875
-1.980400e-06,1.38672,1.48594,-0.02375
-1.980000e-06,1.38781,1.48797,-0.0179688
-1.979600e-06,1.38766,1.48469,-0.019375
-1.979200e-06,1.38609,1.48766,-0.0182812
-1.978800e-06,1.38594,1.48531,-0.0195312
-1.978400e-06,1.38578,1.48266,-0.0198438
-1.978000e-06,1.38406,1.48078,-0.0189062
-1.977600e-06,1.38656,1.48469,-0.0204688
-1.977200e-06,1.38875,1.48547,-0.0167188
-1.976800e-06,1.38547,1.48109,-0.02
-1.976400e-06,1.38469,1.48656,-0.01875
-1.976000e-06,1.38531,1.48438,-0.0220312
-1.975600e-06,1.38734,1.48797,-0.019375
-1.975200e-06,1.38922,1.48875,-0.019375
-1.974800e-06,1.38594,1.48578,-0.018125
-1.974400e-06,1.38891,1.48281,-0.0223437
-1.974000e-06,1.38469,1.48641,-0.02
-1.973600e-06,1.38938,1.48547,-0.0220312
-1.973200e-06,1.38328,1.48547,-0.0221875
-1.972800e-06,1.38234,1.48297,-0.0204688
-1.972400e-06,1.38094,1.48328,-0.01875
-1.972000e-06,1.38203,1.48391,-0.0203125
-1.971600e-06,1.38563,1.48719,-0.0215625
-1.971200e-06,1.38578,1.48625,-0.0185937
-1.970800e-06,1.38453,1.48672,-0.0235938
-1.970400e-06,1.38469,1.48547,-0.0189062
-1.970000e-06,1.38781,1.48594,-0.0164063
-1.969600e-06,1.38484,1.4875,-0.0185937
-1.969200e-06,1.38484,1.48156,-0.0201563
-1.968800e-06,1.38453,1.48297,-0.0203125
-1.968400e-06,1.38828,1.48531,-0.0221875
-1.968000e-06,1.38609,1.48484,-0.0203125
-1.967600e-06,1.38516,1.485,-0.0195312
-1.967200e-06,1.38594,1.48703,-0.0204688
-1.966800e-06,1.38578,1.48484,-0.0204688
-1.966400e-06,1.38563,1.48578,-0.016875
-1.966000e-06,1.38375,1.48422,-0.020625
-1.965600e-06,1.38516,1.48391,-0.0192187
-1.965200e-06,1.38859,1.48344,-0.024375
-1.964800e-06,1.38484,1.48734,-0.024375
-1.964400e-06,1.38469,1.49031,-0.0196875
-1.964000e-06,1.38625,1.48453,-0.0220312
-1.963600e-06,1.38844,1.48422,-0.0220312
-1.963200e-06,1.38625,1.48641,-0.0226562
-1.962800e-06,1.38672,1.48453,-0.0207813
-1.962400e-06,1.38703,1.48719,-0.0196875
-1.962000e-06,1.38688,1.48531,-0.0185937
-1.961600e-06,1.38594,1.48672,-0.0179688
-1.961200e-06,1.38609,1.48391,-0.0171875
-1.960800e-06,1.38672,1.48578,-0.016875
-1.960400e-06,1.38703,1.485,-0.0203125
-1.960000e-06,1.38484,1.48484,-0.02125
-1.959600e-06,1.38703,1.48469,-0.020625
-1.959200e-06,1.38422,1.48422,-0.0204688
-1.958800e-06,1.38734,1.48672,-0.0198438
-1.958400e-06,1.38547,1.48344,-0.021875
-1.958000e-06,1.38578,1.48094,-0.01875
-1.957600e-06,1.38625,1.48328,-0.0217188
-1.957200e-06,1.38766,1.48797,-0.0176563
-1.956800e-06,1.38422,1.48766,-0.0178125
-1.956400e-06,1.38578,1.48313,-0.0196875
-1.956000e-06,1.38578,1.48547,-0.0195312
-1.955600e-06,1.38406,1.48547,-0.0204688
-1.955200e-06,1.38438,1.48844,-0.02125
-1.954800e-06,1.38859,1.48594,-0.0226562
-1.954400e-06,1.38641,1.48516,-0.0203125
-1.954000e-06,1.38734,1.48625,-0.0175
-1.953600e-06,1.38656,1.48578,-0.0179688
-1.953200e-06,1.38578,1.48531,-0.0178125
-1.952800e-06,1.38453,1.48687,-0.0198438
-1.952400e-06,1.38641,1.48141,-0.0210938
-1.952000e-06,1.38531,1.48734,-0.0190625
-1.951600e-06,1.38531,1.48656,-0.0153125
-1.951200e-06,1.38297,1.48469,-0.0198438
-1.950800e-06,1.38422,1.48438,-0.0209375
-1.950400e-06,1.38547,1.48703,-0.0210938
-1.950000e-06,1.38875,1.48828,-0.0203125
-1.949600e-06,1.38594,1.48703,-0.020625
-1.949200e-06,1.38516,1.48516,-0.0203125
-1.948800e-06,1.38953,1.48641,-0.0195312
-1.948400e-06,1.38547,1.48687,-0.0203125
-1.948000e-06,1.38703,1.4875,-0.021875
-1.947600e-06,1.38469,1.48391,-0.0225
-1.947200e-06,1.38453,1.485,-0.0201563
-1.946800e-06,1.38406,1.4875,-0.0201563
-1.946400e-06,1.38609,1.48484,-0.0204688
-1.946000e-06,1.38469,1.48656,-0.0210938
-1.945600e-06,1.3825,1.48375,-0.0204688
-1.945200e-06,1.38328,1.48531,-0.0228125
-1.944800e-06,1.38359,1.4875,-0.020625
-1.944400e-06,1.38813,1.48938,-0.016875
-1.944000e-06,1.38656,1.48422,-0.0179688
-1.943600e-06,1.385,1.48641,-0.019375
-1.943200e-06,1.38828,1.48328,-0.01875
-1.942800e-06,1.38422,1.48484,-0.0209375
-1.942400e-06,1.38922,1.48469,-0.0195312
-1.942000e-06,1.38891,1.485,-0.0214063
-1.941600e-06,1.38688,1.4875,-0.020625
-1.941200e-06,1.38719,1.48406,-0.0171875
-1.940800e-06,1.38859,1.48359,-0.0190625
-1.940400e-06,1.38688,1.48531,-0.0189062
-1.940000e-06,1.38328,1.48406,-0.0185937
-1.939600e-06,1.38219,1.48609,-0.020625
-1.939200e-06,1.38469,1.48672,-0.0214063
-1.938800e-06,1.38641,1.48734,-0.0178125
-1.938400e-06,1.38344,1.47922,-0.0201563
-1.938000e-06,1.38813,1.48328,-0.0220312
-1.937600e-06,1.38672,1.48172,-0.0217188
-1.937200e-06,1.39047,1.48328,-0.0226562
-1.936800e-06,1.38547,1.48812,-0.0170313
-1.936400e-06,1.38531,1.48625,-0.0195312
-1.936000e-06,1.38563,1.48906,-0.02
-1.935600e-06,1.38547,1.48328,-0.0201563
-1.935200e-06,1.3875,1.485,-0.0220312
-1.934800e-06,1.38609,1.485,-0.0234375
-1.934400e-06,1.38344,1.48656,-0.0198438
-1.934000e-06,1.38891,1.48828,-0.0217188
-1.933600e-06,1.38422,1.48297,-0.020625
-1.933200e-06,1.38719,1.48641,-0.0192187
-1.932800e-06,1.38516,1.48547,-0.0190625
-1.932400e-06,1.38516,1.4875,-0.0221875
-1.932000e-06,1.38625,1.485,-0.0210938
-1.931600e-06,1.38875,1.48672,-0.0171875
-1.931200e-06,1.38391,1.48547,-0.0190625
-1.930800e-06,1.38656,1.48297,-0.0196875
-1.930400e-06,1.38672,1.48578,-0.019375
-1.930000e-06,1.38438,1.48547,-0.0215625
-1.929600e-06,1.38828,1.4875,-0.0185937
-1.929200e-06,1.38875,1.48438,-0.0226562
-1.928800e-06,1.38656,1.48547,-0.020625
-1.928400e-06,1.38578,1.48516,-0.0170313
-1.928000e-06,1.38719,1.48797,-0.018125
-1.927600e-06,1.38609,1.48234,-0.0175
-1.927200e-06,1.38266,1.48219,-0.0210938
-1.926800e-06,1.385,1.48406,-0.02
-1.926400e-06,1.38563,1.48531,-0.0198438
-1.926000e-06,1.38422,1.485,-0.0178125
-1.925600e-06,1.38719,1.48328,-0.0220312
-1.925200e-06,1.38531,1.48578,-0.0210938
-1.924800e-06,1.38656,1.48313,-0.0220312
-1.924400e-06,1.38688,1.48906,-0.0220312
-1.924000e-06,1.3875,1.48594,-0.0190625
-1.923600e-06,1.38594,1.48359,-0.0214063
-1.923200e-06,1.3875,1.48516,-0.021875
-1.922800e-06,1.38516,1.48328,-0.0201563
-1.922400e-06,1.38672,1.48859,-0.0190625
-1.922000e-06,1.38547,1.485,-0.02
-1.921600e-06,1.38312,1.48063,-0.0182812
-1.921200e-06,1.38734,1.48562,-0.0185937
-1.920800e-06,1.38406,1.48359,-0.0196875
-1.920400e-06,1.38578,1.48516,-0.0195312
-1.920000e-06,1.38125,1.48594,-0.0196875
-1.919600e-06,1.38484,1.4825,-0.0225
-1.919200e-06,1.38719,1.48469,-0.0214063
-1.918800e-06,1.38766,1.48547,-0.0190625
-1.918400e-06,1.38672,1.48375,-0.019375
-1.918000e-06,1.38859,1.48266,-0.0204688
-1.917600e-06,1.38672,1.48781,-0.01875
-1.917200e-06,1.385,1.485,-0.018125
-1.916800e-06,1.38672,1.48781,-0.0178125
-1.916400e-06,1.38406,1.48469,-0.0204688
-1.916000e-06,1.38422,1.48641,-0.0209375
-1.915600e-06,1.38625,1.48641,-0.0210938
-1.915200e-06,1.38672,1.48516,-0.0189062
-1.914800e-06,1.38578,1.48734,-0.0201563
-1.914400e-06,1.38125,1.48141,-0.0203125
-1.914000e-06,1.38391,1.48234,-0.0223437
-1.913600e-06,1.38516,1.48547,-0.0204688
-1.913200e-06,1.38469,1.48828,-0.0176563
-1.912800e-06,1.38156,1.48109,-0.019375
-1.912400e-06,1.38594,1.48547,-0.0209375
-1.912000e-06,1.38531,1.48375,-0.0214063
-1.911600e-06,1.38797,1.48547,-0.020625
-1.911200e-06,1.38797,1.48703,-0.0196875
-1.910800e-06,1.38469,1.48359,-0.02125
-1.910400e-06,1.38125,1.48391,-0.02
-1.910000e-06,1.38766,1.48375,-0.0196875
-1.909600e-06,1.38453,1.48562,-0.0173438
-1.909200e-06,1.38328,1.48406,-0.0184375
-1.908800e-06,1.38531,1.485,-0.0203125
-1.908400e-06,1.38469,1.48266,-0.0214063
-1.908000e-06,1.38453,1.48406,-0.0201563
-1.907600e-06,1.38484,1.48594,-0.0196875
-1.907200e-06,1.38375,1.48328,-0.0204688
-1.906800e-06,1.38484,1.48469,-0.0225
-1.906400e-06,1.38781,1.48453,-0.0214063
-1.906000e-06,1.38734,1.48781,-0.0167188
-1.905600e-06,1.38453,1.48562,-0.0201563
-1.905200e-06,1.38531,1.48438,-0.0215625
-1.904800e-06,1.38469,1.48453,-0.0203125
-1.904400e-06,1.38312,1.48375,-0.021875
-1.904000e-06,1.38531,1.48266,-0.0204688
-1.903600e-06,1.3875,1.48234,-0.0214063
-1.903200e-06,1.38672,1.48719,-0.0203125
-1.902800e-06,1.38828,1.4875,-0.0178125
-1.902400e-06,1.38922,1.48641,-0.0184375
-1.902000e-06,1.38641,1.48531,-0.0178125
-1.901600e-06,1.38516,1.48656,-0.0184375
-1.901200e-06,1.38781,1.48266,-0.0204688
-1.900800e-06,1.38484,1.48656,-0.018125
-1.900400e-06,1.38797,1.48594,-0.016875
-1.900000e-06,1.385,1.48266,-0.0220312
-1.899600e-06,1.38766,1.48047,-0.021875
-1.899200e-06,1.38813,1.48797,-0.021875
-1.898800e-06,1.38844,1.48703,-0.0184375
-1.898400e-06,1.38766,1.48781,-0.0198438
-1.898000e-06,1.38484,1.48453,-0.0198438
-1.897600e-06,1.38469,1.485,-0.0178125
-1.897200e-06,1.38844,1.48594,-0.0201563
-1.896800e-06,1.38859,1.48547,-0.0195312
-1.896400e-06,1.38656,1.48438,-0.018125
-1.896000e-06,1.38672,1.48344,-0.0185937
-1.895600e-06,1.38453,1.48578,-0.0204688
-1.895200e-06,1.38469,1.48297,-0.0203125
-1.894800e-06,1.38734,1.48828,-0.019375
-1.894400e-06,1.38281,1.485,-0.020625
-1.894000e-06,1.38734,1.48578,-0.0207813
-1.893600e-06,1.38703,1.48547,-0.0204688
-1.893200e-06,1.38859,1.48766,-0.0179688
-1.892800e-06,1.38516,1.48438,-0.0192187
-1.892400e-06,1.38516,1.48734,-0.02
-1.892000e-06,1.385,1.48594,-0.02
-1.891600e-06,1.38594,1.48516,-0.0209375
-1.891200e-06,1.38312,1.48781,-0.0192187
-1.890800e-06,1.38656,1.48594,-0.0223437
-1.890400e-06,1.38906,1.48469,-0.0201563
-1.890000e-06,1.38703,1.48422,-0.01875
-1.889600e-06,1.38625,1.48672,-0.0185937
-1.889200e-06,1.38594,1.48453,-0.0204688
-1.888800e-06,1.38438,1.48328,-0.0196875
-1.888400e-06,1.38375,1.48016,-0.0220312
-1.888000e-06,1.38516,1.48484,-0.0195312
-1.887600e-06,1.38703,1.48516,-0.01875
-1.887200e-06,1.38203,1.48219,-0.0232812
-1.886800e-06,1.38516,1.48516,-0.0215625
-1.886400e-06,1.38359,1.48812,-0.0214063
-1.886000e-06,1.38766,1.48812,-0.0210938
-1.885600e-06,1.38906,1.48531,-0.0198438
-1.885200e-06,1.38672,1.48469,-0.0209375
-1.884800e-06,1.38469,1.48406,-0.0204688
-1.884400e-06,1.38656,1.48219,-0.0226562
-1.884000e-06,1.38656,1.485,-0.01875
-1.883600e-06,1.38703,1.48297,-0.0203125
-1.883200e-06,1.38469,1.48313,-0.0195312
-1.882800e-06,1.38672,1.48516,-0.0210938
-1.882400e-06,1.38344,1.48344,-0.019375
-1.882000e-06,1.38578,1.48641,-0.0185937
-1.881600e-06,1.38344,1.48344,-0.0198438
-1.881200e-06,1.38484,1.48547,-0.0214063
-1.880800e-06,1.38375,1.48547,-0.02125
-1.880400e-06,1.38828,1.48922,-0.0170313
-1.880000e-06,1.38594,1.48438,-0.0195312
-1.879600e-06,1.38531,1.48625,-0.02125
-1.879200e-06,1.38547,1.48422,-0.0207813
-1.878800e-06,1.38578,1.48625,-0.0221875
-1.878400e-06,1.38484,1.48531,-0.0192187
-1.878000e-06,1.38703,1.48484,-0.0226562
-1.877600e-06,1.38422,1.48484,-0.0196875
-1.877200e-06,1.38594,1.48297,-0.0207813
-1.876800e-06,1.38641,1.48625,-0.0214063
-1.876400e-06,1.38703,1.48578,-0.0209375
-1.876000e-06,1.38297,1.48703,-0.019375
-1.875600e-06,1.38563,1.48781,-0.0228125
-1.875200e-06,1.38563,1.48469,-0.0228125
-1.874800e-06,1.38922,1.48578,-0.0182812
-1.874400e-06,1.38516,1.48141,-0.0221875
-1.874000e-06,1.38688,1.48578,-0.02125
-1.873600e-06,1.38813,1.48859,-0.0215625
-1.873200e-06,1.38578,1.48766,-0.0198438
-1.872800e-06,1.38641,1.48703,-0.0192187
-1.872400e-06,1.38625,1.48375,-0.0201563
-1.872000e-06,1.38625,1.48734,-0.0189062
-1.871600e-06,1.38688,1.48359,-0.0209375
-1.871200e-06,1.38797,1.48797,-0.0184375
-1.870800e-06,1.38563,1.48672,-0.0239063
-1.870400e-06,1.38641,1.48281,-0.0185937
-1.870000e-06,1.38734,1.48578,-0.0201563
-1.869600e-06,1.38781,1.48422,-0.0214063
-1.869200e-06,1.3875,1.48578,-0.0185937
-1.868800e-06,1.3825,1.48422,-0.0210938
-1.868400e-06,1.38531,1.48484,-0.0215625
-1.868000e-06,1.38672,1.48297,-0.0201563
-1.867600e-06,1.38719,1.48875,-0.0170313
-1.867200e-06,1.38453,1.48484,-0.0189062
-1.866800e-06,1.38484,1.48609,-0.0198438
-1.866400e-06,1.38359,1.48625,-0.0198438
-1.866000e-06,1.38641,1.48516,-0.0196875
-1.865600e-06,1.38891,1.48641,-0.0196875
-1.865200e-06,1.38906,1.48359,-0.0239063
-1.864800e-06,1.38734,1.48734,-0.0220312
-1.864400e-06,1.3875,1.48578,-0.0182812
-1.864000e-06,1.38797,1.48641,-0.0207813
-1.863600e-06,1.38625,1.485,-0.0198438
-1.863200e-06,1.38422,1.48359,-0.0189062
-1.862800e-06,1.38594,1.48219,-0.0217188
-1.862400e-06,1.38766,1.48547,-0.0207813
-1.862000e-06,1.38594,1.48359,-0.0185937
-1.861600e-06,1.38422,1.4825,-0.0242188
-1.861200e-06,1.385,1.48516,-0.0225
-1.860800e-06,1.38547,1.48484,-0.0215625
-1.860400e-06,1.38625,1.4875,-0.020625
-1.860000e-06,1.38719,1.48734,-0.02125
-1.859600e-06,1.38625,1.48516,-0.0229687
-1.859200e-06,1.38516,1.48562,-0.0196875
-1.858800e-06,1.38656,1.48578,-0.0239063
-1.858400e-06,1.38688,1.48812,-0.0195312
-1.858000e-06,1.38734,1.48719,-0.020625
-1.857600e-06,1.38531,1.48594,-0.0192187
-1.857200e-06,1.38406,1.48594,-0.020625
-1.856800e-06,1.38344,1.485,-0.0189062
-1.856400e-06,1.38484,1.48453,-0.0185937
-1.856000e-06,1.38422,1.48297,-0.0210938
-1.855600e-06,1.38563,1.48391,-0.0242188
-1.855200e-06,1.38641,1.48391,-0.0207813
-1.854800e-06,1.38688,1.48734,-0.0165625
-1.854400e-06,1.38438,1.48406,-0.02
-1.854000e-06,1.38609,1.485,-0.0190625
-1.853600e-06,1.38594,1.48547,-0.0229687
-1.853200e-06,1.38516,1.48359,-0.0221875
-1.852800e-06,1.38484,1.48719,-0.02
-1.852400e-06,1.38344,1.48906,-0.0214063
-1.852000e-06,1.38672,1.48828,-0.019375
-1.851600e-06,1.39,1.48641,-0.0184375
-1.851200e-06,1.38672,1.48687,-0.0189062
-1.850800e-06,1.38641,1.48516,-0.0214063
-1.850400e-06,1.38281,1.48687,-0.0204688
-1.850000e-06,1.38438,1.48422,-0.0214063
-1.849600e-06,1.38688,1.48641,-0.0207813
-1.849200e-06,1.38953,1.48516,-0.0175
-1.848800e-06,1.38609,1.48766,-0.023125
-1.848400e-06,1.38563,1.48641,-0.02125
-1.848000e-06,1.38734,1.48687,-0.020625
-1.847600e-06,1.38469,1.48938,-0.0204688
-1.847200e-06,1.38422,1.48734,-0.0195312
-1.846800e-06,1.38484,1.48703,-0.0201563
-1.846400e-06,1.38484,1.48484,-0.0182812
-1.846000e-06,1.38688,1.48469,-0.0204688
-1.845600e-06,1.38719,1.48781,-0.0171875
-1.845200e-06,1.38594,1.48797,-0.0223437
-1.844800e-06,1.38688,1.48375,-0.02125
-1.844400e-06,1.38516,1.48453,-0.02
-1.844000e-06,1.38391,1.48531,-0.0225
-1.843600e-06,1.38688,1.48719,-0.0203125
-1.843200e-06,1.38328,1.4825,-0.0210938
-1.842800e-06,1.385,1.48203,-0.0220312
-1.842400e-06,1.38469,1.48516,-0.0203125
-1.842000e-06,1.38719,1.48781,-0.0151562
-1.841600e-06,1.38438,1.48516,-0.0179688
-1.841200e-06,1.38578,1.48516,-0.0203125
-1.840800e-06,1.38328,1.48297,-0.0221875
-1.840400e-06,1.38719,1.48594,-0.0201563
-1.840000e-06,1.38672,1.48625,-0.0192187
-1.839600e-06,1.38594,1.48578,-0.0234375
-1.839200e-06,1.38438,1.48484,-0.019375
-1.838800e-06,1.3875,1.485,-0.0189062
-1.838400e-06,1.38766,1.48656,-0.01875
-1.838000e-06,1.38516,1.485,-0.0221875
-1.837600e-06,1.3825,1.48375,-0.0182812
-1.837200e-06,1.38453,1.48219,-0.0215625
-1.836800e-06,1.38766,1.48687,-0.021875
-1.836400e-06,1.38625,1.48656,-0.0165625
-1.836000e-06,1.3825,1.48328,-0.0217188
-1.835600e-06,1.38547,1.48047,-0.0209375
-1.835200e-06,1.38859,1.48438,-0.0221875
-1.834800e-06,1.38531,1.48281,-0.021875
-1.834400e-06,1.38734,1.48703,-0.0176563
-1.834000e-06,1.38547,1.48625,-0.0198438
-1.833600e-06,1.3875,1.48875,-0.0204688
-1.833200e-06,1.38891,1.48594,-0.0215625
-1.832800e-06,1.38922,1.48687,-0.0198438
-1.832400e-06,1.38312,1.48344,-0.019375
-1.832000e-06,1.38484,1.485,-0.0192187
-1.831600e-06,1.38781,1.48375,-0.0189062
-1.831200e-06,1.38109,1.48219,-0.0195312
-1.830800e-06,1.38547,1.48812,-0.0190625
-1.830400e-06,1.38375,1.48406,-0.0221875
-1.830000e-06,1.38609,1.48219,-0.0226562
-1.829600e-06,1.38734,1.48562,-0.02
-1.829200e-06,1.38734,1.48594,-0.015625
-1.828800e-06,1.38484,1.48469,-0.0192187
-1.828400e-06,1.38312,1.48078,-0.0214063
-1.828000e-06,1.38438,1.48422,-0.02125
-1.827600e-06,1.38422,1.48766,-0.021875
-1.827200e-06,1.38578,1.48687,-0.01875
-1.826800e-06,1.38734,1.48578,-0.0195312
-1.826400e-06,1.38844,1.48359,-0.020625
-1.826000e-06,1.38656,1.48156,-0.0196875
-1.825600e-06,1.38656,1.48391,-0.0192187
-1.825200e-06,1.38719,1.48453,-0.0182812
-1.824800e-06,1.38641,1.48313,-0.0196875
-1.824400e-06,1.38688,1.48781,-0.01875
-1.824000e-06,1.38609,1.4875,-0.02
-1.823600e-06,1.38906,1.49,-0.0185937
-1.823200e-06,1.38359,1.48438,-0.0209375
-1.822800e-06,1.38641,1.48469,-0.021875
-1.822400e-06,1.38516,1.48328,-0.0209375
-1.822000e-06,1.38422,1.48469,-0.0198438
-1.821600e-06,1.38781,1.48531,-0.0201563
-1.821200e-06,1.38547,1.48672,-0.0210938
-1.820800e-06,1.38703,1.49016,-0.0201563
-1.820400e-06,1.38609,1.48344,-0.0226562
-1.820000e-06,1.38875,1.48578,-0.019375
-1.819600e-06,1.38484,1.48391,-0.0214063
-1.819200e-06,1.38469,1.48297,-0.0190625
-1.818800e-06,1.38422,1.48375,-0.0196875
-1.818400e-06,1.38219,1.48297,-0.0189062
-1.818000e-06,1.38828,1.48609,-0.02
-1.817600e-06,1.38422,1.48359,-0.023125
-1.817200e-06,1.38516,1.48188,-0.0228125
-1.816800e-06,1.38547,1.48484,-0.02125
-1.816400e-06,1.38906,1.48859,-0.0160938
-1.816000e-06,1.38672,1.48297,-0.018125
-1.815600e-06,1.38813,1.4825,-0.0201563
-1.815200e-06,1.38609,1.48547,-0.0201563
-1.814800e-06,1.38656,1.48656,-0.0184375
-1.814400e-06,1.38859,1.48719,-0.0185937
-1.814000e-06,1.38766,1.48281,-0.0215625
-1.813600e-06,1.38578,1.48453,-0.0185937
-1.813200e-06,1.38391,1.48547,-0.0189062
-1.812800e-06,1.38609,1.48875,-0.0196875
-1.812400e-06,1.38469,1.48641,-0.0203125
-1.812000e-06,1.38391,1.48578,-0.0190625
-1.811600e-06,1.38625,1.48828,-0.0220312
-1.811200e-06,1.3875,1.48609,-0.0198438
-1.810800e-06,1.38719,1.48422,-0.0171875
-1.810400e-06,1.385,1.48297,-0.0228125
-1.810000e-06,1.38625,1.48578,-0.0210938
-1.809600e-06,1.38766,1.48188,-0.0226562
-1.809200e-06,1.38469,1.48703,-0.0203125
-1.808800e-06,1.38703,1.485,-0.0176563
-1.808400e-06,1.38516,1.48234,-0.0217188
-1.808000e-06,1.38703,1.48687,-0.01875
-1.807600e-06,1.38859,1.48641,-0.0201563
-1.807200e-06,1.38781,1.48687,-0.018125
-1.806800e-06,1.38359,1.48641,-0.02125
-1.806400e-06,1.38719,1.48609,-0.02125
-1.806000e-06,1.38484,1.48516,-0.0201563
