measurements/illuminated/tek0001ALL.csv

Model,MDO3034
Firmware Version,1.08

Waveform Type,ANALOG,,,
Point Format,Y,,,
Horizontal Units,s,,,
Horizontal Scale,0.002,,,
Horizontal Delay,0,,,
Sample Interval,2e-06,,,
Record Length,10000,,,
Gating,0.0% to 100.0%,,,
Probe Attenuation,10,1,10,1
Vertical Units,V,V,V,V
Vertical Offset,0,-30.8,0,0
Vertical Scale,1,10,1,1
Vertical Position,0,0,0.02,-0.1
,,,,
,,,,
,,,,
Label,,,,M
TIME,CH1,CH2,CH3,CH4
-1.000000e-02,0.808281,17.8281,1.39469,4.11391
-9.998000e-03,0.805,17.7734,1.40078,4.10719
-9.996000e-03,0.804844,17.8078,1.39516,4.09672
-9.994000e-03,0.81375,17.8516,1.3975,4.10625
-9.992000e-03,0.801875,17.7844,1.39891,4.10469
-9.990000e-03,0.807813,17.7656,1.39094,4.10094
-9.988000e-03,0.799531,17.7828,1.39906,4.10781
-9.986000e-03,0.804688,17.7906,1.40109,4.10516
-9.984000e-03,0.802813,17.7594,1.39578,4.11313
-9.982000e-03,0.797969,17.7063,1.39625,4.10328
-9.980000e-03,0.799844,17.7109,1.39594,4.10484
-9.978000e-03,0.8025,17.7922,1.39969,4.10641
-9.976000e-03,0.794375,17.7172,1.3975,4.10531
-9.974000e-03,0.802031,17.7281,1.39734,4.10938
-9.972000e-03,0.795625,17.7078,1.39984,4.10969
-9.970000e-03,0.7975,17.6734,1.39422,4.11516
-9.968000e-03,0.7975,17.7484,1.40547,4.10266
-9.966000e-03,0.795312,17.7953,1.39703,4.10125
-9.964000e-03,0.791563,17.6781,1.39062,4.10859
-9.962000e-03,0.797344,17.7109,1.39813,4.10969
-9.960000e-03,0.792344,17.75,1.39594,4.11281
-9.958000e-03,0.795312,17.7641,1.39453,4.10656
-9.956000e-03,0.792813,17.8141,1.39656,4.10984
-9.954000e-03,0.804531,17.7094,1.40312,4.10969
-9.952000e-03,0.796406,17.7438,1.39469,4.11016
-9.950000e-03,0.794375,17.7344,1.39859,4.11422
-9.948000e-03,0.795625,17.7344,1.39891,4.10484
-9.946000e-03,0.790156,17.7391,1.38875,4.10156
-9.944000e-03,0.789219,17.7391,1.39906,4.11094
-9.942000e-03,0.797031,17.7422,1.39969,4.11078
-9.940000e-03,0.791406,17.725,1.40109,4.10922
-9.938000e-03,0.793594,17.8047,1.38406,4.10953
-9.936000e-03,0.800156,17.7859,1.39531,4.11203
-9.934000e-03,0.792031,17.7438,1.39375,4.10266
-9.932000e-03,0.784219,17.7156,1.39375,4.10594
-9.930000e-03,0.800469,17.7391,1.39391,4.11625
-9.928000e-03,0.784375,17.8219,1.39328,4.11094
-9.926000e-03,0.79,17.8172,1.40063,4.10687
-9.924000e-03,0.789844,17.7609,1.39344,4.09922
-9.922000e-03,0.787656,17.7125,1.39969,4.10656
-9.920000e-03,0.796563,17.6969,1.39406,4.10156
-9.918000e-03,0.787969,17.7625,1.40359,4.10234
-9.916000e-03,0.788906,17.6422,1.38938,4.11375
-9.914000e-03,0.780781,17.7797,1.39703,4.09828
-9.912000e-03,0.785781,17.7906,1.40391,4.105
-9.910000e-03,0.79125,17.7563,1.40437,4.10672
-9.908000e-03,0.78375,17.8531,1.39344,4.12062
-9.906000e-03,0.783438,17.7531,1.39922,4.10687
-9.904000e-03,0.785469,17.7531,1.39172,4.10219
-9.902000e-03,0.787656,17.7281,1.39766,4.11281
-9.900000e-03,0.781563,17.7375,1.40578,4.10625
-9.898000e-03,0.778281,17.7484,1.40031,4.10625
-9.896000e-03,0.787031,17.875,1.38859,4.11656
-9.894000e-03,0.780625,17.8125,1.38797,4.11313
-9.892000e-03,0.782344,17.7328,1.39813,4.11062
-9.890000e-03,0.787031,17.7469,1.38953,4.1125
-9.888000e-03,0.782344,17.7359,1.39297,4.10469
-9.886000e-03,0.785469,17.7469,1.38672,4.11234
-9.884000e-03,0.788281,17.7359,1.40219,4.11031
-9.882000e-03,0.770781,17.7906,1.40391,4.11062
-9.880000e-03,0.784844,17.7281,1.39578,4.11047
-9.878000e-03,0.779531,17.7922,1.39625,4.10656
-9.876000e-03,0.780156,17.6906,1.39062,4.1125
-9.874000e-03,0.782656,17.8125,1.39859,4.10781
-9.872000e-03,0.780312,17.8016,1.40484,4.10578
-9.870000e-03,0.779375,17.7359,1.40266,4.10703
-9.868000e-03,0.781094,17.7891,1.395,4.10766
-9.866000e-03,0.782031,17.8359,1.39203,4.10187
-9.864000e-03,0.786875,17.7203,1.40312,4.10219
-9.862000e-03,0.780312,17.7312,1.39422,4.10703
-9.860000e-03,0.774375,17.7359,1.39734,4.10625
-9.858000e-03,0.779844,17.6813,1.40031,4.10891
-9.856000e-03,0.780625,17.7875,1.39859,4.09969
-9.854000e-03,0.775,17.6859,1.39156,4.10406
-9.852000e-03,0.777188,17.7078,1.40219,4.10922
-9.850000e-03,0.777969,17.825,1.39312,4.1
-9.848000e-03,0.77125,17.6781,1.40203,4.10297
-9.846000e-03,0.780469,17.7797,1.39344,4.10203
-9.844000e-03,0.769062,17.8,1.38719,4.1025
-9.842000e-03,0.775,17.7188,1.39109,4.10953
-9.840000e-03,0.772969,17.7281,1.39563,4.11094
-9.838000e-03,0.775625,17.8141,1.40078,4.11234
-9.836000e-03,0.765156,17.7078,1.39828,4.10531
-9.834000e-03,0.77375,17.8094,1.40828,4.10797
-9.832000e-03,0.771406,17.6516,1.39078,4.11016
-9.830000e-03,0.785156,17.7375,1.40766,4.10391
-9.828000e-03,0.776094,17.7422,1.39781,4.10125
-9.826000e-03,0.766563,17.6984,1.39875,4.10344
-9.824000e-03,0.768281,17.7172,1.39969,4.10656
-9.822000e-03,0.774062,17.7344,1.39734,4.10875
-9.820000e-03,0.769531,17.7594,1.39531,4.10672
-9.818000e-03,0.764687,17.7656,1.39563,4.10687
-9.816000e-03,0.768594,17.7953,1.39062,4.10328
-9.814000e-03,0.779531,17.7906,1.39797,4.10891
-9.812000e-03,0.764687,17.6844,1.38219,4.10234
-9.810000e-03,0.766719,17.775,1.39578,4.1075
-9.808000e-03,0.776094,17.7984,1.39328,4.10609
-9.806000e-03,0.77375,17.7719,1.4025,4.10484
-9.804000e-03,0.76375,17.7453,1.39437,4.10922
-9.802000e-03,0.765,17.7563,1.3925,4.11125
-9.800000e-03,0.765,17.7375,1.40109,4.11516
-9.798000e-03,0.767969,17.8063,1.39797,4.10562
-9.796000e-03,0.765156,17.7875,1.39703,4.10453
-9.794000e-03,0.767344,17.7797,1.40094,4.11
-9.792000e-03,0.770469,17.7984,1.39625,4.11156
-9.790000e-03,0.753281,17.6391,1.39484,4.11313
-9.788000e-03,0.767188,17.7797,1.40031,4.10359
-9.786000e-03,0.763125,17.7703,1.40672,4.10312
-9.784000e-03,0.7625,17.8141,1.40156,4.11437
-9.782000e-03,0.763437,17.75,1.39719,4.10531
-9.780000e-03,0.76125,17.7031,1.40047,4.10656
-9.778000e-03,0.758125,17.7516,1.39359,4.10594
-9.776000e-03,0.767188,17.7406,1.39531,4.11125
-9.774000e-03,0.758281,17.7547,1.39938,4.10672
-9.772000e-03,0.767188,17.7906,1.39625,4.11109
-9.770000e-03,0.764219,17.7156,1.39062,4.10266
-9.768000e-03,0.757969,17.7063,1.39344,4.10312
-9.766000e-03,0.761563,17.7609,1.39172,4.10828
-9.764000e-03,0.762188,17.7312,1.4025,4.10047
-9.762000e-03,0.757188,17.7563,1.40172,4.10391
-9.760000e-03,0.745938,17.7406,1.39672,4.10203
-9.758000e-03,0.749531,17.8594,1.39422,4.10453
-9.756000e-03,0.75,17.7891,1.40016,4.10781
-9.754000e-03,0.76125,17.7813,1.39266,4.11016
-9.752000e-03,0.754688,17.7875,1.40172,4.09922
-9.750000e-03,0.761094,17.7859,1.39906,4.11031
-9.748000e-03,0.7525,17.7188,1.3975,4.10359
-9.746000e-03,0.757656,17.7719,1.3975,4.10141
-9.744000e-03,0.754688,17.6719,1.39297,4.09734
-9.742000e-03,0.760938,17.7891,1.39391,4.10812
-9.740000e-03,0.763125,17.8016,1.40172,4.10219
-9.738000e-03,0.7525,17.7078,1.40172,4.10938
-9.736000e-03,0.753281,17.8,1.39469,4.10891
-9.734000e-03,0.750781,17.7281,1.39,4.11078
-9.732000e-03,0.756719,17.7469,1.3925,4.10984
-9.730000e-03,0.75125,17.7969,1.39781,4.10438
-9.728000e-03,0.747656,17.7375,1.39656,4.10922
-9.726000e-03,0.745781,17.6578,1.39453,4.10906
-9.724000e-03,0.758437,17.8047,1.39828,4.11969
-9.722000e-03,0.751406,17.7703,1.41281,4.11016
-9.720000e-03,0.751719,17.7609,1.39437,4.10687
-9.718000e-03,0.7525,17.6969,1.38859,4.11203
-9.716000e-03,0.744062,17.7563,1.40047,4.10641
-9.714000e-03,0.748281,17.7547,1.39922,4.10609
-9.712000e-03,0.749844,17.8016,1.39906,4.10547
-9.710000e-03,0.74625,17.7406,1.39109,4.10734
-9.708000e-03,0.748906,17.7266,1.39828,4.10891
-9.706000e-03,0.755625,17.7688,1.40203,4.10438
-9.704000e-03,0.747031,17.7672,1.39797,4.10609
-9.702000e-03,0.745625,17.7359,1.40266,4.10891
-9.700000e-03,0.754062,17.7078,1.39906,4.10641
-9.698000e-03,0.745938,17.7234,1.39437,4.10094
-9.696000e-03,0.743594,17.7359,1.38984,4.10719
-9.694000e-03,0.753437,17.7172,1.40109,4.10906
-9.692000e-03,0.743281,17.7984,1.40016,4.11422
-9.690000e-03,0.748594,17.6813,1.40312,4.105
-9.688000e-03,0.740781,17.7625,1.40281,4.10797
-9.686000e-03,0.745625,17.7828,1.39078,4.10734
-9.684000e-03,0.747031,17.7609,1.39672,4.10672
-9.682000e-03,0.746875,17.7875,1.39594,4.10719
-9.680000e-03,0.748281,17.6828,1.39062,4.11109
-9.678000e-03,0.744688,17.7937,1.4,4.11734
-9.676000e-03,0.74,17.7125,1.39203,4.10469
-9.674000e-03,0.748281,17.7859,1.38922,4.10812
-9.672000e-03,0.746719,17.7688,1.40156,4.11219
-9.670000e-03,0.745625,17.8188,1.39703,4.11359
-9.668000e-03,0.740313,17.6938,1.40031,4.11
-9.666000e-03,0.73625,17.7688,1.39563,4.10109
-9.664000e-03,0.737187,17.725,1.40672,4.11094
-9.662000e-03,0.740469,17.6719,1.39219,4.1075
-9.660000e-03,0.746094,17.7328,1.39484,4.11781
-9.658000e-03,0.732812,17.7422,1.40016,4.10922
-9.656000e-03,0.735938,17.7359,1.40266,4.10906
-9.654000e-03,0.728594,17.8063,1.40016,4.10187
-9.652000e-03,0.737344,17.7703,1.40203,4.10547
-9.650000e-03,0.744219,17.6719,1.39594,4.10547
-9.648000e-03,0.740313,17.8156,1.39672,4.09938
-9.646000e-03,0.742812,17.7375,1.40391,4.10641
-9.644000e-03,0.745156,17.8469,1.395,4.10422
-9.642000e-03,0.739063,17.8,1.40172,4.09922
-9.640000e-03,0.731563,17.8641,1.39016,4.10031
-9.638000e-03,0.740625,17.7531,1.40234,4.11406
-9.636000e-03,0.734688,17.6844,1.38688,4.10703
-9.634000e-03,0.741719,17.6828,1.3925,4.10969
-9.632000e-03,0.730469,17.7344,1.39328,4.10922
-9.630000e-03,0.738281,17.8344,1.40156,4.11203
-9.628000e-03,0.728906,17.7469,1.39078,4.11313
-9.626000e-03,0.740313,17.7969,1.39641,4.10906
-9.624000e-03,0.732344,17.7563,1.39688,4.11125
-9.622000e-03,0.73125,17.7656,1.40266,4.10562
-9.620000e-03,0.729219,17.8031,1.40109,4.10547
-9.618000e-03,0.732187,17.7328,1.39938,4.11484
-9.616000e-03,0.733594,17.7516,1.39578,4.11703
-9.614000e-03,0.725469,17.7703,1.39531,4.11297
-9.612000e-03,0.721562,17.7203,1.39422,4.11375
-9.610000e-03,0.722656,17.8031,1.39703,4.11437
-9.608000e-03,0.729219,17.7719,1.39453,4.10469
-9.606000e-03,0.736719,17.6938,1.38844,4.11062
-9.604000e-03,0.732187,17.8109,1.39312,4.10422
-9.602000e-03,0.734375,17.8219,1.39797,4.10969
-9.600000e-03,0.727812,17.7578,1.39359,4.10391
-9.598000e-03,0.727812,17.7891,1.39172,4.10562
-9.596000e-03,0.730625,17.8234,1.38844,4.10828
-9.594000e-03,0.729219,17.6641,1.3925,4.11313
-9.592000e-03,0.730156,17.6875,1.40016,4.10172
-9.590000e-03,0.733281,17.7641,1.40031,4.10484
-9.588000e-03,0.737031,17.7328,1.39484,4.10375
-9.586000e-03,0.72375,17.7484,1.40078,4.10047
-9.584000e-03,0.728437,17.7438,1.40187,4.10719
-9.582000e-03,0.731094,17.7625,1.40844,4.10328
-9.580000e-03,0.727187,17.725,1.40187,4.11219
-9.578000e-03,0.73375,17.7453,1.39672,4.10609
-9.576000e-03,0.728594,17.7328,1.39156,4.09609
-9.574000e-03,0.731094,17.7203,1.3975,4.10469
-9.572000e-03,0.726719,17.7047,1.39531,4.09438
-9.570000e-03,0.727344,17.7391,1.40219,4.11078
-9.568000e-03,0.719375,17.7469,1.39453,4.09719
-9.566000e-03,0.725625,17.8078,1.39969,4.10984
-9.564000e-03,0.724688,17.8031,1.39469,4.09719
-9.562000e-03,0.718906,17.7859,1.40078,4.11203
-9.560000e-03,0.720938,17.7688,1.39297,4.10438
-9.558000e-03,0.731406,17.6891,1.39672,4.10891
-9.556000e-03,0.725625,17.75,1.39906,4.10687
-9.554000e-03,0.725781,17.7594,1.40078,4.11937
-9.552000e-03,0.716406,17.7344,1.39922,4.10969
-9.550000e-03,0.725,17.7297,1.39953,4.10766
-9.548000e-03,0.712812,17.7922,1.39328,4.11047
-9.546000e-03,0.729688,17.7234,1.39828,4.11375
-9.544000e-03,0.719844,17.8234,1.40625,4.09781
-9.542000e-03,0.707813,17.8609,1.40547,4.10125
-9.540000e-03,0.719063,17.7563,1.40547,4.10562
-9.538000e-03,0.715156,17.7266,1.40281,4.10969
-9.536000e-03,0.717812,17.8297,1.39531,4.10234
-9.534000e-03,0.722031,17.7047,1.39719,4.10656
-9.532000e-03,0.719688,17.7688,1.39703,4.10641
-9.530000e-03,0.703281,17.7312,1.39469,4.10984
-9.528000e-03,0.717969,17.7563,1.39594,4.11125
-9.526000e-03,0.705625,17.7172,1.40328,4.11344
-9.524000e-03,0.715625,17.7547,1.39469,4.10078
-9.522000e-03,0.713906,17.6969,1.40875,4.09891
-9.520000e-03,0.71875,17.7953,1.40172,4.11437
-9.518000e-03,0.716719,17.725,1.40562,4.10328
-9.516000e-03,0.709375,17.7031,1.39844,4.10047
-9.514000e-03,0.708125,17.7516,1.40234,4.11469
-9.512000e-03,0.709219,17.7406,1.40344,4.10141
-9.510000e-03,0.715313,17.7688,1.39813,4.10594
-9.508000e-03,0.712656,17.7797,1.39187,4.09969
-9.506000e-03,0.714688,17.7781,1.38453,4.10734
-9.504000e-03,0.714375,17.8344,1.39578,4.10766
-9.502000e-03,0.709219,17.7047,1.39922,4.10344
-9.500000e-03,0.704688,17.8047,1.39078,4.10266
-9.498000e-03,0.713906,17.7031,1.39125,4.10578
-9.496000e-03,0.712812,17.7406,1.39641,4.11156
-9.494000e-03,0.704531,17.7688,1.39766,4.10625
-9.492000e-03,0.718125,17.7422,1.39531,4.11719
-9.490000e-03,0.712812,17.7734,1.39938,4.10734
-9.488000e-03,0.714688,17.7328,1.40875,4.11484
-9.486000e-03,0.7025,17.8281,1.39469,4.11406
-9.484000e-03,0.7075,17.7688,1.39688,4.10547
-9.482000e-03,0.707656,17.6875,1.40125,4.11078
-9.480000e-03,0.704063,17.7937,1.39594,4.10516
-9.478000e-03,0.71125,17.7,1.39672,4.11625
-9.476000e-03,0.700313,17.775,1.39984,4.10609
-9.474000e-03,0.708438,17.6922,1.39797,4.11484
-9.472000e-03,0.715469,17.7969,1.40516,4.10328
-9.470000e-03,0.704219,17.7516,1.39172,4.10969
-9.468000e-03,0.7025,17.7563,1.39422,4.10609
-9.466000e-03,0.709219,17.8172,1.40766,4.11172
-9.464000e-03,0.709531,17.775,1.40734,4.11328
-9.462000e-03,0.697813,17.7625,1.39875,4.09766
-9.460000e-03,0.710781,17.7422,1.3875,4.10906
-9.458000e-03,0.707031,17.7234,1.39297,4.105
-9.456000e-03,0.704375,17.8078,1.39422,4.10469
-9.454000e-03,0.707969,17.7703,1.39469,4.10906
-9.452000e-03,0.699063,17.7984,1.39984,4.11281
-9.450000e-03,0.704219,17.7531,1.40078,4.10531
-9.448000e-03,0.702031,17.7734,1.40562,4.11437
-9.446000e-03,0.69625,17.7547,1.40312,4.11359
-9.444000e-03,0.697187,17.8141,1.39516,4.10953
-9.442000e-03,0.697187,17.8375,1.40203,4.11453
-9.440000e-03,0.700937,17.7563,1.39938,4.11266
-9.438000e-03,0.705156,17.7703,1.40562,4.11672
-9.436000e-03,0.691094,17.7156,1.39531,4.10797
-9.434000e-03,0.68625,17.7719,1.39781,4.11
-9.432000e-03,0.702656,17.7594,1.39031,4.11375
-9.430000e-03,0.70125,17.8016,1.39172,4.10812
-9.428000e-03,0.705,17.8172,1.40422,4.10656
-9.426000e-03,0.697969,17.7125,1.40141,4.10328
-9.424000e-03,0.692656,17.7172,1.39594,4.10656
-9.422000e-03,0.699844,17.8313,1.39859,4.11641
-9.420000e-03,0.69875,17.7688,1.40016,4.11016
-9.418000e-03,0.684219,17.7703,1.39422,4.10609
-9.416000e-03,0.690156,17.8094,1.39969,4.11156
-9.414000e-03,0.691719,17.7156,1.40047,4.10812
-9.412000e-03,0.694219,17.7594,1.39688,4.10844
-9.410000e-03,0.688594,17.6609,1.38922,4.10906
-9.408000e-03,0.683594,17.6703,1.40094,4.11219
-9.406000e-03,0.684375,17.7875,1.40344,4.11156
-9.404000e-03,0.692031,17.7312,1.4,4.10375
-9.402000e-03,0.691406,17.8266,1.40094,4.10922
-9.400000e-03,0.690469,17.675,1.40094,4.10859
-9.398000e-03,0.692031,17.7875,1.3975,4.10891
-9.396000e-03,0.690625,17.7578,1.395,4.09828
-9.394000e-03,0.695781,17.7906,1.39344,4.10297
-9.392000e-03,0.695312,17.7578,1.40297,4.11047
-9.390000e-03,0.688906,17.7797,1.40297,4.10672
-9.388000e-03,0.689844,17.7766,1.39156,4.09781
-9.386000e-03,0.684063,17.7359,1.39922,4.10812
-9.384000e-03,0.693281,17.7344,1.39875,4.11172
-9.382000e-03,0.695312,17.7609,1.39609,4.11125
-9.380000e-03,0.688438,17.7484,1.39594,4.10469
-9.378000e-03,0.682344,17.7453,1.40297,4.10531
-9.376000e-03,0.679688,17.7641,1.39625,4.105
-9.374000e-03,0.688906,17.7828,1.39469,4.09672
-9.372000e-03,0.684219,17.7719,1.39563,4.10891
-9.370000e-03,0.681406,17.7297,1.40469,4.10906
-9.368000e-03,0.6875,17.7156,1.40047,4.11406
-9.366000e-03,0.677031,17.7656,1.39688,4.10625
-9.364000e-03,0.675625,17.7844,1.40203,4.10219
-9.362000e-03,0.680156,17.7578,1.39781,4.10734
-9.360000e-03,0.679375,17.7328,1.40344,4.11062
-9.358000e-03,0.679375,17.7469,1.40312,4.10328
-9.356000e-03,0.677656,17.775,1.39422,4.11187
-9.354000e-03,0.681562,17.7766,1.39422,4.09844
-9.352000e-03,0.685625,17.6453,1.39969,4.10609
-9.350000e-03,0.673906,17.8422,1.39688,4.09812
-9.348000e-03,0.686719,17.775,1.39922,4.11109
-9.346000e-03,0.683281,17.7953,1.39594,4.11062
-9.344000e-03,0.685,17.8203,1.4025,4.10438
-9.342000e-03,0.681719,17.8047,1.39594,4.11328
-9.340000e-03,0.680781,17.7797,1.39359,4.10812
-9.338000e-03,0.676563,17.7672,1.40969,4.11453
-9.336000e-03,0.6825,17.775,1.39578,4.10391
-9.334000e-03,0.682031,17.7859,1.39453,4.11406
-9.332000e-03,0.682188,17.6859,1.40156,4.10125
-9.330000e-03,0.671406,17.8,1.40094,4.09391
-9.328000e-03,0.68375,17.7016,1.39922,4.11187
-9.326000e-03,0.676563,17.7641,1.41063,4.11016
-9.324000e-03,0.680937,17.7516,1.38969,4.10516
-9.322000e-03,0.676406,17.6953,1.40297,4.10828
-9.320000e-03,0.684531,17.7438,1.40391,4.09969
-9.318000e-03,0.671875,17.7391,1.39594,4.10766
-9.316000e-03,0.676406,17.7609,1.39547,4.10828
-9.314000e-03,0.676719,17.6969,1.40094,4.10781
-9.312000e-03,0.676094,17.7688,1.40172,4.11031
-9.310000e-03,0.681094,17.7563,1.40391,4.10359
-9.308000e-03,0.675625,17.7953,1.40109,4.09641
-9.306000e-03,0.673125,17.7484,1.39156,4.1
-9.304000e-03,0.67625,17.7844,1.40063,4.11469
-9.302000e-03,0.6825,17.6859,1.39062,4.10531
-9.300000e-03,0.675469,17.8188,1.39906,4.10453
-9.298000e-03,0.672969,17.7453,1.39641,4.10906
-9.296000e-03,0.678438,17.7391,1.40266,4.10156
-9.294000e-03,0.679219,17.7875,1.39516,4.11187
-9.292000e-03,0.680312,17.7594,1.39437,4.10797
-9.290000e-03,0.671719,17.7375,1.38734,4.11328
-9.288000e-03,0.673438,17.7688,1.39984,4.11031
-9.286000e-03,0.6775,17.7109,1.39578,4.10609
-9.284000e-03,0.672656,17.7422,1.40312,4.11016
-9.282000e-03,0.670156,17.8281,1.40516,4.10484
-9.280000e-03,0.67125,17.775,1.39281,4.10844
-9.278000e-03,0.670469,17.75,1.39953,4.10859
-9.276000e-03,0.681094,17.6875,1.39891,4.10797
-9.274000e-03,0.66625,17.7375,1.40047,4.11203
-9.272000e-03,0.677813,17.8063,1.40328,4.09594
-9.270000e-03,0.666719,17.8047,1.39437,4.11125
-9.268000e-03,0.662969,17.8109,1.39,4.11141
-9.266000e-03,0.668906,17.7031,1.40219,4.09844
-9.264000e-03,0.66625,17.7406,1.39297,4.10438
-9.262000e-03,0.666875,17.7703,1.40172,4.10406
-9.260000e-03,0.665625,17.7047,1.40328,4.11109
-9.258000e-03,0.669375,17.825,1.38953,4.11141
-9.256000e-03,0.663281,17.6438,1.39328,4.10656
-9.254000e-03,0.664219,17.75,1.39578,4.10531
-9.252000e-03,0.669063,17.8,1.40797,4.11516
-9.250000e-03,0.661406,17.7891,1.39672,4.10062
-9.248000e-03,0.655938,17.7531,1.40109,4.10687
-9.246000e-03,0.659844,17.8422,1.40328,4.10922
-9.244000e-03,0.66875,17.7453,1.40172,4.10297
-9.242000e-03,0.660625,17.6578,1.39563,4.11406
-9.240000e-03,0.660938,17.7516,1.40047,4.10609
-9.238000e-03,0.66125,17.7219,1.39625,4.10109
-9.236000e-03,0.660781,17.7266,1.39766,4.11375
-9.234000e-03,0.665937,17.7391,1.39328,4.11078
-9.232000e-03,0.660625,17.7438,1.39516,4.09938
-9.230000e-03,0.663438,17.7234,1.39125,4.10656
-9.228000e-03,0.658125,17.8594,1.40078,4.10141
-9.226000e-03,0.661094,17.7625,1.40063,4.11062
-9.224000e-03,0.65375,17.7188,1.40422,4.10938
-9.222000e-03,0.665312,17.7516,1.40156,4.10719
-9.220000e-03,0.658594,17.8422,1.39844,4.10438
-9.218000e-03,0.649844,17.7078,1.39062,4.10687
-9.216000e-03,0.653594,17.6734,1.40219,4.105
-9.214000e-03,0.660469,17.7734,1.39766,4.10562
-9.212000e-03,0.655938,17.7625,1.40234,4.10656
-9.210000e-03,0.658906,17.7937,1.39406,4.10812
-9.208000e-03,0.659062,17.8016,1.40094,4.10109
-9.206000e-03,0.657813,17.7594,1.40219,4.09859
-9.204000e-03,0.654062,17.7547,1.40719,4.1125
-9.202000e-03,0.657813,17.7813,1.40375,4.10875
-9.200000e-03,0.661875,17.7312,1.39891,4.11187
-9.198000e-03,0.654375,17.8047,1.40141,4.10391
-9.196000e-03,0.657188,17.7047,1.39766,4.115
-9.194000e-03,0.655625,17.7,1.40219,4.10719
-9.192000e-03,0.652969,17.7297,1.39594,4.09938
-9.190000e-03,0.659844,17.7453,1.40703,4.10875
-9.188000e-03,0.645625,17.7141,1.39578,4.11328
-9.186000e-03,0.6525,17.7375,1.39578,4.10766
-9.184000e-03,0.646406,17.8156,1.39578,4.11672
-9.182000e-03,0.657656,17.7375,1.39828,4.09969
-9.180000e-03,0.651563,17.7406,1.39609,4.11125
-9.178000e-03,0.650625,17.6609,1.40187,4.11031
-9.176000e-03,0.650625,17.7125,1.40437,4.10047
-9.174000e-03,0.654844,17.8141,1.39281,4.10406
-9.172000e-03,0.644062,17.7531,1.39734,4.10922
-9.170000e-03,0.644375,17.7703,1.39969,4.10734
-9.168000e-03,0.655469,17.8234,1.39734,4.10422
-9.166000e-03,0.657813,17.7219,1.39953,4.11109
-9.164000e-03,0.652188,17.7563,1.39859,4.11359
-9.162000e-03,0.647344,17.7312,1.40688,4.10781
-9.160000e-03,0.643906,17.7641,1.4025,4.10422
