measurements/vbo_slope_350fF/tek0007ALL.csv

Model,MDO3034
Firmware Version,1.08

Waveform Type,ANALOG,,
Point Format,Y,,
Horizontal Units,s,,
Horizontal Scale,1e-05,,
Horizontal Delay,0,,
Sample Interval,1e-08,,
Record Length,10000,,
Gating,0.0% to 100.0%,,
Probe Attenuation,10,10,1
Vertical Units,V,V,V
Vertical Offset,0,0,0
Vertical Scale,1,1,1
Vertical Position,0,-0.02,0
,,,
,,,
,,,
Label,M2024,M2029,M2030
TIME,CH1,CH3,CH4
-5.000000e-05,1.38297,1.41594,-0.05875
-4.999000e-05,1.38391,1.41281,-0.0592188
-4.998000e-05,1.38219,1.41297,-0.0592188
-4.997000e-05,1.38594,1.41391,-0.0585938
-4.996000e-05,1.38219,1.41375,-0.0601563
-4.995000e-05,1.38484,1.41594,-0.058125
-4.994000e-05,1.38141,1.41625,-0.0590625
-4.993000e-05,1.38312,1.41344,-0.059375
-4.992000e-05,1.38016,1.41563,-0.0607813
-4.991000e-05,1.38531,1.41359,-0.0589063
-4.990000e-05,1.3825,1.41391,-0.0598438
-4.989000e-05,1.38391,1.41484,-0.0598438
-4.988000e-05,1.38172,1.41797,-0.059375
-4.987000e-05,1.38266,1.41547,-0.0589063
-4.986000e-05,1.38344,1.41281,-0.0592188
-4.985000e-05,1.38172,1.41266,-0.0596875
-4.984000e-05,1.38094,1.41406,-0.0598438
-4.983000e-05,1.38422,1.41172,-0.0589063
-4.982000e-05,1.38125,1.41281,-0.06
-4.981000e-05,1.385,1.41344,-0.0573437
-4.980000e-05,1.38563,1.41719,-0.0576562
-4.979000e-05,1.38078,1.41641,-0.0596875
-4.978000e-05,1.38172,1.41219,-0.0592188
-4.977000e-05,1.38328,1.41422,-0.0596875
-4.976000e-05,1.38156,1.41172,-0.06
-4.975000e-05,1.38125,1.41141,-0.0596875
-4.974000e-05,1.38609,1.42109,-0.0560937
-4.973000e-05,1.38187,1.41031,-0.0598438
-4.972000e-05,1.38125,1.41125,-0.0598438
-4.971000e-05,1.38234,1.41219,-0.059375
-4.970000e-05,1.38453,1.41578,-0.0584375
-4.969000e-05,1.38156,1.41563,-0.05875
-4.968000e-05,1.38203,1.41594,-0.0589063
-4.967000e-05,1.38438,1.41406,-0.0584375
-4.966000e-05,1.38187,1.41328,-0.0595313
-4.965000e-05,1.38234,1.41672,-0.0596875
-4.964000e-05,1.38328,1.41297,-0.0598438
-4.963000e-05,1.38438,1.41344,-0.0589063
-4.962000e-05,1.38187,1.41641,-0.0601563
-4.961000e-05,1.38469,1.41453,-0.0601563
-4.960000e-05,1.38016,1.415,-0.0603125
-4.959000e-05,1.38344,1.41281,-0.0579687
-4.958000e-05,1.38078,1.41297,-0.0595313
-4.957000e-05,1.38422,1.41156,-0.059375
-4.956000e-05,1.38172,1.41844,-0.0595313
-4.955000e-05,1.38297,1.41453,-0.0584375
-4.954000e-05,1.3825,1.41281,-0.0595313
-4.953000e-05,1.3825,1.41344,-0.0598438
-4.952000e-05,1.38094,1.41484,-0.0595313
-4.951000e-05,1.38359,1.4125,-0.05875
-4.950000e-05,1.38172,1.41156,-0.0596875
-4.949000e-05,1.38344,1.41422,-0.0582812
-4.948000e-05,1.38594,1.41563,-0.0582812
-4.947000e-05,1.38109,1.41563,-0.0596875
-4.946000e-05,1.38094,1.41078,-0.06
-4.945000e-05,1.38453,1.41391,-0.0589063
-4.944000e-05,1.38094,1.41187,-0.0595313
-4.943000e-05,1.38125,1.41172,-0.0595313
-4.942000e-05,1.38469,1.41891,-0.056875
-4.941000e-05,1.38141,1.40953,-0.06
-4.940000e-05,1.38109,1.41422,-0.0598438
-4.939000e-05,1.38375,1.41094,-0.0592188
-4.938000e-05,1.38312,1.41391,-0.0592188
-4.937000e-05,1.38219,1.41328,-0.06
-4.936000e-05,1.38344,1.41516,-0.0584375
-4.935000e-05,1.38359,1.41359,-0.0592188
-4.934000e-05,1.38141,1.41344,-0.0589063
-4.933000e-05,1.38547,1.41641,-0.05875
-4.932000e-05,1.38187,1.41281,-0.0595313
-4.931000e-05,1.38375,1.41437,-0.0585938
-4.930000e-05,1.38219,1.41609,-0.06
-4.929000e-05,1.38219,1.41219,-0.0595313
-4.928000e-05,1.38047,1.41312,-0.0598438
-4.927000e-05,1.38344,1.41203,-0.0595313
-4.926000e-05,1.38125,1.41359,-0.0595313
-4.925000e-05,1.38344,1.41297,-0.0595313
-4.924000e-05,1.38328,1.42109,-0.0596875
-4.923000e-05,1.38406,1.41531,-0.0575
-4.922000e-05,1.38391,1.41344,-0.0601563
-4.921000e-05,1.38172,1.41422,-0.0595313
-4.920000e-05,1.38031,1.41234,-0.0598438
-4.919000e-05,1.38266,1.41297,-0.05875
-4.918000e-05,1.38062,1.41172,-0.06
-4.917000e-05,1.38391,1.41312,-0.0582812
-4.916000e-05,1.385,1.41578,-0.0576562
-4.915000e-05,1.38125,1.41625,-0.0601563
-4.914000e-05,1.38109,1.41203,-0.0598438
-4.913000e-05,1.38312,1.41641,-0.0598438
-4.912000e-05,1.38203,1.41172,-0.0598438
-4.911000e-05,1.38094,1.41109,-0.0601563
-4.910000e-05,1.38516,1.41922,-0.05625
-4.909000e-05,1.3825,1.41266,-0.0596875
-4.908000e-05,1.38141,1.41328,-0.0603125
-4.907000e-05,1.38391,1.41203,-0.0592188
-4.906000e-05,1.38172,1.41422,-0.0595313
-4.905000e-05,1.38156,1.415,-0.0596875
-4.904000e-05,1.38203,1.41516,-0.0585938
-4.903000e-05,1.38344,1.41266,-0.0578125
-4.902000e-05,1.38281,1.41437,-0.0592188
-4.901000e-05,1.38422,1.41578,-0.0596875
-4.900000e-05,1.38312,1.41141,-0.0598438
-4.899000e-05,1.38531,1.41453,-0.0573437
-4.898000e-05,1.38281,1.41609,-0.06
-4.897000e-05,1.38516,1.41594,-0.0596875
-4.896000e-05,1.38094,1.415,-0.060625
-4.895000e-05,1.38391,1.41391,-0.0601563
-4.894000e-05,1.38109,1.41125,-0.0596875
-4.893000e-05,1.38312,1.41516,-0.06
-4.892000e-05,1.3825,1.41797,-0.0603125
-4.891000e-05,1.38328,1.41734,-0.0579687
-4.890000e-05,1.38359,1.41359,-0.0590625
-4.889000e-05,1.38141,1.41344,-0.0595313
-4.888000e-05,1.38094,1.415,-0.0596875
-4.887000e-05,1.38297,1.41641,-0.05875
-4.886000e-05,1.38094,1.41187,-0.0603125
-4.885000e-05,1.38312,1.41422,-0.0589063
-4.884000e-05,1.38578,1.41828,-0.0573437
-4.883000e-05,1.38062,1.41594,-0.0596875
-4.882000e-05,1.38141,1.41156,-0.0590625
-4.881000e-05,1.38328,1.41391,-0.0592188
-4.880000e-05,1.38062,1.41,-0.0595313
-4.879000e-05,1.38172,1.41172,-0.060625
-4.878000e-05,1.38609,1.41734,-0.0565625
-4.877000e-05,1.38,1.41109,-0.0596875
-4.876000e-05,1.38266,1.41234,-0.0598438
-4.875000e-05,1.38469,1.41109,-0.0589063
-4.874000e-05,1.38234,1.41453,-0.0590625
-4.873000e-05,1.38156,1.415,-0.0598438
-4.872000e-05,1.38203,1.41391,-0.0589063
-4.871000e-05,1.38281,1.4125,-0.0585938
-4.870000e-05,1.38234,1.41406,-0.0590625
-4.869000e-05,1.38406,1.41516,-0.06
-4.868000e-05,1.3825,1.4125,-0.060625
-4.867000e-05,1.38453,1.41453,-0.0589063
-4.866000e-05,1.3825,1.41641,-0.0598438
-4.865000e-05,1.38328,1.41531,-0.0595313
-4.864000e-05,1.38125,1.41563,-0.06
-4.863000e-05,1.38219,1.41359,-0.0598438
-4.862000e-05,1.38172,1.41344,-0.0598438
-4.861000e-05,1.38281,1.41516,-0.06
-4.860000e-05,1.38391,1.41828,-0.0595313
-4.859000e-05,1.38312,1.41484,-0.0585938
-4.858000e-05,1.38312,1.41234,-0.05875
-4.857000e-05,1.38234,1.41344,-0.0595313
-4.856000e-05,1.38016,1.41547,-0.06
-4.855000e-05,1.38359,1.41266,-0.05875
-4.854000e-05,1.38203,1.41187,-0.0596875
-4.853000e-05,1.38281,1.41281,-0.0589063
-4.852000e-05,1.38547,1.41703,-0.0579687
-4.851000e-05,1.38094,1.41531,-0.0601563
-4.850000e-05,1.38172,1.41344,-0.059375
-4.849000e-05,1.38547,1.41391,-0.0589063
-4.848000e-05,1.38031,1.40844,-0.0595313
-4.847000e-05,1.37984,1.41328,-0.0604688
-4.846000e-05,1.38625,1.41797,-0.0565625
-4.845000e-05,1.38078,1.41,-0.0592188
-4.844000e-05,1.38172,1.41312,-0.0596875
-4.843000e-05,1.38187,1.41016,-0.0598438
-4.842000e-05,1.38266,1.41344,-0.05875
-4.841000e-05,1.38328,1.41641,-0.06
-4.840000e-05,1.38281,1.41609,-0.0579687
-4.839000e-05,1.38547,1.41391,-0.0596875
-4.838000e-05,1.38219,1.41266,-0.0595313
-4.837000e-05,1.38406,1.41594,-0.0595313
-4.836000e-05,1.38156,1.41187,-0.0598438
-4.835000e-05,1.38422,1.41422,-0.0589063
-4.834000e-05,1.38094,1.41734,-0.0598438
-4.833000e-05,1.38312,1.41344,-0.0595313
-4.832000e-05,1.38172,1.41453,-0.0596875
-4.831000e-05,1.38359,1.41078,-0.0590625
-4.830000e-05,1.38141,1.41234,-0.0596875
-4.829000e-05,1.38219,1.41406,-0.06
-4.828000e-05,1.38156,1.41844,-0.0595313
-4.827000e-05,1.38453,1.41594,-0.058125
-4.826000e-05,1.38266,1.41375,-0.05875
-4.825000e-05,1.38281,1.41375,-0.0596875
-4.824000e-05,1.38109,1.41375,-0.0598438
-4.823000e-05,1.38281,1.41406,-0.0592188
-4.822000e-05,1.38094,1.41141,-0.0601563
-4.821000e-05,1.38328,1.41312,-0.058125
-4.820000e-05,1.38625,1.4175,-0.0570312
-4.819000e-05,1.38062,1.41437,-0.0598438
-4.818000e-05,1.38328,1.41516,-0.0592188
-4.817000e-05,1.38406,1.41359,-0.059375
-4.816000e-05,1.38172,1.41141,-0.059375
-4.815000e-05,1.38109,1.41203,-0.0598438
-4.814000e-05,1.38469,1.41984,-0.05875
-4.813000e-05,1.38203,1.40984,-0.0596875
-4.812000e-05,1.38187,1.41453,-0.06
-4.811000e-05,1.38234,1.41063,-0.059375
-4.810000e-05,1.38328,1.41266,-0.0592188
-4.809000e-05,1.38281,1.41453,-0.06
-4.808000e-05,1.38297,1.415,-0.0585938
-4.807000e-05,1.38359,1.41344,-0.05875
-4.806000e-05,1.38141,1.41281,-0.0589063
-4.805000e-05,1.38547,1.41719,-0.0575
-4.804000e-05,1.38156,1.41203,-0.0607813
-4.803000e-05,1.38484,1.41516,-0.0582812
-4.802000e-05,1.38234,1.41672,-0.06
-4.801000e-05,1.385,1.41531,-0.0598438
-4.800000e-05,1.38187,1.41375,-0.0603125
-4.799000e-05,1.38344,1.41156,-0.0595313
-4.798000e-05,1.38234,1.41312,-0.0596875
-4.797000e-05,1.38438,1.41312,-0.0598438
-4.796000e-05,1.38375,1.41938,-0.0596875
-4.795000e-05,1.38281,1.41484,-0.058125
-4.794000e-05,1.38312,1.41422,-0.0592188
-4.793000e-05,1.38156,1.41281,-0.0595313
-4.792000e-05,1.38094,1.41281,-0.0596875
-4.791000e-05,1.38344,1.41391,-0.0579687
-4.790000e-05,1.38109,1.41219,-0.06
-4.789000e-05,1.38297,1.41219,-0.0592188
-4.788000e-05,1.38625,1.41594,-0.0570312
-4.787000e-05,1.38078,1.41734,-0.0598438
-4.786000e-05,1.38141,1.41297,-0.0592188
-4.785000e-05,1.38406,1.41422,-0.0590625
-4.784000e-05,1.38094,1.41125,-0.059375
-4.783000e-05,1.38187,1.41312,-0.0601563
-4.782000e-05,1.38625,1.41859,-0.0573437
-4.781000e-05,1.38281,1.40984,-0.0590625
-4.780000e-05,1.38203,1.41344,-0.06
-4.779000e-05,1.38187,1.41031,-0.059375
-4.778000e-05,1.38219,1.41422,-0.0585938
-4.777000e-05,1.38281,1.41578,-0.06
-4.776000e-05,1.38312,1.41453,-0.0579687
-4.775000e-05,1.38531,1.41359,-0.0575
-4.774000e-05,1.38109,1.41563,-0.0601563
-4.773000e-05,1.38469,1.41453,-0.0585938
-4.772000e-05,1.38141,1.41281,-0.0604688
-4.771000e-05,1.38469,1.415,-0.0582812
-4.770000e-05,1.3825,1.41516,-0.059375
-4.769000e-05,1.3825,1.41453,-0.0595313
-4.768000e-05,1.38125,1.41578,-0.0601563
-4.767000e-05,1.38375,1.41187,-0.0598438
-4.766000e-05,1.38219,1.41312,-0.0601563
-4.765000e-05,1.38469,1.41359,-0.0604688
-4.764000e-05,1.38297,1.42031,-0.059375
-4.763000e-05,1.3825,1.41344,-0.0584375
-4.762000e-05,1.38266,1.41375,-0.0598438
-4.761000e-05,1.38109,1.41453,-0.0601563
-4.760000e-05,1.38156,1.41344,-0.06
-4.759000e-05,1.38281,1.41594,-0.0579687
-4.758000e-05,1.38156,1.40984,-0.0595313
-4.757000e-05,1.38375,1.41016,-0.0584375
-4.756000e-05,1.38625,1.41563,-0.0560937
-4.755000e-05,1.38187,1.41531,-0.0609375
-4.754000e-05,1.38375,1.41312,-0.0592188
-4.753000e-05,1.38484,1.41422,-0.0589063
-4.752000e-05,1.38109,1.41141,-0.0592188
-4.751000e-05,1.38125,1.41219,-0.0598438
-4.750000e-05,1.38422,1.42063,-0.0571875
-4.749000e-05,1.38234,1.40953,-0.0592188
-4.748000e-05,1.38203,1.41391,-0.06
-4.747000e-05,1.38312,1.41344,-0.0592188
-4.746000e-05,1.38266,1.41297,-0.05875
-4.745000e-05,1.38438,1.41516,-0.0601563
-4.744000e-05,1.38312,1.41437,-0.0582812
-4.743000e-05,1.38484,1.41391,-0.0585938
-4.742000e-05,1.38141,1.41297,-0.0596875
-4.741000e-05,1.38609,1.41359,-0.0576562
-4.740000e-05,1.38203,1.41375,-0.0604688
-4.739000e-05,1.38391,1.41437,-0.0578125
-4.738000e-05,1.38219,1.41578,-0.06
-4.737000e-05,1.38266,1.41391,-0.0596875
-4.736000e-05,1.38047,1.41578,-0.0598438
-4.735000e-05,1.38438,1.41125,-0.0598438
-4.734000e-05,1.38141,1.41156,-0.0603125
-4.733000e-05,1.38297,1.41156,-0.0598438
-4.732000e-05,1.38234,1.41906,-0.0592188
-4.731000e-05,1.38234,1.41266,-0.0579687
-4.730000e-05,1.38344,1.41406,-0.0589063
-4.729000e-05,1.38219,1.41359,-0.0595313
-4.728000e-05,1.38109,1.41406,-0.06
-4.727000e-05,1.38312,1.41641,-0.0582812
-4.726000e-05,1.38141,1.41047,-0.0595313
-4.725000e-05,1.38297,1.41125,-0.0582812
-4.724000e-05,1.38469,1.4175,-0.0571875
-4.723000e-05,1.38172,1.41563,-0.06
-4.722000e-05,1.38422,1.41172,-0.059375
-4.721000e-05,1.38453,1.41453,-0.0595313
-4.720000e-05,1.38094,1.41234,-0.06
-4.719000e-05,1.38062,1.41203,-0.0595313
-4.718000e-05,1.38516,1.42031,-0.0564062
-4.717000e-05,1.38281,1.41047,-0.05875
-4.716000e-05,1.38156,1.41359,-0.0601563
-4.715000e-05,1.38187,1.41187,-0.0589063
-4.714000e-05,1.38406,1.41203,-0.0595313
-4.713000e-05,1.38375,1.41672,-0.0592188
-4.712000e-05,1.38266,1.41578,-0.0582812
-4.711000e-05,1.38516,1.41453,-0.0575
-4.710000e-05,1.38172,1.41391,-0.0596875
-4.709000e-05,1.38594,1.4175,-0.0576562
-4.708000e-05,1.38141,1.41219,-0.0604688
-4.707000e-05,1.38438,1.41625,-0.0579687
-4.706000e-05,1.38234,1.41688,-0.0601563
-4.705000e-05,1.38344,1.41328,-0.0595313
-4.704000e-05,1.38141,1.41484,-0.06
-4.703000e-05,1.38406,1.41078,-0.0601563
-4.702000e-05,1.38125,1.41,-0.06
-4.701000e-05,1.38141,1.41281,-0.0601563
-4.700000e-05,1.38328,1.41922,-0.0596875
-4.699000e-05,1.38297,1.41531,-0.058125
-4.698000e-05,1.38281,1.41422,-0.0598438
-4.697000e-05,1.38281,1.41469,-0.0596875
-4.696000e-05,1.38062,1.41406,-0.0598438
-4.695000e-05,1.38266,1.41312,-0.0585938
-4.694000e-05,1.38062,1.41156,-0.0595313
-4.693000e-05,1.38234,1.41203,-0.05875
-4.692000e-05,1.38469,1.41609,-0.0575
-4.691000e-05,1.38141,1.41563,-0.060625
-4.690000e-05,1.38266,1.41281,-0.059375
-4.689000e-05,1.38375,1.41344,-0.06
-4.688000e-05,1.38125,1.41359,-0.0596875
-4.687000e-05,1.38219,1.41266,-0.06
-4.686000e-05,1.38688,1.42172,-0.056875
-4.685000e-05,1.38203,1.40906,-0.0589063
-4.684000e-05,1.38328,1.41453,-0.0592188
-4.683000e-05,1.38297,1.41187,-0.0595313
-4.682000e-05,1.38234,1.41281,-0.059375
-4.681000e-05,1.38281,1.41734,-0.0601563
-4.680000e-05,1.38422,1.41359,-0.0596875
-4.679000e-05,1.38484,1.41406,-0.0578125
-4.678000e-05,1.38062,1.41234,-0.06
-4.677000e-05,1.38422,1.41437,-0.0579687
-4.676000e-05,1.38031,1.4125,-0.0601563
-4.675000e-05,1.38609,1.41719,-0.058125
-4.674000e-05,1.38172,1.41719,-0.0603125
-4.673000e-05,1.38281,1.41609,-0.059375
-4.672000e-05,1.38094,1.41531,-0.0601563
-4.671000e-05,1.38266,1.41094,-0.0598438
-4.670000e-05,1.38187,1.41234,-0.06
-4.669000e-05,1.3825,1.41484,-0.06
-4.668000e-05,1.385,1.41875,-0.0595313
-4.667000e-05,1.38297,1.41437,-0.0585938
-4.666000e-05,1.38406,1.41391,-0.0585938
-4.665000e-05,1.38187,1.41266,-0.0598438
-4.664000e-05,1.38047,1.41328,-0.06
-4.663000e-05,1.38406,1.41141,-0.05875
-4.662000e-05,1.38125,1.41,-0.0592188
-4.661000e-05,1.38203,1.41219,-0.0585938
-4.660000e-05,1.38547,1.41688,-0.056875
-4.659000e-05,1.38078,1.41422,-0.0595313
-4.658000e-05,1.38359,1.41063,-0.0598438
-4.657000e-05,1.38375,1.41437,-0.0595313
-4.656000e-05,1.38203,1.41281,-0.0601563
-4.655000e-05,1.38125,1.41266,-0.06
-4.654000e-05,1.38594,1.42016,-0.0565625
-4.653000e-05,1.38328,1.40875,-0.059375
-4.652000e-05,1.38281,1.41453,-0.0598438
-4.651000e-05,1.38141,1.41094,-0.0595313
-4.650000e-05,1.38234,1.41422,-0.06
-4.649000e-05,1.38328,1.41734,-0.0598438
-4.648000e-05,1.38328,1.41625,-0.0579687
-4.647000e-05,1.38359,1.41328,-0.0573437
-4.646000e-05,1.38172,1.41156,-0.0596875
-4.645000e-05,1.38438,1.41734,-0.0576562
-4.644000e-05,1.38187,1.41266,-0.0604688
-4.643000e-05,1.38484,1.41437,-0.058125
-4.642000e-05,1.38266,1.41484,-0.06
-4.641000e-05,1.38297,1.41656,-0.0590625
-4.640000e-05,1.38047,1.415,-0.06
-4.639000e-05,1.38375,1.41203,-0.0595313
-4.638000e-05,1.38094,1.41063,-0.0598438
-4.637000e-05,1.38391,1.41344,-0.0596875
-4.636000e-05,1.38359,1.41938,-0.0601563
-4.635000e-05,1.38328,1.41453,-0.058125
-4.634000e-05,1.38328,1.41453,-0.0585938
-4.633000e-05,1.38219,1.4125,-0.059375
-4.632000e-05,1.38047,1.41406,-0.0596875
-4.631000e-05,1.38375,1.41531,-0.058125
-4.630000e-05,1.38125,1.41141,-0.0596875
-4.629000e-05,1.38391,1.41219,-0.0582812
-4.628000e-05,1.38578,1.41641,-0.0560937
-4.627000e-05,1.37938,1.41437,-0.0595313
-4.626000e-05,1.38281,1.41234,-0.059375
-4.625000e-05,1.38453,1.41406,-0.059375
-4.624000e-05,1.38,1.41266,-0.0598438
-4.623000e-05,1.38125,1.415,-0.0598438
-4.622000e-05,1.38703,1.4175,-0.05625
-4.621000e-05,1.38187,1.40938,-0.0590625
-4.620000e-05,1.38312,1.41531,-0.0590625
-4.619000e-05,1.38359,1.41031,-0.0590625
-4.618000e-05,1.38531,1.41469,-0.05875
-4.617000e-05,1.38312,1.41594,-0.0589063
-4.616000e-05,1.38312,1.41406,-0.058125
-4.615000e-05,1.38406,1.41547,-0.0573437
-4.614000e-05,1.38047,1.41484,-0.0596875
-4.613000e-05,1.38531,1.41875,-0.0589063
-4.612000e-05,1.38172,1.41219,-0.0598438
-4.611000e-05,1.38531,1.41484,-0.0579687
-4.610000e-05,1.38297,1.41563,-0.0601563
-4.609000e-05,1.38281,1.41281,-0.0596875
-4.608000e-05,1.38,1.41641,-0.0604688
-4.607000e-05,1.38312,1.41422,-0.06
-4.606000e-05,1.38109,1.41281,-0.0595313
-4.605000e-05,1.38187,1.41359,-0.0598438
-4.604000e-05,1.38328,1.41953,-0.0589063
-4.603000e-05,1.3825,1.41719,-0.0584375
-4.602000e-05,1.38266,1.41328,-0.058125
-4.601000e-05,1.38172,1.4125,-0.0595313
-4.600000e-05,1.38141,1.41422,-0.06
-4.599000e-05,1.38391,1.41594,-0.0585938
-4.598000e-05,1.38125,1.40922,-0.0595313
-4.597000e-05,1.38281,1.41203,-0.0585938
-4.596000e-05,1.38453,1.41578,-0.0579687
-4.595000e-05,1.38125,1.41187,-0.0596875
-4.594000e-05,1.3825,1.41281,-0.0590625
-4.593000e-05,1.38406,1.41609,-0.0596875
-4.592000e-05,1.38156,1.41172,-0.0598438
-4.591000e-05,1.38109,1.41609,-0.0596875
-4.590000e-05,1.38516,1.41781,-0.0557813
-4.589000e-05,1.38266,1.40953,-0.0585938
-4.588000e-05,1.38375,1.41281,-0.0596875
-4.587000e-05,1.38375,1.40938,-0.059375
-4.586000e-05,1.38281,1.41297,-0.059375
-4.585000e-05,1.38344,1.41766,-0.0598438
-4.584000e-05,1.38344,1.41344,-0.058125
-4.583000e-05,1.38484,1.41672,-0.05875
-4.582000e-05,1.38203,1.41125,-0.0603125
-4.581000e-05,1.38469,1.41531,-0.0579687
-4.580000e-05,1.38172,1.41094,-0.060625
-4.579000e-05,1.38531,1.41594,-0.059375
-4.578000e-05,1.38125,1.41688,-0.0598438
-4.577000e-05,1.38281,1.41219,-0.0595313
-4.576000e-05,1.38016,1.41891,-0.0603125
-4.575000e-05,1.38281,1.4125,-0.0595313
-4.574000e-05,1.38172,1.41078,-0.0598438
-4.573000e-05,1.38156,1.41156,-0.0598438
-4.572000e-05,1.38656,1.42125,-0.0584375
-4.571000e-05,1.38234,1.41469,-0.0582812
-4.570000e-05,1.38297,1.41422,-0.0576562
-4.569000e-05,1.38203,1.41672,-0.0590625
-4.568000e-05,1.38219,1.41328,-0.0601563
-4.567000e-05,1.38234,1.41406,-0.0579687
-4.566000e-05,1.38187,1.41094,-0.0595313
-4.565000e-05,1.38328,1.41172,-0.0582812
-4.564000e-05,1.38578,1.41453,-0.0564062
-4.563000e-05,1.38156,1.41391,-0.0598438
-4.562000e-05,1.38375,1.41344,-0.0590625
-4.561000e-05,1.38406,1.415,-0.0589063
-4.560000e-05,1.38078,1.41234,-0.060625
-4.559000e-05,1.38047,1.41391,-0.0596875
-4.558000e-05,1.38547,1.41922,-0.0584375
-4.557000e-05,1.38375,1.40891,-0.0595313
-4.556000e-05,1.38141,1.41312,-0.0603125
-4.555000e-05,1.38312,1.41,-0.059375
-4.554000e-05,1.38406,1.41125,-0.0590625
-4.553000e-05,1.38531,1.41672,-0.06
-4.552000e-05,1.38391,1.41359,-0.058125
-4.551000e-05,1.38578,1.41484,-0.058125
-4.550000e-05,1.38203,1.41453,-0.059375
-4.549000e-05,1.385,1.41859,-0.0579687
-4.548000e-05,1.38062,1.41281,-0.0610938
-4.547000e-05,1.38641,1.415,-0.0576562
-4.546000e-05,1.38156,1.41594,-0.0595313
-4.545000e-05,1.38297,1.41406,-0.0589063
-4.544000e-05,1.37953,1.41688,-0.0603125
-4.543000e-05,1.38328,1.41156,-0.06
-4.542000e-05,1.38047,1.40969,-0.0595313
-4.541000e-05,1.38234,1.41187,-0.0598438
-4.540000e-05,1.38484,1.41859,-0.0590625
-4.539000e-05,1.38328,1.41516,-0.0585938
-4.538000e-05,1.38375,1.41469,-0.05875
-4.537000e-05,1.38266,1.4125,-0.06
-4.536000e-05,1.38156,1.41422,-0.06
-4.535000e-05,1.38438,1.41516,-0.0578125
-4.534000e-05,1.38125,1.40906,-0.06
-4.533000e-05,1.38328,1.41078,-0.05875
-4.532000e-05,1.385,1.415,-0.05625
-4.531000e-05,1.38172,1.41531,-0.0604688
-4.530000e-05,1.3825,1.4125,-0.0592188
-4.529000e-05,1.38391,1.41719,-0.0595313
-4.528000e-05,1.38141,1.41297,-0.0595313
-4.527000e-05,1.38141,1.41312,-0.0601563
-4.526000e-05,1.38547,1.41891,-0.0573437
-4.525000e-05,1.38297,1.40844,-0.0595313
-4.524000e-05,1.38234,1.41344,-0.0596875
-4.523000e-05,1.38187,1.4125,-0.0596875
-4.522000e-05,1.38312,1.41359,-0.0585938
-4.521000e-05,1.3825,1.41719,-0.0575
-4.520000e-05,1.38281,1.41297,-0.05875
-4.519000e-05,1.38469,1.41453,-0.0575
-4.518000e-05,1.38203,1.415,-0.0596875
-4.517000e-05,1.38531,1.41859,-0.0575
-4.516000e-05,1.38078,1.41266,-0.06
-4.515000e-05,1.38438,1.41703,-0.0592188
-4.514000e-05,1.38156,1.41609,-0.06
-4.513000e-05,1.38375,1.41469,-0.059375
-4.512000e-05,1.38078,1.41547,-0.06
