measurements/bre_slope_450fF/tek0005ALL.csv

Model,MDO3034
Firmware Version,1.08

Waveform Type,ANALOG,,
Point Format,Y,,
Horizontal Units,s,,
Horizontal Scale,2e-07,,
Horizontal Delay,0,,
Sample Interval,4e-10,,
Record Length,10000,,
Gating,0.0% to 100.0%,,
Probe Attenuation,10,10,1
Vertical Units,V,V,V
Vertical Offset,0,0,0
Vertical Scale,1,1,1
Vertical Position,0,-0.02,0
,,,
,,,
,,,
Label,,M2029,M2030
TIME,CH1,CH3,CH4
-2.000000e-06,1.37672,1.49203,-0.0248438
-1.999600e-06,1.37656,1.49297,-0.02625
-1.999200e-06,1.37844,1.49531,-0.0265625
-1.998800e-06,1.38031,1.49469,-0.0267187
-1.998400e-06,1.37844,1.49547,-0.0240625
-1.998000e-06,1.37734,1.49547,-0.0229687
-1.997600e-06,1.37828,1.49422,-0.0245313
-1.997200e-06,1.37531,1.49109,-0.025625
-1.996800e-06,1.37797,1.49297,-0.02625
-1.996400e-06,1.37906,1.49078,-0.0245313
-1.996000e-06,1.37922,1.495,-0.0242188
-1.995600e-06,1.37953,1.49141,-0.0234375
-1.995200e-06,1.37859,1.49047,-0.02375
-1.994800e-06,1.37813,1.49219,-0.02625
-1.994400e-06,1.37844,1.48906,-0.0279688
-1.994000e-06,1.37719,1.48984,-0.0239063
-1.993600e-06,1.37516,1.49375,-0.0276563
-1.993200e-06,1.37688,1.49328,-0.026875
-1.992800e-06,1.37703,1.495,-0.0254688
-1.992400e-06,1.37797,1.49594,-0.023125
-1.992000e-06,1.37984,1.49125,-0.0254688
-1.991600e-06,1.37547,1.49453,-0.0248438
-1.991200e-06,1.37781,1.49391,-0.0246875
-1.990800e-06,1.37609,1.49203,-0.0257813
-1.990400e-06,1.37578,1.49203,-0.0267187
-1.990000e-06,1.38187,1.49328,-0.0235938
-1.989600e-06,1.37719,1.49281,-0.0265625
-1.989200e-06,1.37609,1.49125,-0.0284375
-1.988800e-06,1.375,1.4925,-0.0229687
-1.988400e-06,1.37516,1.49125,-0.0235938
-1.988000e-06,1.38031,1.49188,-0.0242188
-1.987600e-06,1.3775,1.49266,-0.0253125
-1.987200e-06,1.37828,1.49594,-0.02625
-1.986800e-06,1.37516,1.49328,-0.0260937
-1.986400e-06,1.38,1.49484,-0.0245313
-1.986000e-06,1.375,1.49391,-0.0234375
-1.985600e-06,1.37906,1.49453,-0.0235938
-1.985200e-06,1.37938,1.49156,-0.02375
-1.984800e-06,1.38031,1.49484,-0.0234375
-1.984400e-06,1.37938,1.49406,-0.0259375
-1.984000e-06,1.37484,1.49375,-0.025
-1.983600e-06,1.37609,1.49172,-0.0285938
-1.983200e-06,1.37938,1.49484,-0.0257813
-1.982800e-06,1.38062,1.4925,-0.0229687
-1.982400e-06,1.3775,1.4925,-0.02625
-1.982000e-06,1.37625,1.49203,-0.0253125
-1.981600e-06,1.37641,1.49281,-0.0253125
-1.981200e-06,1.37766,1.49031,-0.0276563
-1.980800e-06,1.37453,1.49172,-0.0257813
-1.980400e-06,1.37578,1.49141,-0.0253125
-1.980000e-06,1.37781,1.49438,-0.0257813
-1.979600e-06,1.38031,1.49703,-0.0240625
-1.979200e-06,1.37656,1.49359,-0.0279688
-1.978800e-06,1.37359,1.49313,-0.0248438
-1.978400e-06,1.37578,1.49328,-0.0260937
-1.978000e-06,1.37766,1.49469,-0.0270312
-1.977600e-06,1.37688,1.49203,-0.028125
-1.977200e-06,1.38062,1.49781,-0.0228125
-1.976800e-06,1.37734,1.49641,-0.0259375
-1.976400e-06,1.37563,1.49141,-0.0267187
-1.976000e-06,1.37734,1.49188,-0.0251563
-1.975600e-06,1.37672,1.49719,-0.0264062
-1.975200e-06,1.37703,1.4925,-0.026875
-1.974800e-06,1.37844,1.49297,-0.025625
-1.974400e-06,1.37719,1.49328,-0.0232812
-1.974000e-06,1.37984,1.4925,-0.0235938
-1.973600e-06,1.37688,1.49406,-0.0240625
-1.973200e-06,1.3775,1.49,-0.0253125
-1.972800e-06,1.37688,1.49375,-0.0245313
-1.972400e-06,1.37891,1.49094,-0.0285938
-1.972000e-06,1.37688,1.49578,-0.021875
-1.971600e-06,1.37734,1.49344,-0.0265625
-1.971200e-06,1.37953,1.49281,-0.024375
-1.970800e-06,1.37797,1.49156,-0.028125
-1.970400e-06,1.3775,1.49266,-0.0253125
-1.970000e-06,1.37938,1.49359,-0.0248438
-1.969600e-06,1.37813,1.49328,-0.026875
-1.969200e-06,1.37891,1.49344,-0.0254688
-1.968800e-06,1.37734,1.49281,-0.0271875
-1.968400e-06,1.37828,1.4925,-0.026875
-1.968000e-06,1.37656,1.49391,-0.0260937
-1.967600e-06,1.37859,1.49328,-0.0279688
-1.967200e-06,1.37781,1.49516,-0.0245313
-1.966800e-06,1.38016,1.49531,-0.0254688
-1.966400e-06,1.38,1.49281,-0.0273438
-1.966000e-06,1.37797,1.49313,-0.0271875
-1.965600e-06,1.37969,1.49125,-0.0259375
-1.965200e-06,1.37594,1.49391,-0.02625
-1.964800e-06,1.37641,1.49,-0.0235938
-1.964400e-06,1.37922,1.49422,-0.0253125
-1.964000e-06,1.37609,1.49281,-0.0264062
-1.963600e-06,1.37703,1.49266,-0.0246875
-1.963200e-06,1.37781,1.49484,-0.0240625
-1.962800e-06,1.37531,1.49203,-0.0275
-1.962400e-06,1.37719,1.49203,-0.0246875
-1.962000e-06,1.38031,1.49219,-0.0221875
-1.961600e-06,1.37469,1.49219,-0.02375
-1.961200e-06,1.37672,1.49359,-0.025625
-1.960800e-06,1.37656,1.49375,-0.02375
-1.960400e-06,1.37813,1.495,-0.0259375
-1.960000e-06,1.3775,1.49391,-0.0264062
-1.959600e-06,1.37828,1.49203,-0.0235938
-1.959200e-06,1.37656,1.49313,-0.0234375
-1.958800e-06,1.38016,1.49297,-0.025
-1.958400e-06,1.37672,1.49203,-0.0229687
-1.958000e-06,1.37969,1.49109,-0.0248438
-1.957600e-06,1.37703,1.49578,-0.0239063
-1.957200e-06,1.37859,1.49234,-0.0232812
-1.956800e-06,1.37938,1.49359,-0.02375
-1.956400e-06,1.37875,1.49203,-0.0251563
-1.956000e-06,1.37906,1.49578,-0.0259375
-1.955600e-06,1.37875,1.49063,-0.0285938
-1.955200e-06,1.3775,1.49328,-0.0267187
-1.954800e-06,1.37453,1.49172,-0.024375
-1.954400e-06,1.37719,1.49172,-0.025
-1.954000e-06,1.38094,1.49391,-0.0246875
-1.953600e-06,1.37547,1.49125,-0.025625
-1.953200e-06,1.37656,1.49203,-0.0267187
-1.952800e-06,1.37844,1.49516,-0.0253125
-1.952400e-06,1.37453,1.49359,-0.0276563
-1.952000e-06,1.37594,1.49125,-0.0264062
-1.951600e-06,1.37875,1.49375,-0.0276563
-1.951200e-06,1.37766,1.49453,-0.0271875
-1.950800e-06,1.37875,1.49391,-0.0265625
-1.950400e-06,1.37641,1.49406,-0.025
-1.950000e-06,1.37938,1.49516,-0.025
-1.949600e-06,1.37984,1.49188,-0.0234375
-1.949200e-06,1.38047,1.49281,-0.025625
-1.948800e-06,1.37594,1.49359,-0.025625
-1.948400e-06,1.37781,1.49297,-0.0251563
-1.948000e-06,1.38141,1.4925,-0.0239063
-1.947600e-06,1.37875,1.49359,-0.0285938
-1.947200e-06,1.37719,1.49359,-0.0229687
-1.946800e-06,1.37703,1.49391,-0.0267187
-1.946400e-06,1.37844,1.49125,-0.0257813
-1.946000e-06,1.37922,1.49281,-0.0265625
-1.945600e-06,1.37938,1.48984,-0.0259375
-1.945200e-06,1.37859,1.49078,-0.0270312
-1.944800e-06,1.3775,1.49469,-0.0239063
-1.944400e-06,1.38062,1.49266,-0.02375
-1.944000e-06,1.37969,1.49438,-0.0273438
-1.943600e-06,1.37828,1.49672,-0.0245313
-1.943200e-06,1.37922,1.49297,-0.026875
-1.942800e-06,1.37703,1.49016,-0.0242188
-1.942400e-06,1.37766,1.49172,-0.0226562
-1.942000e-06,1.37766,1.49047,-0.0251563
-1.941600e-06,1.37719,1.49219,-0.0260937
-1.941200e-06,1.38047,1.49656,-0.0228125
-1.940800e-06,1.37594,1.49328,-0.0246875
-1.940400e-06,1.37922,1.49391,-0.0248438
-1.940000e-06,1.38156,1.49344,-0.0240625
-1.939600e-06,1.37453,1.49328,-0.0271875
-1.939200e-06,1.37813,1.49328,-0.0245313
-1.938800e-06,1.38047,1.49578,-0.0259375
-1.938400e-06,1.37438,1.49234,-0.0251563
-1.938000e-06,1.37578,1.49016,-0.0265625
-1.937600e-06,1.37578,1.49234,-0.0248438
-1.937200e-06,1.37703,1.49125,-0.0246875
-1.936800e-06,1.37734,1.49141,-0.0245313
-1.936400e-06,1.37953,1.49422,-0.0239063
-1.936000e-06,1.37813,1.49578,-0.0264062
-1.935600e-06,1.37578,1.49484,-0.0253125
-1.935200e-06,1.37906,1.49453,-0.0253125
-1.934800e-06,1.37641,1.49047,-0.0267187
-1.934400e-06,1.37703,1.49734,-0.0254688
-1.934000e-06,1.37953,1.49328,-0.025625
-1.933600e-06,1.375,1.4925,-0.025625
-1.933200e-06,1.37891,1.49172,-0.0278125
-1.932800e-06,1.37891,1.49438,-0.0248438
-1.932400e-06,1.375,1.49406,-0.028125
-1.932000e-06,1.37609,1.49344,-0.0228125
-1.931600e-06,1.37828,1.49813,-0.0273438
-1.931200e-06,1.37891,1.49484,-0.0245313
-1.930800e-06,1.37922,1.49453,-0.0265625
-1.930400e-06,1.37781,1.49,-0.02625
-1.930000e-06,1.37813,1.49188,-0.0267187
-1.929600e-06,1.37375,1.49438,-0.026875
-1.929200e-06,1.37734,1.48891,-0.0278125
-1.928800e-06,1.37703,1.49266,-0.0253125
-1.928400e-06,1.37828,1.49469,-0.0235938
-1.928000e-06,1.37969,1.48953,-0.0270312
-1.927600e-06,1.37672,1.49141,-0.025625
-1.927200e-06,1.37813,1.49594,-0.02375
-1.926800e-06,1.37703,1.495,-0.0282813
-1.926400e-06,1.37766,1.4925,-0.0260937
-1.926000e-06,1.38141,1.49391,-0.0275
-1.925600e-06,1.37625,1.49281,-0.0267187
-1.925200e-06,1.37938,1.49266,-0.0267187
-1.924800e-06,1.37578,1.48969,-0.0259375
-1.924400e-06,1.3775,1.49328,-0.0240625
-1.924000e-06,1.37828,1.49406,-0.0235938
-1.923600e-06,1.37828,1.49328,-0.0278125
-1.923200e-06,1.37828,1.49438,-0.023125
-1.922800e-06,1.37734,1.49063,-0.0276563
-1.922400e-06,1.38047,1.49359,-0.0245313
-1.922000e-06,1.37844,1.49375,-0.0235938
-1.921600e-06,1.37781,1.49625,-0.0239063
-1.921200e-06,1.37969,1.4925,-0.0220312
-1.920800e-06,1.37781,1.49453,-0.0259375
-1.920400e-06,1.37859,1.49063,-0.0265625
-1.920000e-06,1.37766,1.49047,-0.0254688
-1.919600e-06,1.37766,1.49141,-0.0264062
-1.919200e-06,1.37844,1.49266,-0.0248438
-1.918800e-06,1.38109,1.49016,-0.024375
-1.918400e-06,1.37875,1.49578,-0.0257813
-1.918000e-06,1.37422,1.49297,-0.0248438
-1.917600e-06,1.37391,1.49297,-0.0251563
-1.917200e-06,1.37563,1.49297,-0.0246875
-1.916800e-06,1.37578,1.49188,-0.026875
-1.916400e-06,1.37547,1.49266,-0.0271875
-1.916000e-06,1.37641,1.49172,-0.0259375
-1.915600e-06,1.38062,1.49422,-0.0246875
-1.915200e-06,1.37922,1.49078,-0.0260937
-1.914800e-06,1.37406,1.49344,-0.0235938
-1.914400e-06,1.37703,1.49531,-0.0245313
-1.914000e-06,1.37719,1.49188,-0.0289063
-1.913600e-06,1.37766,1.49109,-0.0254688
-1.913200e-06,1.37984,1.49453,-0.0214063
-1.912800e-06,1.37625,1.49219,-0.0273438
-1.912400e-06,1.37688,1.49281,-0.0254688
-1.912000e-06,1.37781,1.49609,-0.0248438
-1.911600e-06,1.37828,1.49438,-0.025625
-1.911200e-06,1.37828,1.49234,-0.028125
-1.910800e-06,1.37813,1.48922,-0.0253125
-1.910400e-06,1.37813,1.49141,-0.0260937
-1.910000e-06,1.37688,1.49047,-0.0254688
-1.909600e-06,1.37563,1.49594,-0.0253125
-1.909200e-06,1.37563,1.49531,-0.026875
-1.908800e-06,1.37766,1.49609,-0.0245313
-1.908400e-06,1.38094,1.49141,-0.025
-1.908000e-06,1.37797,1.49359,-0.025
-1.907600e-06,1.37766,1.49391,-0.0259375
-1.907200e-06,1.37703,1.49203,-0.0254688
-1.906800e-06,1.37563,1.49203,-0.02625
-1.906400e-06,1.37766,1.49422,-0.0245313
-1.906000e-06,1.38016,1.4975,-0.0246875
-1.905600e-06,1.37984,1.49562,-0.0264062
-1.905200e-06,1.37813,1.49328,-0.0235938
-1.904800e-06,1.37484,1.49375,-0.02375
-1.904400e-06,1.37875,1.49328,-0.0246875
-1.904000e-06,1.37875,1.49281,-0.0239063
-1.903600e-06,1.37438,1.49297,-0.0271875
-1.903200e-06,1.37625,1.49313,-0.0240625
-1.902800e-06,1.37563,1.49531,-0.020625
-1.902400e-06,1.37219,1.49109,-0.0248438
-1.902000e-06,1.37906,1.49234,-0.0235938
-1.901600e-06,1.37766,1.49453,-0.025
-1.901200e-06,1.37516,1.4925,-0.025625
-1.900800e-06,1.37938,1.49172,-0.02625
-1.900400e-06,1.38297,1.49547,-0.0232812
-1.900000e-06,1.37516,1.49422,-0.0257813
-1.899600e-06,1.37609,1.49156,-0.02375
-1.899200e-06,1.37547,1.49562,-0.0246875
-1.898800e-06,1.37828,1.49281,-0.0251563
-1.898400e-06,1.37891,1.49469,-0.0228125
-1.898000e-06,1.37781,1.49172,-0.026875
-1.897600e-06,1.37859,1.49578,-0.025625
-1.897200e-06,1.37547,1.49188,-0.0278125
-1.896800e-06,1.38047,1.49531,-0.0221875
-1.896400e-06,1.37547,1.49531,-0.0245313
-1.896000e-06,1.37875,1.49672,-0.0220312
-1.895600e-06,1.37797,1.49109,-0.0251563
-1.895200e-06,1.37656,1.49484,-0.0248438
-1.894800e-06,1.37797,1.49078,-0.0282813
-1.894400e-06,1.37641,1.49188,-0.025
-1.894000e-06,1.37641,1.49125,-0.0240625
-1.893600e-06,1.37563,1.49406,-0.0251563
-1.893200e-06,1.37891,1.4925,-0.0239063
-1.892800e-06,1.37672,1.49328,-0.0253125
-1.892400e-06,1.37766,1.49578,-0.0254688
-1.892000e-06,1.37781,1.4925,-0.0253125
-1.891600e-06,1.37453,1.49344,-0.0264062
-1.891200e-06,1.3775,1.49406,-0.0240625
-1.890800e-06,1.37578,1.49141,-0.0254688
-1.890400e-06,1.37703,1.49328,-0.0229687
-1.890000e-06,1.37844,1.49609,-0.0210938
-1.889600e-06,1.37609,1.49266,-0.025625
-1.889200e-06,1.37859,1.49469,-0.0273438
-1.888800e-06,1.37891,1.49125,-0.0275
-1.888400e-06,1.37625,1.4925,-0.0267187
-1.888000e-06,1.37672,1.49391,-0.0276563
-1.887600e-06,1.38047,1.4975,-0.025
-1.887200e-06,1.37563,1.49359,-0.0260937
-1.886800e-06,1.3775,1.495,-0.0254688
-1.886400e-06,1.37578,1.49156,-0.0246875
-1.886000e-06,1.37766,1.49391,-0.0248438
-1.885600e-06,1.38031,1.49359,-0.0229687
-1.885200e-06,1.37781,1.48938,-0.0259375
-1.884800e-06,1.37703,1.49359,-0.0242188
-1.884400e-06,1.37641,1.48953,-0.0265625
-1.884000e-06,1.375,1.49313,-0.025
-1.883600e-06,1.37438,1.49328,-0.0267187
-1.883200e-06,1.38078,1.49578,-0.024375
-1.882800e-06,1.37922,1.49016,-0.0228125
-1.882400e-06,1.38016,1.49359,-0.025625
-1.882000e-06,1.37609,1.49562,-0.0271875
-1.881600e-06,1.37859,1.49531,-0.025625
-1.881200e-06,1.37656,1.49297,-0.026875
-1.880800e-06,1.37719,1.49297,-0.0239063
-1.880400e-06,1.3825,1.49375,-0.0225
-1.880000e-06,1.37656,1.49281,-0.0264062
-1.879600e-06,1.37734,1.49438,-0.0253125
-1.879200e-06,1.37891,1.495,-0.0257813
-1.878800e-06,1.37984,1.49125,-0.0259375
-1.878400e-06,1.37969,1.49562,-0.0245313
-1.878000e-06,1.37469,1.49531,-0.0271875
-1.877600e-06,1.37766,1.49516,-0.0235938
-1.877200e-06,1.37953,1.49422,-0.0228125
-1.876800e-06,1.37531,1.49297,-0.025625
-1.876400e-06,1.37563,1.49453,-0.025
-1.876000e-06,1.37797,1.49156,-0.0273438
-1.875600e-06,1.37516,1.49406,-0.0270312
-1.875200e-06,1.37422,1.49281,-0.0279688
-1.874800e-06,1.37813,1.49391,-0.0204688
-1.874400e-06,1.37672,1.49422,-0.0232812
-1.874000e-06,1.37875,1.49469,-0.025625
-1.873600e-06,1.37859,1.4925,-0.025
-1.873200e-06,1.37906,1.495,-0.0253125
-1.872800e-06,1.37969,1.48953,-0.0239063
-1.872400e-06,1.37594,1.49422,-0.026875
-1.872000e-06,1.37656,1.49453,-0.0226562
-1.871600e-06,1.38,1.49266,-0.0259375
-1.871200e-06,1.37672,1.49344,-0.021875
-1.870800e-06,1.37563,1.49328,-0.0254688
-1.870400e-06,1.37875,1.49328,-0.0225
-1.870000e-06,1.37875,1.49266,-0.0228125
-1.869600e-06,1.37969,1.49531,-0.0221875
-1.869200e-06,1.38141,1.49359,-0.0260937
-1.868800e-06,1.37656,1.49484,-0.025
-1.868400e-06,1.37563,1.49453,-0.025
-1.868000e-06,1.37875,1.49672,-0.023125
-1.867600e-06,1.38281,1.49297,-0.024375
-1.867200e-06,1.37766,1.49297,-0.02625
-1.866800e-06,1.37828,1.49391,-0.0259375
-1.866400e-06,1.37828,1.49281,-0.0245313
-1.866000e-06,1.37891,1.49344,-0.0271875
-1.865600e-06,1.37719,1.49422,-0.0270312
-1.865200e-06,1.37734,1.49297,-0.026875
-1.864800e-06,1.37734,1.49359,-0.0265625
-1.864400e-06,1.37844,1.49406,-0.0217188
-1.864000e-06,1.37594,1.49219,-0.0260937
-1.863600e-06,1.37844,1.49344,-0.025
-1.863200e-06,1.37844,1.49219,-0.0232812
-1.862800e-06,1.37703,1.49016,-0.0267187
-1.862400e-06,1.37469,1.49141,-0.0257813
-1.862000e-06,1.38094,1.49516,-0.02125
-1.861600e-06,1.37656,1.4925,-0.02625
-1.861200e-06,1.37719,1.4925,-0.025625
-1.860800e-06,1.37797,1.49516,-0.0245313
-1.860400e-06,1.37781,1.49313,-0.0240625
-1.860000e-06,1.38422,1.49172,-0.0240625
-1.859600e-06,1.37766,1.49219,-0.0265625
-1.859200e-06,1.37734,1.49359,-0.0254688
-1.858800e-06,1.37578,1.49,-0.0253125
-1.858400e-06,1.37688,1.49391,-0.0257813
-1.858000e-06,1.37563,1.49297,-0.0242188
-1.857600e-06,1.37906,1.49297,-0.025625
-1.857200e-06,1.37703,1.49031,-0.0257813
-1.856800e-06,1.37906,1.49719,-0.0254688
-1.856400e-06,1.38,1.49297,-0.0259375
-1.856000e-06,1.37703,1.49516,-0.0251563
-1.855600e-06,1.37984,1.49453,-0.0235938
-1.855200e-06,1.37766,1.49391,-0.0239063
-1.854800e-06,1.38016,1.49219,-0.025
-1.854400e-06,1.38,1.49297,-0.0270312
-1.854000e-06,1.37859,1.49078,-0.0275
-1.853600e-06,1.37844,1.4925,-0.0264062
-1.853200e-06,1.37891,1.49141,-0.028125
-1.852800e-06,1.37766,1.49156,-0.0275
-1.852400e-06,1.37641,1.49219,-0.0253125
-1.852000e-06,1.37859,1.49641,-0.02625
-1.851600e-06,1.37859,1.49531,-0.02375
-1.851200e-06,1.37688,1.49172,-0.026875
-1.850800e-06,1.37563,1.49344,-0.024375
-1.850400e-06,1.37906,1.49391,-0.02375
-1.850000e-06,1.37922,1.49141,-0.0273438
-1.849600e-06,1.37766,1.49297,-0.0264062
-1.849200e-06,1.38016,1.49734,-0.0223437
-1.848800e-06,1.37609,1.4925,-0.02625
-1.848400e-06,1.37813,1.49344,-0.023125
-1.848000e-06,1.375,1.4925,-0.0248438
-1.847600e-06,1.37453,1.49406,-0.0253125
-1.847200e-06,1.38,1.49266,-0.0254688
-1.846800e-06,1.37469,1.49219,-0.0276563
-1.846400e-06,1.37781,1.49516,-0.025625
-1.846000e-06,1.37703,1.49031,-0.0273438
-1.845600e-06,1.38016,1.49625,-0.0235938
-1.845200e-06,1.37344,1.49531,-0.0273438
-1.844800e-06,1.37688,1.49625,-0.0235938
-1.844400e-06,1.37828,1.49031,-0.0275
-1.844000e-06,1.37484,1.49375,-0.023125
-1.843600e-06,1.37875,1.49172,-0.026875
-1.843200e-06,1.37594,1.49406,-0.0259375
-1.842800e-06,1.3775,1.49234,-0.025625
-1.842400e-06,1.37578,1.49531,-0.0248438
-1.842000e-06,1.38344,1.49172,-0.0228125
-1.841600e-06,1.37578,1.4925,-0.0251563
-1.841200e-06,1.37797,1.49156,-0.025625
-1.840800e-06,1.37766,1.49313,-0.0242188
-1.840400e-06,1.37688,1.49266,-0.02625
-1.840000e-06,1.38016,1.49422,-0.0240625
-1.839600e-06,1.37578,1.49328,-0.024375
-1.839200e-06,1.37547,1.495,-0.0239063
-1.838800e-06,1.37641,1.49266,-0.0214063
-1.838400e-06,1.37688,1.49094,-0.0275
-1.838000e-06,1.37922,1.49391,-0.02375
-1.837600e-06,1.37859,1.49438,-0.0228125
-1.837200e-06,1.38,1.49266,-0.0246875
-1.836800e-06,1.3725,1.49094,-0.0254688
-1.836400e-06,1.38047,1.49453,-0.0235938
-1.836000e-06,1.37656,1.49156,-0.0257813
-1.835600e-06,1.37969,1.49219,-0.0246875
-1.835200e-06,1.37797,1.49203,-0.025625
-1.834800e-06,1.37672,1.49203,-0.0229687
-1.834400e-06,1.37641,1.495,-0.0245313
-1.834000e-06,1.37609,1.49234,-0.0257813
-1.833600e-06,1.37844,1.49328,-0.02625
-1.833200e-06,1.37703,1.49344,-0.0265625
-1.832800e-06,1.38031,1.49547,-0.0259375
-1.832400e-06,1.37422,1.48891,-0.0253125
-1.832000e-06,1.37781,1.49313,-0.025
-1.831600e-06,1.37703,1.49562,-0.0270312
-1.831200e-06,1.38187,1.49562,-0.0254688
-1.830800e-06,1.37859,1.49234,-0.026875
-1.830400e-06,1.37484,1.49266,-0.0253125
-1.830000e-06,1.37469,1.49422,-0.0267187
-1.829600e-06,1.37766,1.49484,-0.0259375
-1.829200e-06,1.37953,1.495,-0.0209375
-1.828800e-06,1.37516,1.49391,-0.023125
-1.828400e-06,1.37625,1.49141,-0.0242188
-1.828000e-06,1.38,1.49469,-0.0279688
-1.827600e-06,1.37797,1.49297,-0.0279688
-1.827200e-06,1.37594,1.49375,-0.0254688
-1.826800e-06,1.37563,1.49453,-0.025
-1.826400e-06,1.37828,1.495,-0.026875
-1.826000e-06,1.37781,1.49469,-0.024375
-1.825600e-06,1.37688,1.49063,-0.0275
-1.825200e-06,1.37953,1.49438,-0.0253125
-1.824800e-06,1.38031,1.49375,-0.0245313
-1.824400e-06,1.37813,1.49094,-0.0273438
-1.824000e-06,1.37719,1.49344,-0.0254688
-1.823600e-06,1.38,1.49188,-0.0254688
-1.823200e-06,1.37625,1.4925,-0.0278125
-1.822800e-06,1.37844,1.49422,-0.02625
-1.822400e-06,1.37906,1.49344,-0.0273438
-1.822000e-06,1.37828,1.49125,-0.0235938
-1.821600e-06,1.37813,1.48984,-0.0228125
-1.821200e-06,1.37469,1.49141,-0.0260937
-1.820800e-06,1.37625,1.49484,-0.0254688
-1.820400e-06,1.37641,1.49547,-0.0242188
-1.820000e-06,1.38125,1.495,-0.0260937
-1.819600e-06,1.37797,1.48938,-0.02375
-1.819200e-06,1.37656,1.49687,-0.0248438
-1.818800e-06,1.3775,1.49328,-0.0278125
-1.818400e-06,1.37922,1.49328,-0.0239063
-1.818000e-06,1.37938,1.49156,-0.0271875
-1.817600e-06,1.37781,1.48953,-0.0251563
-1.817200e-06,1.37484,1.49203,-0.025625
-1.816800e-06,1.37844,1.49641,-0.025625
-1.816400e-06,1.38312,1.49328,-0.024375
-1.816000e-06,1.37781,1.49719,-0.025
-1.815600e-06,1.37813,1.49313,-0.0254688
-1.815200e-06,1.37703,1.49469,-0.0279688
-1.814800e-06,1.37563,1.49219,-0.0276563
-1.814400e-06,1.38031,1.49141,-0.0248438
-1.814000e-06,1.37672,1.48969,-0.0275
-1.813600e-06,1.37859,1.49516,-0.02625
-1.813200e-06,1.37359,1.49266,-0.0240625
-1.812800e-06,1.37609,1.49203,-0.0267187
-1.812400e-06,1.37578,1.49359,-0.024375
-1.812000e-06,1.37875,1.49547,-0.0235938
-1.811600e-06,1.37484,1.49297,-0.0273438
-1.811200e-06,1.37719,1.49188,-0.0289063
-1.810800e-06,1.38172,1.49344,-0.0260937
-1.810400e-06,1.37766,1.49156,-0.0278125
-1.810000e-06,1.37703,1.49375,-0.0259375
-1.809600e-06,1.37453,1.49422,-0.0289063
-1.809200e-06,1.37563,1.49219,-0.0225
-1.808800e-06,1.37594,1.49469,-0.0271875
-1.808400e-06,1.37813,1.49188,-0.0253125
-1.808000e-06,1.37969,1.49391,-0.0240625
-1.807600e-06,1.37531,1.49016,-0.0267187
-1.807200e-06,1.37766,1.49234,-0.0217188
-1.806800e-06,1.37563,1.49406,-0.0273438
-1.806400e-06,1.37875,1.49359,-0.025
-1.806000e-06,1.38,1.49344,-0.0257813
-1.805600e-06,1.37625,1.49219,-0.02625
