measurements/bre_slope_450fF/tek0001ALL.csv

Model,MDO3034
Firmware Version,1.08

Waveform Type,ANALOG,,
Point Format,Y,,
Horizontal Units,s,,
Horizontal Scale,2e-06,,
Horizontal Delay,0,,
Sample Interval,2e-09,,
Record Length,10000,,
Gating,0.0% to 100.0%,,
Probe Attenuation,10,10,1
Vertical Units,V,V,V
Vertical Offset,0,0,0
Vertical Scale,1,1,1
Vertical Position,0,-0.02,0
,,,
,,,
,,,
Label,,M2029,M2030
TIME,CH1,CH3,CH4
-1.000000e-05,-0.00421875,1.86719,3.2525
-9.998000e-06,-0.0046875,1.86906,3.25625
-9.996000e-06,-0.00421875,1.87047,3.25359
-9.994000e-06,-0.0065625,1.87078,3.25656
-9.992000e-06,-0.0046875,1.86781,3.25563
-9.990000e-06,-0.00421875,1.87016,3.25703
-9.988000e-06,-0.00515625,1.86984,3.25531
-9.986000e-06,-0.0078125,1.87062,3.25156
-9.984000e-06,-0.00640625,1.87,3.255
-9.982000e-06,-0.00703125,1.87031,3.25516
-9.980000e-06,-0.005625,1.86641,3.25422
-9.978000e-06,-0.00765625,1.87031,3.25906
-9.976000e-06,-0.00578125,1.86672,3.25703
-9.974000e-06,-0.0065625,1.86516,3.25484
-9.972000e-06,-0.00546875,1.86828,3.25656
-9.970000e-06,-0.00765625,1.86797,3.25531
-9.968000e-06,-0.00609375,1.86953,3.25391
-9.966000e-06,-0.0059375,1.86969,3.25531
-9.964000e-06,-0.00484375,1.86984,3.25453
-9.962000e-06,-0.00359375,1.86797,3.25578
-9.960000e-06,-0.008125,1.86906,3.25391
-9.958000e-06,-0.005625,1.86609,3.25297
-9.956000e-06,-0.00546875,1.86938,3.25266
-9.954000e-06,-0.0075,1.86828,3.25328
-9.952000e-06,-0.0071875,1.86625,3.25469
-9.950000e-06,-0.00625,1.87047,3.25844
-9.948000e-06,-0.00796875,1.86719,3.25359
-9.946000e-06,-0.00765625,1.86938,3.25625
-9.944000e-06,-0.0059375,1.86797,3.25188
-9.942000e-06,-0.0034375,1.86844,3.25719
-9.940000e-06,-0.008125,1.87125,3.25438
-9.938000e-06,-0.0071875,1.86813,3.25547
-9.936000e-06,-0.005625,1.87141,3.25547
-9.934000e-06,-0.00640625,1.86859,3.25266
-9.932000e-06,-0.0059375,1.86875,3.25609
-9.930000e-06,-0.0065625,1.86922,3.25422
-9.928000e-06,-0.005,1.87062,3.255
-9.926000e-06,-0.008125,1.86875,3.25875
-9.924000e-06,-0.005,1.86891,3.2525
-9.922000e-06,-0.0065625,1.87031,3.25266
-9.920000e-06,-0.00578125,1.86906,3.25375
-9.918000e-06,-0.0075,1.86484,3.25641
-9.916000e-06,-0.00578125,1.86938,3.25797
-9.914000e-06,-0.00625,1.87297,3.25859
-9.912000e-06,-0.00734375,1.86625,3.25453
-9.910000e-06,-0.00671875,1.86609,3.25406
-9.908000e-06,-0.00703125,1.86875,3.25266
-9.906000e-06,-0.00625,1.86859,3.25438
-9.904000e-06,-0.00640625,1.87031,3.25625
-9.902000e-06,-0.00796875,1.86922,3.25563
-9.900000e-06,-0.00609375,1.86906,3.25672
-9.898000e-06,-0.00609375,1.86859,3.25797
-9.896000e-06,-0.00828125,1.86969,3.25391
-9.894000e-06,-0.008125,1.87016,3.25797
-9.892000e-06,-0.006875,1.86859,3.2575
-9.890000e-06,-0.00734375,1.86828,3.255
-9.888000e-06,-0.00703125,1.87031,3.25609
-9.886000e-06,-0.00515625,1.86969,3.25687
-9.884000e-06,-0.00734375,1.87031,3.25219
-9.882000e-06,-0.0078125,1.86875,3.25703
-9.880000e-06,-0.0075,1.86984,3.25234
-9.878000e-06,-0.00515625,1.86906,3.25531
-9.876000e-06,-0.005625,1.87187,3.25813
-9.874000e-06,-0.0071875,1.86656,3.25719
-9.872000e-06,-0.00609375,1.86969,3.25828
-9.870000e-06,-0.00484375,1.87047,3.25547
-9.868000e-06,-0.00515625,1.87156,3.25469
-9.866000e-06,-0.00671875,1.86828,3.25734
-9.864000e-06,-0.0053125,1.86578,3.25766
-9.862000e-06,-0.004375,1.86938,3.25766
-9.860000e-06,-0.00484375,1.86938,3.25687
-9.858000e-06,-0.00703125,1.86922,3.25172
-9.856000e-06,-0.0059375,1.86578,3.25484
-9.854000e-06,-0.00703125,1.8725,3.25375
-9.852000e-06,-0.00578125,1.87187,3.25891
-9.850000e-06,-0.0078125,1.86938,3.26172
-9.848000e-06,-0.00625,1.87109,3.25578
-9.846000e-06,-0.006875,1.865,3.25703
-9.844000e-06,-0.00671875,1.87203,3.25406
-9.842000e-06,-0.00828125,1.87156,3.25625
-9.840000e-06,-0.00734375,1.87109,3.25344
-9.838000e-06,-0.00765625,1.86813,3.25578
-9.836000e-06,-0.00546875,1.87203,3.25422
-9.834000e-06,-0.00484375,1.86797,3.25656
-9.832000e-06,-0.00859375,1.86984,3.25844
-9.830000e-06,-0.00703125,1.87094,3.25687
-9.828000e-06,-0.006875,1.86906,3.25953
-9.826000e-06,-0.00796875,1.87125,3.25156
-9.824000e-06,-0.00796875,1.86922,3.25469
-9.822000e-06,-0.00453125,1.87031,3.25844
-9.820000e-06,-0.0075,1.86766,3.25484
-9.818000e-06,-0.00703125,1.87109,3.25078
-9.816000e-06,-0.00625,1.87172,3.25188
-9.814000e-06,-0.00546875,1.86703,3.2575
-9.812000e-06,-0.00484375,1.87187,3.25766
-9.810000e-06,-0.0065625,1.86984,3.25344
-9.808000e-06,-0.00625,1.87047,3.25703
-9.806000e-06,-0.00578125,1.86906,3.25422
-9.804000e-06,-0.0059375,1.87406,3.25547
-9.802000e-06,-0.00609375,1.87016,3.25359
-9.800000e-06,-0.004375,1.87,3.255
-9.798000e-06,-0.0046875,1.87031,3.25609
-9.796000e-06,-0.0059375,1.86422,3.25547
-9.794000e-06,-0.0059375,1.87016,3.25313
-9.792000e-06,-0.0065625,1.86859,3.25687
-9.790000e-06,-0.006875,1.86984,3.25484
-9.788000e-06,-0.00578125,1.87062,3.25609
-9.786000e-06,-0.00671875,1.86906,3.25719
-9.784000e-06,-0.00609375,1.87,3.25609
-9.782000e-06,-0.00609375,1.87187,3.25078
-9.780000e-06,-0.00859375,1.87141,3.25984
-9.778000e-06,-0.0059375,1.87156,3.25313
-9.776000e-06,-0.00703125,1.86859,3.25281
-9.774000e-06,-0.00671875,1.86703,3.25516
-9.772000e-06,-0.00640625,1.86656,3.25594
-9.770000e-06,-0.00453125,1.86859,3.25719
-9.768000e-06,-0.0075,1.86953,3.25422
-9.766000e-06,-0.005625,1.86969,3.25391
-9.764000e-06,-0.00546875,1.87109,3.25516
-9.762000e-06,-0.00890625,1.86969,3.25641
-9.760000e-06,-0.0075,1.87125,3.25516
-9.758000e-06,-0.005,1.87391,3.25609
-9.756000e-06,-0.0059375,1.86734,3.25172
-9.754000e-06,-0.00734375,1.87172,3.25547
-9.752000e-06,-0.00625,1.86938,3.25578
-9.750000e-06,-0.0053125,1.87219,3.25406
-9.748000e-06,-0.00453125,1.87313,3.25391
-9.746000e-06,-0.00609375,1.87344,3.24797
-9.744000e-06,-0.00578125,1.87125,3.25531
-9.742000e-06,-0.0065625,1.86953,3.25547
-9.740000e-06,-0.005625,1.86828,3.25703
-9.738000e-06,-0.0065625,1.86797,3.25531
-9.736000e-06,-0.00625,1.87297,3.25625
-9.734000e-06,-0.005625,1.87094,3.25859
-9.732000e-06,-0.005625,1.86656,3.25438
-9.730000e-06,-0.00765625,1.86938,3.25125
-9.728000e-06,-0.0053125,1.86828,3.25359
-9.726000e-06,-0.005625,1.87125,3.25656
-9.724000e-06,-0.00640625,1.86938,3.255
-9.722000e-06,-0.00359375,1.87234,3.25875
-9.720000e-06,-0.00515625,1.87062,3.25078
-9.718000e-06,-0.00765625,1.86594,3.25516
-9.716000e-06,-0.00828125,1.86828,3.25156
-9.714000e-06,-0.00625,1.86781,3.25375
-9.712000e-06,-0.00609375,1.86797,3.25203
-9.710000e-06,-0.0078125,1.86906,3.25375
-9.708000e-06,-0.00640625,1.87,3.25641
-9.706000e-06,-0.004375,1.86844,3.26125
-9.704000e-06,-0.0084375,1.87062,3.25188
-9.702000e-06,-0.00703125,1.86656,3.25484
-9.700000e-06,-0.00484375,1.86938,3.25328
-9.698000e-06,-0.00796875,1.87109,3.25531
-9.696000e-06,-0.00765625,1.86766,3.25375
-9.694000e-06,-0.00421875,1.87,3.25813
-9.692000e-06,-0.006875,1.86938,3.25687
-9.690000e-06,-0.0071875,1.86781,3.25703
-9.688000e-06,-0.00671875,1.86906,3.25422
-9.686000e-06,-0.00453125,1.87109,3.25672
-9.684000e-06,-0.005,1.86953,3.25578
-9.682000e-06,-0.005625,1.86797,3.25828
-9.680000e-06,-0.00578125,1.87281,3.255
-9.678000e-06,-0.0053125,1.87,3.25484
-9.676000e-06,-0.005625,1.87109,3.25391
-9.674000e-06,-0.0075,1.87078,3.25578
-9.672000e-06,-0.00640625,1.86891,3.25391
-9.670000e-06,-0.00765625,1.86953,3.25859
-9.668000e-06,-0.005625,1.86984,3.25734
-9.666000e-06,-0.0075,1.86875,3.25766
-9.664000e-06,-0.00546875,1.86828,3.255
-9.662000e-06,-0.00640625,1.86938,3.25344
-9.660000e-06,-0.0071875,1.86797,3.25547
-9.658000e-06,-0.005,1.87344,3.25797
-9.656000e-06,-0.00640625,1.87125,3.25797
-9.654000e-06,-0.00671875,1.87078,3.25672
-9.652000e-06,-0.00703125,1.87031,3.25625
-9.650000e-06,-0.0084375,1.87031,3.25375
-9.648000e-06,-0.00765625,1.87016,3.25734
-9.646000e-06,-0.00671875,1.87172,3.2525
-9.644000e-06,-0.00453125,1.87313,3.25703
-9.642000e-06,-0.00484375,1.87219,3.25719
-9.640000e-06,-0.0084375,1.86984,3.25453
-9.638000e-06,-0.00625,1.86672,3.25609
-9.636000e-06,-0.00625,1.87266,3.2575
-9.634000e-06,-0.00671875,1.86875,3.25344
-9.632000e-06,-0.00796875,1.86891,3.25656
-9.630000e-06,-0.005,1.87172,3.25828
-9.628000e-06,-0.00625,1.8675,3.25563
-9.626000e-06,-0.00453125,1.87016,3.25656
-9.624000e-06,-0.006875,1.87172,3.25328
-9.622000e-06,-0.0059375,1.87031,3.25687
-9.620000e-06,-0.0059375,1.87203,3.25672
-9.618000e-06,-0.00671875,1.87109,3.25266
-9.616000e-06,-0.005625,1.87297,3.25563
-9.614000e-06,-0.00703125,1.87344,3.25313
-9.612000e-06,-0.00625,1.87031,3.25687
-9.610000e-06,-0.00671875,1.87062,3.25234
-9.608000e-06,-0.00453125,1.87141,3.25813
-9.606000e-06,-0.0034375,1.87203,3.25359
-9.604000e-06,-0.00546875,1.86906,3.25672
-9.602000e-06,-0.0071875,1.86984,3.25281
-9.600000e-06,-0.00640625,1.87234,3.25469
-9.598000e-06,-0.0059375,1.86891,3.25375
-9.596000e-06,-0.00625,1.87031,3.25516
-9.594000e-06,-0.00703125,1.86875,3.25766
-9.592000e-06,-0.00625,1.87125,3.25328
-9.590000e-06,-0.00734375,1.87062,3.25438
-9.588000e-06,-0.00640625,1.87281,3.25594
-9.586000e-06,-0.00578125,1.87031,3.25203
-9.584000e-06,-0.00703125,1.8725,3.25406
-9.582000e-06,-0.00765625,1.87125,3.25313
-9.580000e-06,-0.00734375,1.86906,3.25547
-9.578000e-06,-0.00375,1.87203,3.25922
-9.576000e-06,-0.0084375,1.87,3.25422
-9.574000e-06,-0.00578125,1.87078,3.25656
-9.572000e-06,-0.00484375,1.8725,3.25422
-9.570000e-06,-0.00734375,1.86938,3.25578
-9.568000e-06,-0.0078125,1.87031,3.25453
-9.566000e-06,-0.00359375,1.87156,3.25891
-9.564000e-06,-0.0071875,1.8725,3.255
-9.562000e-06,-0.00640625,1.87125,3.25609
-9.560000e-06,-0.005625,1.87156,3.25266
-9.558000e-06,-0.00484375,1.87125,3.25453
-9.556000e-06,-0.005,1.86938,3.25375
-9.554000e-06,-0.00703125,1.86984,3.25484
-9.552000e-06,-0.00609375,1.87031,3.25313
-9.550000e-06,-0.00609375,1.87266,3.25625
-9.548000e-06,-0.004375,1.87422,3.25703
-9.546000e-06,-0.0071875,1.87219,3.25484
-9.544000e-06,-0.005625,1.87203,3.25797
-9.542000e-06,-0.00703125,1.87484,3.25531
-9.540000e-06,-0.00609375,1.86859,3.25578
-9.538000e-06,-0.00734375,1.86953,3.25687
-9.536000e-06,-0.00546875,1.87016,3.25484
-9.534000e-06,-0.00703125,1.87156,3.25422
-9.532000e-06,-0.0065625,1.87109,3.25469
-9.530000e-06,-0.0078125,1.87219,3.25891
-9.528000e-06,-0.00609375,1.87062,3.25406
-9.526000e-06,-0.00640625,1.87125,3.25328
-9.524000e-06,-0.00625,1.86844,3.25453
-9.522000e-06,-0.008125,1.86906,3.25281
-9.520000e-06,-0.00703125,1.87266,3.25344
-9.518000e-06,-0.00796875,1.86844,3.25453
-9.516000e-06,-0.006875,1.87,3.25563
-9.514000e-06,-0.00515625,1.87328,3.2575
-9.512000e-06,-0.00796875,1.87078,3.25141
-9.510000e-06,-0.005625,1.87109,3.255
-9.508000e-06,-0.0034375,1.87,3.25594
-9.506000e-06,-0.00671875,1.86875,3.25281
-9.504000e-06,-0.00828125,1.87047,3.25469
-9.502000e-06,-0.004375,1.87141,3.25828
-9.500000e-06,-0.00765625,1.86891,3.25375
-9.498000e-06,-0.0059375,1.87297,3.25234
-9.496000e-06,-0.00609375,1.87016,3.25516
-9.494000e-06,-0.00375,1.87328,3.25375
-9.492000e-06,-0.00515625,1.87016,3.255
-9.490000e-06,-0.0065625,1.86781,3.25359
-9.488000e-06,-0.00671875,1.87078,3.25734
-9.486000e-06,-0.00640625,1.87078,3.25453
-9.484000e-06,-0.00546875,1.86969,3.25406
-9.482000e-06,-0.00703125,1.87094,3.25313
-9.480000e-06,-0.0040625,1.87203,3.25672
-9.478000e-06,-0.008125,1.87125,3.25797
-9.476000e-06,-0.0046875,1.87078,3.25578
-9.474000e-06,-0.00828125,1.86984,3.25422
-9.472000e-06,-0.00609375,1.87313,3.25484
-9.470000e-06,-0.00671875,1.87328,3.25422
-9.468000e-06,-0.0040625,1.86969,3.25594
-9.466000e-06,-0.00453125,1.86922,3.25937
-9.464000e-06,-0.005,1.87219,3.25313
-9.462000e-06,-0.00640625,1.87141,3.25219
-9.460000e-06,-0.00625,1.87234,3.25578
-9.458000e-06,-0.0053125,1.87172,3.25469
-9.456000e-06,-0.006875,1.87141,3.255
-9.454000e-06,-0.0071875,1.87,3.25453
-9.452000e-06,-0.00578125,1.8725,3.25703
-9.450000e-06,-0.00359375,1.87109,3.25687
-9.448000e-06,-0.0065625,1.87109,3.25359
-9.446000e-06,-0.00671875,1.87172,3.25375
-9.444000e-06,-0.0046875,1.87125,3.255
-9.442000e-06,-0.00859375,1.87047,3.25078
-9.440000e-06,-0.00703125,1.86859,3.25219
-9.438000e-06,-0.00453125,1.87125,3.25969
-9.436000e-06,-0.00703125,1.87141,3.25234
-9.434000e-06,-0.0059375,1.87141,3.25313
-9.432000e-06,-0.00640625,1.87172,3.25438
-9.430000e-06,-0.00484375,1.87344,3.25656
-9.428000e-06,-0.00546875,1.87125,3.25859
-9.426000e-06,-0.00640625,1.87203,3.25313
-9.424000e-06,-0.00609375,1.86922,3.25516
-9.422000e-06,-0.00484375,1.86984,3.25453
-9.420000e-06,-0.004375,1.87016,3.25484
-9.418000e-06,-0.006875,1.86938,3.25438
-9.416000e-06,-0.00453125,1.87297,3.25641
-9.414000e-06,-0.0059375,1.87266,3.25313
-9.412000e-06,-0.005625,1.86797,3.25672
-9.410000e-06,-0.00703125,1.87,3.25578
-9.408000e-06,-0.005,1.87078,3.25484
-9.406000e-06,-0.0065625,1.87031,3.25453
-9.404000e-06,-0.00609375,1.87219,3.25484
-9.402000e-06,-0.00578125,1.87094,3.25719
-9.400000e-06,-0.0053125,1.87203,3.25234
-9.398000e-06,-0.006875,1.87047,3.25328
-9.396000e-06,-0.00546875,1.86984,3.255
-9.394000e-06,-0.00703125,1.86969,3.25531
-9.392000e-06,-0.006875,1.87453,3.25422
-9.390000e-06,-0.00609375,1.86891,3.25234
-9.388000e-06,-0.00578125,1.87109,3.25344
-9.386000e-06,-0.00484375,1.87125,3.25531
-9.384000e-06,-0.0084375,1.87094,3.25422
-9.382000e-06,-0.0065625,1.87187,3.25563
-9.380000e-06,-0.00421875,1.87359,3.25656
-9.378000e-06,-0.00703125,1.87078,3.25516
-9.376000e-06,-0.005625,1.86906,3.25484
-9.374000e-06,-0.0053125,1.87281,3.25766
-9.372000e-06,-0.00734375,1.87141,3.25375
-9.370000e-06,-0.00546875,1.87125,3.25297
-9.368000e-06,-0.00546875,1.87047,3.25297
-9.366000e-06,-0.00578125,1.87344,3.25453
-9.364000e-06,-0.00578125,1.87078,3.25344
-9.362000e-06,-0.005625,1.87187,3.2575
-9.360000e-06,-0.005625,1.87297,3.25656
-9.358000e-06,-0.00765625,1.87,3.25578
-9.356000e-06,-0.005625,1.87297,3.25563
-9.354000e-06,-0.0065625,1.87219,3.25422
-9.352000e-06,-0.00453125,1.87219,3.25484
-9.350000e-06,-0.00703125,1.87062,3.25813
-9.348000e-06,-0.00515625,1.87172,3.25141
-9.346000e-06,-0.00796875,1.87156,3.25438
-9.344000e-06,-0.0075,1.87391,3.25453
-9.342000e-06,-0.0059375,1.87172,3.2525
-9.340000e-06,-0.005625,1.87203,3.25656
-9.338000e-06,-0.005625,1.87719,3.26
-9.336000e-06,-0.0059375,1.86688,3.25422
-9.334000e-06,-0.0075,1.87203,3.25531
-9.332000e-06,-0.00640625,1.87094,3.25391
-9.330000e-06,-0.0071875,1.86953,3.25844
-9.328000e-06,-0.00625,1.87406,3.25547
-9.326000e-06,-0.00828125,1.87156,3.25359
-9.324000e-06,-0.00625,1.87156,3.25578
-9.322000e-06,-0.004375,1.8725,3.25656
-9.320000e-06,-0.0078125,1.87016,3.25266
-9.318000e-06,-0.0053125,1.87062,3.25469
-9.316000e-06,-0.00609375,1.86703,3.26047
-9.314000e-06,-0.00703125,1.87313,3.25344
-9.312000e-06,-0.00703125,1.87031,3.25687
-9.310000e-06,-0.005,1.87609,3.25734
-9.308000e-06,-0.00625,1.87187,3.25438
-9.306000e-06,-0.00765625,1.87125,3.25641
-9.304000e-06,-0.00734375,1.87234,3.25469
-9.302000e-06,-0.0059375,1.86844,3.25328
-9.300000e-06,-0.00578125,1.87172,3.25844
-9.298000e-06,-0.00703125,1.86922,3.25484
-9.296000e-06,-0.005,1.86969,3.25844
-9.294000e-06,-0.00625,1.87125,3.25453
-9.292000e-06,-0.0053125,1.87281,3.25578
-9.290000e-06,-0.00703125,1.86875,3.255
-9.288000e-06,-0.004375,1.87313,3.25734
-9.286000e-06,-0.00671875,1.87234,3.25297
-9.284000e-06,-0.00609375,1.87313,3.25156
-9.282000e-06,-0.0090625,1.87141,3.25484
-9.280000e-06,-0.005,1.86984,3.2525
-9.278000e-06,-0.0075,1.87125,3.2525
-9.276000e-06,-0.00640625,1.87234,3.25406
-9.274000e-06,-0.00609375,1.87125,3.25953
-9.272000e-06,-0.0053125,1.87109,3.25766
-9.270000e-06,-0.0059375,1.87109,3.25859
-9.268000e-06,-0.00640625,1.87078,3.25625
-9.266000e-06,-0.00859375,1.86969,3.25109
-9.264000e-06,-0.00453125,1.87313,3.2575
-9.262000e-06,-0.0075,1.87031,3.25453
-9.260000e-06,-0.00703125,1.87266,3.25563
-9.258000e-06,-0.0046875,1.87438,3.25656
-9.256000e-06,-0.0078125,1.87141,3.2525
-9.254000e-06,-0.0059375,1.87203,3.25438
-9.252000e-06,-0.00484375,1.87719,3.25375
-9.250000e-06,-0.00421875,1.87172,3.255
-9.248000e-06,-0.00828125,1.87125,3.2575
-9.246000e-06,-0.00421875,1.87109,3.25609
-9.244000e-06,-0.0078125,1.87203,3.25563
-9.242000e-06,-0.00609375,1.87328,3.25297
-9.240000e-06,-0.00640625,1.87078,3.25531
-9.238000e-06,-0.0040625,1.87281,3.25641
-9.236000e-06,-0.00484375,1.87141,3.25922
-9.234000e-06,-0.0071875,1.87156,3.25578
-9.232000e-06,-0.00515625,1.8725,3.25703
-9.230000e-06,-0.00578125,1.87313,3.25453
-9.228000e-06,-0.0059375,1.87016,3.25438
-9.226000e-06,-0.00671875,1.87281,3.25656
-9.224000e-06,-0.0046875,1.87375,3.25953
-9.222000e-06,-0.005625,1.87375,3.25719
-9.220000e-06,-0.00640625,1.87141,3.25797
-9.218000e-06,-0.009375,1.87141,3.25703
-9.216000e-06,-0.00671875,1.86828,3.255
-9.214000e-06,-0.0071875,1.87109,3.25313
-9.212000e-06,-0.00640625,1.86891,3.25609
-9.210000e-06,-0.00328125,1.87313,3.25828
-9.208000e-06,-0.0071875,1.87156,3.25406
-9.206000e-06,-0.0075,1.87187,3.25625
-9.204000e-06,-0.006875,1.87609,3.25672
-9.202000e-06,-0.00796875,1.87047,3.25516
-9.200000e-06,-0.00515625,1.87187,3.25797
-9.198000e-06,-0.00609375,1.87109,3.25578
-9.196000e-06,-0.00578125,1.87266,3.25344
-9.194000e-06,-0.00453125,1.87406,3.26016
-9.192000e-06,-0.00796875,1.87125,3.25484
-9.190000e-06,-0.0053125,1.87391,3.25625
-9.188000e-06,-0.00484375,1.8725,3.25453
-9.186000e-06,-0.006875,1.87109,3.25359
-9.184000e-06,-0.008125,1.86969,3.25359
-9.182000e-06,-0.00421875,1.87453,3.25531
-9.180000e-06,-0.00671875,1.87016,3.25297
-9.178000e-06,-0.00421875,1.87109,3.25453
-9.176000e-06,-0.00609375,1.87187,3.25594
-9.174000e-06,-0.005625,1.87438,3.2575
-9.172000e-06,-0.0053125,1.87047,3.25813
-9.170000e-06,-0.0059375,1.87297,3.25594
-9.168000e-06,-0.00515625,1.87109,3.25641
-9.166000e-06,-0.0071875,1.87187,3.25516
-9.164000e-06,-0.00625,1.87297,3.2575
-9.162000e-06,-0.0065625,1.86984,3.25031
-9.160000e-06,-0.00515625,1.87344,3.25625
-9.158000e-06,-0.00703125,1.87375,3.25531
-9.156000e-06,-0.0059375,1.87094,3.25422
-9.154000e-06,-0.008125,1.87344,3.25453
-9.152000e-06,-0.006875,1.87047,3.25469
-9.150000e-06,-0.00734375,1.87109,3.25563
-9.148000e-06,-0.0059375,1.87484,3.25578
-9.146000e-06,-0.00546875,1.87359,3.25969
-9.144000e-06,-0.008125,1.86984,3.25141
-9.142000e-06,-0.0071875,1.87391,3.25781
-9.140000e-06,-0.00671875,1.87,3.25563
-9.138000e-06,-0.0071875,1.87156,3.25547
-9.136000e-06,-0.005625,1.87234,3.25969
-9.134000e-06,-0.00765625,1.87094,3.25469
-9.132000e-06,-0.00609375,1.87187,3.25625
-9.130000e-06,-0.00359375,1.87344,3.25734
-9.128000e-06,-0.0075,1.87234,3.25141
-9.126000e-06,-0.0065625,1.8725,3.25344
-9.124000e-06,-0.005,1.87344,3.25422
-9.122000e-06,-0.006875,1.87281,3.25641
-9.120000e-06,-0.00890625,1.87219,3.25313
-9.118000e-06,-0.00453125,1.87219,3.25641
-9.116000e-06,-0.0075,1.87266,3.25266
-9.114000e-06,-0.00625,1.87328,3.25609
-9.112000e-06,-0.0065625,1.87531,3.25266
-9.110000e-06,-0.0046875,1.87031,3.25766
-9.108000e-06,-0.005625,1.8725,3.255
-9.106000e-06,-0.00625,1.87234,3.25094
-9.104000e-06,-0.005625,1.87297,3.25563
-9.102000e-06,-0.00640625,1.87078,3.255
-9.100000e-06,-0.0065625,1.8725,3.25891
-9.098000e-06,-0.0059375,1.87297,3.25234
-9.096000e-06,-0.0040625,1.87469,3.25969
-9.094000e-06,-0.0078125,1.87187,3.25672
-9.092000e-06,-0.00625,1.87109,3.25531
-9.090000e-06,-0.0078125,1.87062,3.25453
-9.088000e-06,-0.00578125,1.87281,3.255
-9.086000e-06,-0.0071875,1.87094,3.25531
-9.084000e-06,-0.00546875,1.87187,3.25578
-9.082000e-06,-0.00328125,1.87313,3.25609
-9.080000e-06,-0.0059375,1.87062,3.25453
-9.078000e-06,-0.00671875,1.87094,3.25906
-9.076000e-06,-0.0065625,1.87281,3.25469
-9.074000e-06,-0.00578125,1.87266,3.25344
-9.072000e-06,-0.005,1.87219,3.25859
-9.070000e-06,-0.0078125,1.86922,3.25375
-9.068000e-06,-0.00578125,1.86953,3.25687
-9.066000e-06,-0.005,1.87531,3.25687
-9.064000e-06,-0.0084375,1.87234,3.25766
-9.062000e-06,-0.00640625,1.87609,3.25422
-9.060000e-06,-0.0065625,1.87344,3.25578
-9.058000e-06,-0.00765625,1.87422,3.25313
-9.056000e-06,-0.0075,1.87219,3.25453
-9.054000e-06,-0.00546875,1.87234,3.25719
-9.052000e-06,-0.00703125,1.87313,3.25422
-9.050000e-06,-0.00609375,1.87016,3.25766
-9.048000e-06,-0.00703125,1.87266,3.25453
-9.046000e-06,-0.00359375,1.8725,3.25719
-9.044000e-06,-0.004375,1.87328,3.25563
-9.042000e-06,-0.0071875,1.87234,3.25313
