measurements/CH1-out8_CH2-reset.csv

Model,MDO3034
Firmware Version,1.08

Waveform Type,ANALOG,
Point Format,Y,
Horizontal Units,s,
Horizontal Scale,1,
Horizontal Delay,0,
Sample Interval,0.001,
Record Length,10000,
Gating,0.0% to 100.0%,
Probe Attenuation,10,10
Vertical Units,V,V
Vertical Offset,0,0
Vertical Scale,0.5,1
Vertical Position,0,0
,,
,,
,,
Label,M2024,
TIME,CH1,CH2
-5.000000e+00,1.4,0
-4.999000e+00,1.4,0
-4.998000e+00,1.38,0
-4.997000e+00,1.38,0.04
-4.996000e+00,1.4,0
-4.995000e+00,1.4,0
-4.994000e+00,1.38,0
-4.993000e+00,1.4,0
-4.992000e+00,1.38,0
-4.991000e+00,1.4,0.04
-4.990000e+00,1.4,0
-4.989000e+00,1.38,-0.04
-4.988000e+00,1.36,0
-4.987000e+00,1.38,0
-4.986000e+00,1.4,0
-4.985000e+00,1.4,0
-4.984000e+00,1.4,0
-4.983000e+00,1.4,0
-4.982000e+00,1.42,0
-4.981000e+00,1.4,0
-4.980000e+00,1.4,0
-4.979000e+00,1.38,0
-4.978000e+00,1.4,0
-4.977000e+00,1.38,0.04
-4.976000e+00,1.4,0
-4.975000e+00,1.38,0
-4.974000e+00,1.4,0
-4.973000e+00,1.4,0
-4.972000e+00,1.4,0
-4.971000e+00,1.38,0
-4.970000e+00,1.4,0
-4.969000e+00,1.38,0
-4.968000e+00,1.4,0
-4.967000e+00,1.4,0
-4.966000e+00,1.38,0
-4.965000e+00,1.4,0.04
-4.964000e+00,1.38,0
-4.963000e+00,1.38,0
-4.962000e+00,1.38,0
-4.961000e+00,1.4,0
-4.960000e+00,1.4,0
-4.959000e+00,1.38,0
-4.958000e+00,1.38,0.04
-4.957000e+00,1.4,0
-4.956000e+00,1.38,0
-4.955000e+00,1.4,0
-4.954000e+00,1.38,0
-4.953000e+00,1.4,0
-4.952000e+00,1.38,0
-4.951000e+00,1.4,0.04
-4.950000e+00,1.4,0
-4.949000e+00,1.4,0
-4.948000e+00,1.38,0
-4.947000e+00,1.38,0
-4.946000e+00,1.38,0
-4.945000e+00,1.4,0
-4.944000e+00,1.38,0
-4.943000e+00,1.4,0
-4.942000e+00,1.38,0
-4.941000e+00,1.4,0
-4.940000e+00,1.38,0
-4.939000e+00,1.4,0
-4.938000e+00,1.36,0
-4.937000e+00,1.4,0
-4.936000e+00,1.38,0
-4.935000e+00,1.38,0
-4.934000e+00,1.38,0
-4.933000e+00,1.4,0.04
-4.932000e+00,1.4,0.04
-4.931000e+00,1.38,0.04
-4.930000e+00,1.38,0
-4.929000e+00,1.4,0
-4.928000e+00,1.4,0
-4.927000e+00,1.4,0
-4.926000e+00,1.4,0
-4.925000e+00,1.4,0.04
-4.924000e+00,1.4,0
-4.923000e+00,1.38,0
-4.922000e+00,1.4,0
-4.921000e+00,1.4,0
-4.920000e+00,1.4,0
-4.919000e+00,1.4,0
-4.918000e+00,1.4,0.04
-4.917000e+00,1.38,-0.04
-4.916000e+00,1.38,0
-4.915000e+00,1.38,0.04
-4.914000e+00,1.38,0
-4.913000e+00,1.38,0
-4.912000e+00,1.4,0
-4.911000e+00,1.4,0
-4.910000e+00,1.4,0
-4.909000e+00,1.38,0
-4.908000e+00,1.4,0
-4.907000e+00,1.42,0
-4.906000e+00,1.38,0
-4.905000e+00,1.38,0
-4.904000e+00,1.4,0
-4.903000e+00,1.38,0
-4.902000e+00,1.4,0
-4.901000e+00,1.4,0
-4.900000e+00,1.38,0
-4.899000e+00,1.4,0
-4.898000e+00,1.4,0
-4.897000e+00,1.38,0
-4.896000e+00,1.4,0
-4.895000e+00,1.4,0
-4.894000e+00,1.4,0
-4.893000e+00,1.38,0
-4.892000e+00,1.4,0.04
-4.891000e+00,1.42,0
-4.890000e+00,1.38,0
-4.889000e+00,1.38,0
-4.888000e+00,1.38,0.04
-4.887000e+00,1.4,0
-4.886000e+00,1.4,0.04
-4.885000e+00,1.4,0.04
-4.884000e+00,1.4,0
-4.883000e+00,1.4,0
-4.882000e+00,1.4,0
-4.881000e+00,1.38,0
-4.880000e+00,1.4,0
-4.879000e+00,1.4,0
-4.878000e+00,1.4,0
-4.877000e+00,1.38,0.04
-4.876000e+00,1.4,0
-4.875000e+00,1.4,0
-4.874000e+00,1.4,0
-4.873000e+00,1.38,0
-4.872000e+00,1.4,0
-4.871000e+00,1.4,0
-4.870000e+00,1.38,0
-4.869000e+00,1.4,0
-4.868000e+00,1.4,0
-4.867000e+00,1.38,0
-4.866000e+00,1.38,0
-4.865000e+00,1.4,0
-4.864000e+00,1.4,0
-4.863000e+00,1.38,0.04
-4.862000e+00,1.4,0
-4.861000e+00,1.4,0
-4.860000e+00,1.36,0
-4.859000e+00,1.38,-0.04
-4.858000e+00,1.38,0
-4.857000e+00,1.4,0
-4.856000e+00,1.38,0
-4.855000e+00,1.4,0
-4.854000e+00,1.4,0
-4.853000e+00,1.38,0
-4.852000e+00,1.4,0
-4.851000e+00,1.4,0
-4.850000e+00,1.38,0
-4.849000e+00,1.42,0
-4.848000e+00,1.38,0
-4.847000e+00,1.38,0
-4.846000e+00,1.38,0.04
-4.845000e+00,1.38,0
-4.844000e+00,1.4,0.04
-4.843000e+00,1.4,0
-4.842000e+00,1.38,-0.04
-4.841000e+00,1.4,0
-4.840000e+00,1.42,0.04
-4.839000e+00,1.4,0.16
-4.838000e+00,1.4,0.64
-4.837000e+00,1.38,1.2
-4.836000e+00,1.36,1.72
-4.835000e+00,1.28,2.28
-4.834000e+00,1.46,2.68
-4.833000e+00,1.44,2.92
-4.832000e+00,1.7,3.04
-4.831000e+00,1.42,3.12
-4.830000e+00,1.52,3.16
-4.829000e+00,1.36,3.28
-4.828000e+00,1.34,3.28
-4.827000e+00,1.3,3.36
-4.826000e+00,1.14,3.32
-4.825000e+00,1.22,3.36
-4.824000e+00,1.2,3.36
-4.823000e+00,1.66,3.4
-4.822000e+00,1.3,3.36
-4.821000e+00,1.32,3.4
-4.820000e+00,1.32,3.36
-4.819000e+00,1.34,3.44
-4.818000e+00,1.4,3.4
-4.817000e+00,1.26,3.4
-4.816000e+00,1.44,3.4
-4.815000e+00,1.9,3.4
-4.814000e+00,1.48,3.44
-4.813000e+00,1.38,3.4
-4.812000e+00,1.34,3.4
-4.811000e+00,1.32,3.44
-4.810000e+00,0.94,3.36
-4.809000e+00,1.08,3.4
-4.808000e+00,1.22,3.4
-4.807000e+00,1.34,3.32
-4.806000e+00,1.32,3.4
-4.805000e+00,1.3,3.4
-4.804000e+00,1.34,3.4
-4.803000e+00,1.3,3.4
-4.802000e+00,1.3,3.44
-4.801000e+00,1.28,3.44
-4.800000e+00,1.32,3.4
-4.799000e+00,1.82,3.44
-4.798000e+00,1.08,3.4
-4.797000e+00,1.46,3.4
-4.796000e+00,1.36,3.4
-4.795000e+00,1.32,3.36
-4.794000e+00,1.24,3.4
-4.793000e+00,1.06,3.4
-4.792000e+00,1.16,3.4
-4.791000e+00,1.22,3.4
-4.790000e+00,1.02,3.4
-4.789000e+00,1.26,3.4
-4.788000e+00,1.32,3.4
-4.787000e+00,1.28,3.44
-4.786000e+00,1.24,3.4
-4.785000e+00,1.32,3.44
-4.784000e+00,1.4,3.4
-4.783000e+00,1.34,3.4
-4.782000e+00,1.26,3.44
-4.781000e+00,1.3,3.44
-4.780000e+00,1.46,3.4
-4.779000e+00,1.32,3.4
-4.778000e+00,1.28,3.4
-4.777000e+00,1.26,3.4
-4.776000e+00,1.12,3.4
-4.775000e+00,1.14,3.4
-4.774000e+00,1.12,3.4
-4.773000e+00,1.26,3.4
-4.772000e+00,1.24,3.44
-4.771000e+00,1.3,3.44
-4.770000e+00,1.28,3.4
-4.769000e+00,1.32,3.44
-4.768000e+00,1.26,3.44
-4.767000e+00,1.22,3.4
-4.766000e+00,1.36,3.44
-4.765000e+00,1.26,3.44
-4.764000e+00,1.4,3.4
-4.763000e+00,1.3,3.4
-4.762000e+00,1.26,3.4
-4.761000e+00,1.26,3.4
-4.760000e+00,0.96,3.4
-4.759000e+00,1,3.4
-4.758000e+00,1.14,3.4
-4.757000e+00,1.08,3.4
-4.756000e+00,1.14,3.44
-4.755000e+00,1.24,3.44
-4.754000e+00,1.24,3.4
-4.753000e+00,1.22,3.4
-4.752000e+00,1.22,3.44
-4.751000e+00,1.26,3.4
-4.750000e+00,1.24,3.44
-4.749000e+00,1.56,3.44
-4.748000e+00,1.72,3.4
-4.747000e+00,1.4,3.44
-4.746000e+00,1.32,3.44
-4.745000e+00,1.28,3.4
-4.744000e+00,1.16,3.44
-4.743000e+00,0.92,3.44
-4.742000e+00,1.08,3.4
-4.741000e+00,1.18,3.4
-4.740000e+00,1.46,3.44
-4.739000e+00,1.24,3.44
-4.738000e+00,1.22,3.44
-4.737000e+00,1.22,3.44
-4.736000e+00,1.24,3.44
-4.735000e+00,1.32,3.4
-4.734000e+00,1.26,3.4
-4.733000e+00,1.28,3.4
-4.732000e+00,1.72,3.4
-4.731000e+00,1.32,3.44
-4.730000e+00,1.36,3.44
-4.729000e+00,1.24,3.44
-4.728000e+00,1.22,3.4
-4.727000e+00,1.18,3.44
-4.726000e+00,0.98,3.4
-4.725000e+00,1.1,3.4
-4.724000e+00,1.02,3.44
-4.723000e+00,0.76,3.4
-4.722000e+00,1.2,3.4
-4.721000e+00,1.24,3.44
-4.720000e+00,1.22,3.44
-4.719000e+00,1.22,3.4
-4.718000e+00,1.12,3.36
-4.717000e+00,1.26,3.4
-4.716000e+00,1.3,3.44
-4.715000e+00,1.38,3.36
-4.714000e+00,1.3,3.4
-4.713000e+00,1.26,3.44
-4.712000e+00,1.22,3.4
-4.711000e+00,1.18,3.44
-4.710000e+00,0.96,3.44
-4.709000e+00,1.04,3.44
-4.708000e+00,1.08,3.36
-4.707000e+00,1.02,3.4
-4.706000e+00,1.18,3.44
-4.705000e+00,1.18,3.36
-4.704000e+00,1.18,3.44
-4.703000e+00,1.16,3.4
-4.702000e+00,1.2,3.4
-4.701000e+00,1.28,3.4
-4.700000e+00,1.2,3.44
-4.699000e+00,1.38,3.4
-4.698000e+00,1.26,3.4
-4.697000e+00,1.34,3.44
-4.696000e+00,1.26,3.4
-4.695000e+00,1.2,3.44
-4.694000e+00,1.14,3.44
-4.693000e+00,0.96,3.44
-4.692000e+00,1.02,3.44
-4.691000e+00,1.12,3.4
-4.690000e+00,1.14,3.4
-4.689000e+00,1.18,3.4
-4.688000e+00,1.12,3.4
-4.687000e+00,1.18,3.4
-4.686000e+00,1.2,3.4
-4.685000e+00,1.1,3.44
-4.684000e+00,1.12,3.36
-4.683000e+00,1.22,3.44
-4.682000e+00,1.14,3.44
-4.681000e+00,1.26,3.4
-4.680000e+00,1.32,3.4
-4.679000e+00,1.2,3.44
-4.678000e+00,1.18,3.44
-4.677000e+00,1.1,3.4
-4.676000e+00,0.88,3.4
-4.675000e+00,1.02,3.4
-4.674000e+00,0.98,3.4
-4.673000e+00,1.16,3.36
-4.672000e+00,1.14,3.4
-4.671000e+00,1.16,3.4
-4.670000e+00,1.14,3.36
-4.669000e+00,1.08,3.44
-4.668000e+00,1.26,3.44
-4.667000e+00,1.2,3.44
-4.666000e+00,1.2,3.4
-4.665000e+00,1.68,3.36
-4.664000e+00,1.26,3.4
-4.663000e+00,1.24,3.4
-4.662000e+00,1.16,3.4
-4.661000e+00,1.12,3.4
-4.660000e+00,1,3.4
-4.659000e+00,0.94,3.4
-4.658000e+00,1.02,3.44
-4.657000e+00,1.26,3.4
-4.656000e+00,1.16,3.44
-4.655000e+00,1.1,3.4
-4.654000e+00,1.14,3.4
-4.653000e+00,1.16,3.36
-4.652000e+00,1.18,3.4
-4.651000e+00,1.08,3.4
-4.650000e+00,1.12,3.4
-4.649000e+00,1.64,3.4
-4.648000e+00,1.62,3.4
-4.647000e+00,1.26,3.4
-4.646000e+00,1.18,3.44
-4.645000e+00,1.12,3.44
-4.644000e+00,1.04,3.4
-4.643000e+00,0.74,3.4
-4.642000e+00,0.98,3.4
-4.641000e+00,1.04,3.44
-4.640000e+00,0.74,3.4
-4.639000e+00,1.04,3.44
-4.638000e+00,1.02,3.4
-4.637000e+00,1.12,3.4
-4.636000e+00,1.06,3.44
-4.635000e+00,1.08,3.48
-4.634000e+00,1.18,3.4
-4.633000e+00,1.18,3.4
-4.632000e+00,1.2,3.36
-4.631000e+00,1.32,3.44
-4.630000e+00,1.22,3.44
-4.629000e+00,1.12,3.4
-4.628000e+00,1.1,3.4
-4.627000e+00,1,3.4
-4.626000e+00,0.94,3.44
-4.625000e+00,0.94,3.44
-4.624000e+00,0.9,3.44
-4.623000e+00,1.2,3.4
-4.622000e+00,1.04,3.4
-4.621000e+00,1.1,3.44
-4.620000e+00,1.04,3.4
-4.619000e+00,1.16,3.44
-4.618000e+00,1.22,3.36
-4.617000e+00,1.06,3.4
-4.616000e+00,1.14,3.36
-4.615000e+00,1.04,3.4
-4.614000e+00,1.2,3.4
-4.613000e+00,1.24,3.4
-4.612000e+00,1.1,3.44
-4.611000e+00,1.06,3.4
-4.610000e+00,0.98,3.4
-4.609000e+00,0.9,3.4
-4.608000e+00,0.96,3.44
-4.607000e+00,0.94,3.4
-4.606000e+00,1.04,3.32
-4.605000e+00,1.08,3.4
-4.604000e+00,1.04,3.48
-4.603000e+00,1.04,3.4
-4.602000e+00,1.02,3.44
-4.601000e+00,0.98,3.4
-4.600000e+00,1.06,3.4
-4.599000e+00,1.2,3.4
-4.598000e+00,1.6,3.4
-4.597000e+00,1.22,3.4
-4.596000e+00,1.06,3.44
-4.595000e+00,1.08,3.4
-4.594000e+00,0.94,3.4
-4.593000e+00,0.66,3.4
-4.592000e+00,0.9,3.44
-4.591000e+00,0.98,3.4
-4.590000e+00,1.1,3.44
-4.589000e+00,1.02,3.4
-4.588000e+00,1,3.44
-4.587000e+00,1.02,3.4
-4.586000e+00,1.02,3.4
-4.585000e+00,1.06,3.4
-4.584000e+00,1.1,3.44
-4.583000e+00,1.1,3.44
-4.582000e+00,1.62,3.4
-4.581000e+00,1.2,3.4
-4.580000e+00,1.14,3.4
-4.579000e+00,1.06,3.44
-4.578000e+00,1.02,3.4
-4.577000e+00,0.86,3.4
-4.576000e+00,0.74,3.4
-4.575000e+00,0.88,3.4
-4.574000e+00,0.82,3.44
-4.573000e+00,0.88,3.4
-4.572000e+00,1,3.44
-4.571000e+00,1,3.4
-4.570000e+00,1.02,3.36
-4.569000e+00,1.06,3.44
-4.568000e+00,0.92,3.4
-4.567000e+00,0.96,3.44
-4.566000e+00,1.08,3.4
-4.565000e+00,1.4,3.44
-4.564000e+00,1.14,3.4
-4.563000e+00,1.12,3.4
-4.562000e+00,1.02,3.44
-4.561000e+00,0.96,3.4
-4.560000e+00,0.96,3.4
-4.559000e+00,0.84,3.44
-4.558000e+00,0.9,3.4
-4.557000e+00,0.78,3.48
-4.556000e+00,1.04,3.4
-4.555000e+00,1,3.48
-4.554000e+00,0.98,3.4
-4.553000e+00,1,3.4
-4.552000e+00,0.94,3.4
-4.551000e+00,1.1,3.4
-4.550000e+00,1,3.44
-4.549000e+00,1.1,3.4
-4.548000e+00,1.48,3.4
-4.547000e+00,1.16,3.4
-4.546000e+00,1.04,3.4
-4.545000e+00,1,3.4
-4.544000e+00,0.9,3.4
-4.543000e+00,0.82,3.44
-4.542000e+00,0.82,3.44
-4.541000e+00,0.9,3.4
-4.540000e+00,1.28,3.4
-4.539000e+00,0.96,3.4
-4.538000e+00,0.9,3.4
-4.537000e+00,0.96,3.4
-4.536000e+00,0.98,3.48
-4.535000e+00,0.96,3.4
-4.534000e+00,0.92,3.4
-4.533000e+00,1.04,3.44
-4.532000e+00,0.82,3.4
-4.531000e+00,1.28,3.44
-4.530000e+00,1.08,3.4
-4.529000e+00,1,3.4
-4.528000e+00,0.98,3.4
-4.527000e+00,0.78,3.4
-4.526000e+00,0.7,3.4
-4.525000e+00,0.84,3.36
-4.524000e+00,0.84,3.4
-4.523000e+00,0.96,3.4
-4.522000e+00,0.94,3.4
-4.521000e+00,0.96,3.4
-4.520000e+00,0.94,3.4
-4.519000e+00,0.92,3.4
-4.518000e+00,0.86,3.4
-4.517000e+00,0.98,3.44
-4.516000e+00,1,3.44
-4.515000e+00,1.26,3.4
-4.514000e+00,1.08,3.4
-4.513000e+00,1.08,3.44
-4.512000e+00,0.96,3.4
-4.511000e+00,0.94,3.4
-4.510000e+00,0.96,3.4
-4.509000e+00,0.7,3.4
-4.508000e+00,0.82,3.4
-4.507000e+00,0.9,3.44
-4.506000e+00,0.88,3.4
-4.505000e+00,0.9,3.44
-4.504000e+00,0.92,3.4
-4.503000e+00,0.9,3.44
-4.502000e+00,1,3.44
-4.501000e+00,1.04,3.4
-4.500000e+00,0.96,3.44
-4.499000e+00,1.5,3.4
-4.498000e+00,1.22,3.44
-4.497000e+00,1.1,3.44
-4.496000e+00,1,3.4
-4.495000e+00,0.94,3.4
-4.494000e+00,0.84,3.44
-4.493000e+00,0.66,3.4
-4.492000e+00,0.78,3.4
-4.491000e+00,0.84,3.4
-4.490000e+00,0.82,3.4
-4.489000e+00,0.92,3.4
-4.488000e+00,0.86,3.4
-4.487000e+00,0.92,3.4
-4.486000e+00,0.94,3.4
-4.485000e+00,0.96,3.44
-4.484000e+00,0.88,3.4
-4.483000e+00,0.98,3.44
-4.482000e+00,1.24,3.44
-4.481000e+00,1.2,3.4
-4.480000e+00,0.96,3.44
-4.479000e+00,0.9,3.4
-4.478000e+00,0.88,3.44
-4.477000e+00,0.56,3.44
-4.476000e+00,0.64,3.4
-4.475000e+00,0.8,3.44
-4.474000e+00,0.74,3.44
-4.473000e+00,0.96,3.4
-4.472000e+00,0.86,3.4
-4.471000e+00,0.9,3.4
-4.470000e+00,0.86,3.4
-4.469000e+00,0.86,3.4
-4.468000e+00,0.98,3.44
-4.467000e+00,0.94,3.4
-4.466000e+00,0.94,3.4
-4.465000e+00,0.76,3.44
-4.464000e+00,1.08,3.44
-4.463000e+00,1,3.44
-4.462000e+00,0.9,3.44
-4.461000e+00,0.84,3.4
-4.460000e+00,0.84,3.4
-4.459000e+00,0.68,3.4
-4.458000e+00,0.76,3.44
-4.457000e+00,1,3.4
-4.456000e+00,0.8,3.4
-4.455000e+00,0.88,3.44
-4.454000e+00,0.86,3.44
-4.453000e+00,0.9,3.4
-4.452000e+00,0.96,3.44
-4.451000e+00,0.76,3.44
-4.450000e+00,0.9,3.4
-4.449000e+00,0.84,3.44
-4.448000e+00,1,3.44
-4.447000e+00,1.04,3.4
-4.446000e+00,0.9,3.4
-4.445000e+00,0.86,3.4
-4.444000e+00,0.82,3.4
-4.443000e+00,0.64,3.44
-4.442000e+00,0.72,3.44
-4.441000e+00,0.78,3.36
-4.440000e+00,0.44,3.44
-4.439000e+00,0.84,3.4
-4.438000e+00,0.82,3.4
-4.437000e+00,0.86,3.4
-4.436000e+00,0.8,3.4
-4.435000e+00,0.86,3.4
-4.434000e+00,0.92,3.44
-4.433000e+00,0.94,3.4
-4.432000e+00,1.28,3.44
-4.431000e+00,1.12,3.44
-4.430000e+00,0.9,3.44
-4.429000e+00,0.86,3.36
-4.428000e+00,0.86,3.4
-4.427000e+00,0.36,3.4
-4.426000e+00,0.56,3.4
-4.425000e+00,0.7,3.44
-4.424000e+00,0.9,3.48
-4.423000e+00,0.74,3.44
-4.422000e+00,0.82,3.4
-4.421000e+00,0.82,3.44
-4.420000e+00,0.82,3.44
-4.419000e+00,0.9,3.44
-4.418000e+00,0.86,3.4
-4.417000e+00,0.84,3.4
-4.416000e+00,0.94,3.4
-4.415000e+00,1.54,3.44
-4.414000e+00,0.96,3.4
-4.413000e+00,0.94,3.4
-4.412000e+00,0.8,3.4
-4.411000e+00,0.76,3.4
-4.410000e+00,0.76,3.4
-4.409000e+00,0.62,3.4
-4.408000e+00,0.7,3.4
-4.407000e+00,0.82,3.44
-4.406000e+00,0.84,3.4
-4.405000e+00,0.76,3.4
-4.404000e+00,0.84,3.4
-4.403000e+00,0.84,3.4
-4.402000e+00,0.74,3.36
-4.401000e+00,0.74,3.4
-4.400000e+00,0.84,3.4
-4.399000e+00,0.86,3.36
-4.398000e+00,0.88,3.44
-4.397000e+00,0.98,3.4
-4.396000e+00,0.84,3.44
-4.395000e+00,0.8,3.44
-4.394000e+00,0.72,3.4
-4.393000e+00,0.58,3.4
-4.392000e+00,0.64,3.4
-4.391000e+00,0.68,3.4
-4.390000e+00,0.98,3.4
-4.389000e+00,0.76,3.4
-4.388000e+00,0.76,3.44
-4.387000e+00,0.78,3.4
-4.386000e+00,0.74,3.4
-4.385000e+00,0.8,3.44
-4.384000e+00,0.82,3.4
-4.383000e+00,0.9,3.44
-4.382000e+00,0.74,3.4
-4.381000e+00,1.02,3.4
-4.380000e+00,0.8,3.4
-4.379000e+00,0.8,3.4
-4.378000e+00,0.76,3.44
-4.377000e+00,0.48,3.44
-4.376000e+00,0.58,3.36
-4.375000e+00,0.66,3.48
-4.374000e+00,0.76,3.44
-4.373000e+00,0.76,3.4
-4.372000e+00,0.74,3.48
-4.371000e+00,0.76,3.4
-4.370000e+00,0.78,3.4
-4.369000e+00,0.8,3.44
-4.368000e+00,0.74,3.4
-4.367000e+00,0.72,3.44
-4.366000e+00,0.84,3.4
-4.365000e+00,0.88,3.44
-4.364000e+00,0.96,3.44
-4.363000e+00,0.88,3.4
-4.362000e+00,0.76,3.44
-4.361000e+00,0.74,3.44
-4.360000e+00,0.58,3.4
-4.359000e+00,0.56,3.4
-4.358000e+00,0.62,3.4
-4.357000e+00,0.44,3.4
-4.356000e+00,0.78,3.4
-4.355000e+00,0.78,3.4
-4.354000e+00,0.72,3.44
-4.353000e+00,0.66,3.44
-4.352000e+00,0.64,3.4
-4.351000e+00,0.84,3.4
-4.350000e+00,0.8,3.4
-4.349000e+00,1.14,3.44
-4.348000e+00,0.78,3.4
-4.347000e+00,0.9,3.4
-4.346000e+00,0.78,3.4
-4.345000e+00,0.76,3.44
-4.344000e+00,0.66,3.44
-4.343000e+00,0.54,3.4
-4.342000e+00,0.6,3.4
-4.341000e+00,0.58,3.44
-4.340000e+00,1.08,3.4
-4.339000e+00,0.68,3.4
-4.338000e+00,0.72,3.44
-4.337000e+00,0.7,3.44
-4.336000e+00,0.74,3.44
-4.335000e+00,0.78,3.4
-4.334000e+00,0.68,3.4
-4.333000e+00,0.88,3.4
-4.332000e+00,1.3,3.4
-4.331000e+00,0.88,3.44
-4.330000e+00,0.72,3.4
-4.329000e+00,0.7,3.44
-4.328000e+00,0.68,3.4
-4.327000e+00,0.18,3.44
-4.326000e+00,0.38,3.44
-4.325000e+00,0.58,3.4
-4.324000e+00,0.66,3.4
-4.323000e+00,0.7,3.4
-4.322000e+00,0.68,3.4
-4.321000e+00,0.7,3.4
-4.320000e+00,0.68,3.4
-4.319000e+00,0.68,3.4
-4.318000e+00,0.64,3.4
-4.317000e+00,0.74,3.4
-4.316000e+00,0.88,3.4
-4.315000e+00,0.94,3.44
-4.314000e+00,0.88,3.44
-4.313000e+00,0.78,3.4
-4.312000e+00,0.68,3.44
-4.311000e+00,0.64,3.4
-4.310000e+00,0.44,3.44
-4.309000e+00,0.5,3.4
-4.308000e+00,0.54,3.4
-4.307000e+00,0.42,3.4
-4.306000e+00,0.64,3.4
-4.305000e+00,0.7,3.44
-4.304000e+00,0.68,3.4
-4.303000e+00,0.62,3.44
-4.302000e+00,0.74,3.36
-4.301000e+00,0.8,3.44
-4.300000e+00,0.74,3.4
-4.299000e+00,0.64,3.4
-4.298000e+00,0.64,3.4
-4.297000e+00,0.84,3.4
-4.296000e+00,0.7,3.4
-4.295000e+00,0.66,3.44
-4.294000e+00,0.62,3.4
-4.293000e+00,0.48,3.4
-4.292000e+00,0.52,3.4
-4.291000e+00,0.48,3.4
-4.290000e+00,0.46,3.44
-4.289000e+00,0.64,3.4
-4.288000e+00,0.64,3.44
-4.287000e+00,0.64,3.4
-4.286000e+00,0.68,3.44
-4.285000e+00,0.58,3.4
-4.284000e+00,0.56,3.4
-4.283000e+00,0.7,3.44
-4.282000e+00,0.7,3.44
-4.281000e+00,0.82,3.4
-4.280000e+00,0.72,3.4
-4.279000e+00,0.64,3.36
-4.278000e+00,0.66,3.44
-4.277000e+00,0.16,3.4
-4.276000e+00,0.32,3.44
-4.275000e+00,0.48,3.44
-4.274000e+00,0.38,3.4
-4.273000e+00,0.46,3.4
-4.272000e+00,0.58,3.4
-4.271000e+00,0.6,3.44
-4.270000e+00,0.58,3.4
-4.269000e+00,0.6,3.4
-4.268000e+00,0.64,3.4
-4.267000e+00,0.62,3.44
-4.266000e+00,1.04,3.4
-4.265000e+00,0.36,3.48
-4.264000e+00,0.76,3.44
-4.263000e+00,0.7,3.44
-4.262000e+00,0.6,3.4
-4.261000e+00,0.56,3.4
-4.260000e+00,0.2,3.44
-4.259000e+00,0.38,3.4
-4.258000e+00,0.4,3.36
-4.257000e+00,0.92,3.4
-4.256000e+00,0.58,3.4
-4.255000e+00,0.56,3.44
-4.254000e+00,0.58,3.44
-4.253000e+00,0.62,3.4
-4.252000e+00,0.72,3.48
-4.251000e+00,0.56,3.4
-4.250000e+00,0.62,3.4
-4.249000e+00,1.04,3.4
-4.248000e+00,0.66,3.4
-4.247000e+00,0.74,3.4
-4.246000e+00,0.6,3.4
-4.245000e+00,0.6,3.44
-4.244000e+00,0.52,3.4
-4.243000e+00,0.28,3.44
-4.242000e+00,0.4,3.4
-4.241000e+00,0.32,3.4
-4.240000e+00,0,3.44
-4.239000e+00,0.6,3.4
-4.238000e+00,0.6,3.4
-4.237000e+00,0.58,3.44
-4.236000e+00,0.52,3.4
-4.235000e+00,0.38,3.4
-4.234000e+00,0.62,3.4
-4.233000e+00,0.6,3.44
-4.232000e+00,0.76,3.36
-4.231000e+00,0.7,3.4
-4.230000e+00,0.56,3.44
-4.229000e+00,0.56,3.44
-4.228000e+00,0.5,3.4
-4.227000e+00,0.1,3.44
-4.226000e+00,0.32,3.44
-4.225000e+00,0.36,3.4
-4.224000e+00,0.32,3.4
-4.223000e+00,0.48,3.44
-4.222000e+00,0.46,3.4
-4.221000e+00,0.5,3.36
-4.220000e+00,0.46,3.4
-4.219000e+00,0.56,3.4
-4.218000e+00,0.64,3.44
-4.217000e+00,0.52,3.4
-4.216000e+00,0.86,3.44
-4.215000e+00,0.3,3.4
-4.214000e+00,0.74,3.4
-4.213000e+00,0.62,3.4
-4.212000e+00,0.52,3.44
-4.211000e+00,0.48,3.4
-4.210000e+00,0.22,3.36
-4.209000e+00,0.24,3.44
-4.208000e+00,0.4,3.44
-4.207000e+00,0.46,3.4
-4.206000e+00,0.46,3.4
-4.205000e+00,0.46,3.4
-4.204000e+00,0.48,3.44
-4.203000e+00,0.48,3.44
-4.202000e+00,0.36,3.4
-4.201000e+00,0.42,3.4
-4.200000e+00,0.58,3.4
-4.199000e+00,0.36,3.44
-4.198000e+00,0.58,3.44
-4.197000e+00,0.68,3.36
-4.196000e+00,0.5,3.44
-4.195000e+00,0.46,3.44
-4.194000e+00,0.44,3.4
-4.193000e+00,0.1,3.44
-4.192000e+00,0.26,3.4
-4.191000e+00,0.18,3.4
-4.190000e+00,0.76,3.44
-4.189000e+00,0.38,3.4
-4.188000e+00,0.44,3.4
-4.187000e+00,0.44,3.44
-4.186000e+00,0.38,3.44
-4.185000e+00,0.56,3.4
-4.184000e+00,0.56,3.4
-4.183000e+00,0.56,3.4
-4.182000e+00,1.08,3.44
-4.181000e+00,0.62,3.4
-4.180000e+00,0.5,3.4
-4.179000e+00,0.46,3.4
-4.178000e+00,0.36,3.4
-4.177000e+00,0.06,3.4
-4.176000e+00,0.16,3.44
-4.175000e+00,0.24,3.4
-4.174000e+00,0.58,3.4
-4.173000e+00,0.46,3.36
-4.172000e+00,0.4,3.4
-4.171000e+00,0.38,3.44
-4.170000e+00,0.42,3.4
-4.169000e+00,0.4,3.44
-4.168000e+00,0.32,3.4
-4.167000e+00,0.38,3.36
-4.166000e+00,1.26,3.44
-4.165000e+00,0.8,3.4
-4.164000e+00,0.62,3.36
-4.163000e+00,0.48,3.44
-4.162000e+00,0.36,3.4
-4.161000e+00,0.3,3.4
-4.160000e+00,0,3.4
-4.159000e+00,0.14,3.44
-4.158000e+00,0.26,3.4
-4.157000e+00,0,3.44
-4.156000e+00,0.3,3.44
-4.155000e+00,0.32,3.4
-4.154000e+00,0.38,3.4
-4.153000e+00,0.34,3.44
-4.152000e+00,0.26,3.4
-4.151000e+00,0.48,3.44
-4.150000e+00,0.46,3.4
-4.149000e+00,0.46,3.4
-4.148000e+00,0.7,3.44
-4.147000e+00,0.6,3.4
-4.146000e+00,0.38,3.44
-4.145000e+00,0.34,3.4
-4.144000e+00,0.3,3.4
-4.143000e+00,0.1,3.36
-4.142000e+00,0.16,3.4
-4.141000e+00,0.06,3.44
-4.140000e+00,0.5,3.4
-4.139000e+00,0.28,3.44
-4.138000e+00,0.32,3.44
-4.137000e+00,0.3,3.44
