measurements/tek0002CH1.csv

Model,MDO3034
Firmware Version,1.08

Waveform Type,ANALOG
Point Format,Y
Horizontal Units,s
Horizontal Scale,0.4
Horizontal Delay,0
Sample Interval,0.0004
Record Length,10000
Gating,0.0% to 100.0%
Probe Attenuation,10
Vertical Units,V
Vertical Offset,0
Vertical Scale,1
Vertical Position,0
,
,
,
Label,M2024
TIME,CH1
-2.000000e+00,1.4
-1.999600e+00,1.32
-1.999200e+00,1.32
-1.998800e+00,1.36
-1.998400e+00,1.36
-1.998000e+00,1.36
-1.997600e+00,1.36
-1.997200e+00,1.36
-1.996800e+00,1.32
-1.996400e+00,1.36
-1.996000e+00,1.32
-1.995600e+00,1.36
-1.995200e+00,1.36
-1.994800e+00,1.4
-1.994400e+00,1.32
-1.994000e+00,1.36
-1.993600e+00,1.36
-1.993200e+00,1.36
-1.992800e+00,1.36
-1.992400e+00,1.36
-1.992000e+00,1.36
-1.991600e+00,1.36
-1.991200e+00,1.36
-1.990800e+00,1.32
-1.990400e+00,1.36
-1.990000e+00,1.36
-1.989600e+00,1.32
-1.989200e+00,1.36
-1.988800e+00,1.36
-1.988400e+00,1.36
-1.988000e+00,1.36
-1.987600e+00,1.32
-1.987200e+00,1.36
-1.986800e+00,1.36
-1.986400e+00,1.4
-1.986000e+00,1.36
-1.985600e+00,1.4
-1.985200e+00,1.36
-1.984800e+00,1.36
-1.984400e+00,1.32
-1.984000e+00,1.36
-1.983600e+00,1.36
-1.983200e+00,1.4
-1.982800e+00,1.4
-1.982400e+00,1.36
-1.982000e+00,1.36
-1.981600e+00,1.36
-1.981200e+00,1.36
-1.980800e+00,1.4
-1.980400e+00,1.36
-1.980000e+00,1.32
-1.979600e+00,1.36
-1.979200e+00,1.36
-1.978800e+00,1.4
-1.978400e+00,1.32
-1.978000e+00,1.36
-1.977600e+00,1.36
-1.977200e+00,1.36
-1.976800e+00,1.36
-1.976400e+00,1.36
-1.976000e+00,1.36
-1.975600e+00,1.4
-1.975200e+00,1.36
-1.974800e+00,1.36
-1.974400e+00,1.36
-1.974000e+00,1.36
-1.973600e+00,1.36
-1.973200e+00,1.36
-1.972800e+00,1.4
-1.972400e+00,1.36
-1.972000e+00,1.36
-1.971600e+00,1.36
-1.971200e+00,1.4
-1.970800e+00,1.36
-1.970400e+00,1.36
-1.970000e+00,1.36
-1.969600e+00,1.36
-1.969200e+00,1.36
-1.968800e+00,1.36
-1.968400e+00,1.36
-1.968000e+00,1.36
-1.967600e+00,1.36
-1.967200e+00,1.36
-1.966800e+00,1.4
-1.966400e+00,1.4
-1.966000e+00,1.32
-1.965600e+00,1.36
-1.965200e+00,1.32
-1.964800e+00,1.36
-1.964400e+00,1.36
-1.964000e+00,1.4
-1.963600e+00,1.36
-1.963200e+00,1.36
-1.962800e+00,1.4
-1.962400e+00,1.36
-1.962000e+00,1.36
-1.961600e+00,1.36
-1.961200e+00,1.36
-1.960800e+00,1.36
-1.960400e+00,1.4
-1.960000e+00,1.32
-1.959600e+00,1.4
-1.959200e+00,1.36
-1.958800e+00,1.36
-1.958400e+00,1.4
-1.958000e+00,1.4
-1.957600e+00,1.36
-1.957200e+00,1.4
-1.956800e+00,1.36
-1.956400e+00,1.36
-1.956000e+00,1.36
-1.955600e+00,1.32
-1.955200e+00,1.4
-1.954800e+00,1.4
-1.954400e+00,1.32
-1.954000e+00,1.32
-1.953600e+00,1.36
-1.953200e+00,1.36
-1.952800e+00,1.4
-1.952400e+00,1.32
-1.952000e+00,1.36
-1.951600e+00,1.36
-1.951200e+00,1.4
-1.950800e+00,1.32
-1.950400e+00,1.36
-1.950000e+00,1.36
-1.949600e+00,1.36
-1.949200e+00,1.36
-1.948800e+00,1.36
-1.948400e+00,1.36
-1.948000e+00,1.36
-1.947600e+00,1.36
-1.947200e+00,1.36
-1.946800e+00,1.36
-1.946400e+00,1.36
-1.946000e+00,1.36
-1.945600e+00,1.4
-1.945200e+00,1.36
-1.944800e+00,1.36
-1.944400e+00,1.36
-1.944000e+00,1.32
-1.943600e+00,1.36
-1.943200e+00,1.36
-1.942800e+00,1.36
-1.942400e+00,1.32
-1.942000e+00,1.36
-1.941600e+00,1.36
-1.941200e+00,1.36
-1.940800e+00,1.36
-1.940400e+00,1.32
-1.940000e+00,1.4
-1.939600e+00,1.36
-1.939200e+00,1.36
-1.938800e+00,1.36
-1.938400e+00,1.36
-1.938000e+00,1.32
-1.937600e+00,1.36
-1.937200e+00,1.32
-1.936800e+00,1.36
-1.936400e+00,1.36
-1.936000e+00,1.36
-1.935600e+00,1.4
-1.935200e+00,1.36
-1.934800e+00,1.36
-1.934400e+00,1.36
-1.934000e+00,1.36
-1.933600e+00,1.36
-1.933200e+00,1.4
-1.932800e+00,1.36
-1.932400e+00,1.4
-1.932000e+00,1.4
-1.931600e+00,1.36
-1.931200e+00,1.36
-1.930800e+00,1.36
-1.930400e+00,1.36
-1.930000e+00,1.4
-1.929600e+00,1.36
-1.929200e+00,1.4
-1.928800e+00,1.32
-1.928400e+00,1.32
-1.928000e+00,1.36
-1.927600e+00,1.36
-1.927200e+00,1.36
-1.926800e+00,1.36
-1.926400e+00,1.36
-1.926000e+00,1.32
-1.925600e+00,1.4
-1.925200e+00,1.36
-1.924800e+00,1.36
-1.924400e+00,1.36
-1.924000e+00,1.4
-1.923600e+00,1.36
-1.923200e+00,1.36
-1.922800e+00,1.4
-1.922400e+00,1.4
-1.922000e+00,1.4
-1.921600e+00,1.4
-1.921200e+00,1.36
-1.920800e+00,1.36
-1.920400e+00,1.36
-1.920000e+00,1.36
-1.919600e+00,1.36
-1.919200e+00,1.36
-1.918800e+00,1.36
-1.918400e+00,1.4
-1.918000e+00,1.36
-1.917600e+00,1.4
-1.917200e+00,1.36
-1.916800e+00,1.4
-1.916400e+00,1.36
-1.916000e+00,1.36
-1.915600e+00,1.4
-1.915200e+00,1.36
-1.914800e+00,1.4
-1.914400e+00,1.36
-1.914000e+00,1.36
-1.913600e+00,1.4
-1.913200e+00,1.36
-1.912800e+00,1.36
-1.912400e+00,1.4
-1.912000e+00,1.32
-1.911600e+00,1.36
-1.911200e+00,1.36
-1.910800e+00,1.36
-1.910400e+00,1.36
-1.910000e+00,1.36
-1.909600e+00,1.36
-1.909200e+00,1.4
-1.908800e+00,1.36
-1.908400e+00,1.36
-1.908000e+00,1.36
-1.907600e+00,1.36
-1.907200e+00,1.36
-1.906800e+00,1.36
-1.906400e+00,1.36
-1.906000e+00,1.4
-1.905600e+00,1.36
-1.905200e+00,1.36
-1.904800e+00,1.4
-1.904400e+00,1.36
-1.904000e+00,1.36
-1.903600e+00,1.36
-1.903200e+00,1.36
-1.902800e+00,1.36
-1.902400e+00,1.36
-1.902000e+00,1.32
-1.901600e+00,1.36
-1.901200e+00,1.4
-1.900800e+00,1.4
-1.900400e+00,1.36
-1.900000e+00,1.36
-1.899600e+00,1.36
-1.899200e+00,1.36
-1.898800e+00,1.36
-1.898400e+00,1.36
-1.898000e+00,1.4
-1.897600e+00,1.36
-1.897200e+00,1.4
-1.896800e+00,1.36
-1.896400e+00,1.36
-1.896000e+00,1.36
-1.895600e+00,1.36
-1.895200e+00,1.36
-1.894800e+00,1.36
-1.894400e+00,1.36
-1.894000e+00,1.4
-1.893600e+00,1.36
-1.893200e+00,1.36
-1.892800e+00,1.32
-1.892400e+00,1.36
-1.892000e+00,1.36
-1.891600e+00,1.36
-1.891200e+00,1.36
-1.890800e+00,1.4
-1.890400e+00,1.36
-1.890000e+00,1.36
-1.889600e+00,1.36
-1.889200e+00,1.36
-1.888800e+00,1.36
-1.888400e+00,1.36
-1.888000e+00,1.36
-1.887600e+00,1.36
-1.887200e+00,1.36
-1.886800e+00,1.4
-1.886400e+00,1.4
-1.886000e+00,1.36
-1.885600e+00,1.36
-1.885200e+00,1.4
-1.884800e+00,1.36
-1.884400e+00,1.36
-1.884000e+00,1.32
-1.883600e+00,1.4
-1.883200e+00,1.36
-1.882800e+00,1.36
-1.882400e+00,1.4
-1.882000e+00,1.36
-1.881600e+00,1.36
-1.881200e+00,1.32
-1.880800e+00,1.36
-1.880400e+00,1.36
-1.880000e+00,1.4
-1.879600e+00,1.4
-1.879200e+00,1.32
-1.878800e+00,1.36
-1.878400e+00,1.36
-1.878000e+00,1.4
-1.877600e+00,1.32
-1.877200e+00,1.4
-1.876800e+00,1.36
-1.876400e+00,1.36
-1.876000e+00,1.4
-1.875600e+00,1.4
-1.875200e+00,1.4
-1.874800e+00,1.36
-1.874400e+00,1.36
-1.874000e+00,1.36
-1.873600e+00,1.4
-1.873200e+00,1.36
-1.872800e+00,1.4
-1.872400e+00,1.36
-1.872000e+00,1.36
-1.871600e+00,1.36
-1.871200e+00,1.36
-1.870800e+00,1.36
-1.870400e+00,1.36
-1.870000e+00,1.36
-1.869600e+00,1.36
-1.869200e+00,1.36
-1.868800e+00,1.4
-1.868400e+00,1.4
-1.868000e+00,1.36
-1.867600e+00,1.36
-1.867200e+00,1.36
-1.866800e+00,1.36
-1.866400e+00,1.36
-1.866000e+00,1.36
-1.865600e+00,1.32
-1.865200e+00,1.36
-1.864800e+00,1.4
-1.864400e+00,1.36
-1.864000e+00,1.36
-1.863600e+00,1.4
-1.863200e+00,1.36
-1.862800e+00,1.32
-1.862400e+00,1.36
-1.862000e+00,1.4
-1.861600e+00,1.24
-1.861200e+00,1.24
-1.860800e+00,1.24
-1.860400e+00,1.2
-1.860000e+00,1.28
-1.859600e+00,1.28
-1.859200e+00,1.2
-1.858800e+00,1.2
-1.858400e+00,1.24
-1.858000e+00,1.32
-1.857600e+00,1.16
-1.857200e+00,1.2
-1.856800e+00,1.2
-1.856400e+00,1.24
-1.856000e+00,1.36
-1.855600e+00,1.4
-1.855200e+00,1.8
-1.854800e+00,1.56
-1.854400e+00,1.48
-1.854000e+00,1.4
-1.853600e+00,1.4
-1.853200e+00,1.28
-1.852800e+00,1.24
-1.852400e+00,1.24
-1.852000e+00,1.2
-1.851600e+00,1.24
-1.851200e+00,1.16
-1.850800e+00,1.16
-1.850400e+00,1.04
-1.850000e+00,1.12
-1.849600e+00,1
-1.849200e+00,0.96
-1.848800e+00,1.04
-1.848400e+00,1.04
-1.848000e+00,0.92
-1.847600e+00,0.96
-1.847200e+00,1.16
-1.846800e+00,1.28
-1.846400e+00,1.12
-1.846000e+00,1.04
-1.845600e+00,1.04
-1.845200e+00,1.04
-1.844800e+00,0.96
-1.844400e+00,1
-1.844000e+00,1
-1.843600e+00,0.96
-1.843200e+00,1.04
-1.842800e+00,1
-1.842400e+00,0.92
-1.842000e+00,1.04
-1.841600e+00,1.08
-1.841200e+00,0.88
-1.840800e+00,0.92
-1.840400e+00,0.92
-1.840000e+00,0.96
-1.839600e+00,0.96
-1.839200e+00,1.16
-1.838800e+00,1.48
-1.838400e+00,1.32
-1.838000e+00,0.96
-1.837600e+00,1.08
-1.837200e+00,1.16
-1.836800e+00,1.08
-1.836400e+00,1.04
-1.836000e+00,1
-1.835600e+00,0.96
-1.835200e+00,0.96
-1.834800e+00,0.96
-1.834400e+00,0.88
-1.834000e+00,0.92
-1.833600e+00,0.76
-1.833200e+00,0.6
-1.832800e+00,0.64
-1.832400e+00,0.72
-1.832000e+00,0.76
-1.831600e+00,0.8
-1.831200e+00,0.76
-1.830800e+00,0.72
-1.830400e+00,0.96
-1.830000e+00,0.56
-1.829600e+00,0.88
-1.829200e+00,0.8
-1.828800e+00,0.76
-1.828400e+00,0.76
-1.828000e+00,0.8
-1.827600e+00,0.76
-1.827200e+00,0.76
-1.826800e+00,0.76
-1.826400e+00,0.76
-1.826000e+00,0.72
-1.825600e+00,0.72
-1.825200e+00,0.8
-1.824800e+00,0.68
-1.824400e+00,0.6
-1.824000e+00,0.76
-1.823600e+00,0.68
-1.823200e+00,0.72
-1.822800e+00,0.76
-1.822400e+00,0.84
-1.822000e+00,1.24
-1.821600e+00,0.96
-1.821200e+00,0.92
-1.820800e+00,0.84
-1.820400e+00,0.92
-1.820000e+00,0.76
-1.819600e+00,0.76
-1.819200e+00,0.76
-1.818800e+00,0.72
-1.818400e+00,0.72
-1.818000e+00,0.72
-1.817600e+00,0.6
-1.817200e+00,0.72
-1.816800e+00,0.6
-1.816400e+00,0.48
-1.816000e+00,0.44
-1.815600e+00,0.48
-1.815200e+00,0.52
-1.814800e+00,0.52
-1.814400e+00,0.52
-1.814000e+00,0.48
-1.813600e+00,0.68
-1.813200e+00,0.44
-1.812800e+00,0.52
-1.812400e+00,0.52
-1.812000e+00,0.56
-1.811600e+00,0.48
-1.811200e+00,0.52
-1.810800e+00,0.52
-1.810400e+00,0.56
-1.810000e+00,0.48
-1.809600e+00,0.48
-1.809200e+00,0.44
-1.808800e+00,0.48
-1.808400e+00,0.44
-1.808000e+00,0.44
-1.807600e+00,0.48
-1.807200e+00,0.48
-1.806800e+00,0.48
-1.806400e+00,0.48
-1.806000e+00,0.56
-1.805600e+00,0.92
-1.805200e+00,0.92
-1.804800e+00,0.88
-1.804400e+00,0.68
-1.804000e+00,0.64
-1.803600e+00,0.6
-1.803200e+00,0.56
-1.802800e+00,0.52
-1.802400e+00,0.52
-1.802000e+00,0.44
-1.801600e+00,0.52
-1.801200e+00,0.44
-1.800800e+00,0.4
-1.800400e+00,0.32
-1.800000e+00,0.32
-1.799600e+00,0.28
-1.799200e+00,0.2
-1.798800e+00,0.24
-1.798400e+00,0.28
-1.798000e+00,0.24
-1.797600e+00,0.24
-1.797200e+00,0.4
-1.796800e+00,0.36
-1.796400e+00,0.32
-1.796000e+00,0.24
-1.795600e+00,0.32
-1.795200e+00,0.32
-1.794800e+00,0.24
-1.794400e+00,0.28
-1.794000e+00,0.24
-1.793600e+00,0.28
-1.793200e+00,0.28
-1.792800e+00,0.24
-1.792400e+00,0.2
-1.792000e+00,0.36
-1.791600e+00,0.24
-1.791200e+00,0.16
-1.790800e+00,0.28
-1.790400e+00,0.2
-1.790000e+00,0.24
-1.789600e+00,0.24
-1.789200e+00,0.84
-1.788800e+00,0.68
-1.788400e+00,0.48
-1.788000e+00,0.24
-1.787600e+00,0.32
-1.787200e+00,0.36
-1.786800e+00,0.32
-1.786400e+00,0.36
-1.786000e+00,0.28
-1.785600e+00,0.28
-1.785200e+00,0.24
-1.784800e+00,0.2
-1.784400e+00,0.16
-1.784000e+00,0.24
-1.783600e+00,0.08
-1.783200e+00,0.04
-1.782800e+00,0
-1.782400e+00,0.04
-1.782000e+00,0.04
-1.781600e+00,0.04
-1.781200e+00,0.04
-1.780800e+00,0.04
-1.780400e+00,0.24
-1.780000e+00,-0.04
-1.779600e+00,0.16
-1.779200e+00,0.08
-1.778800e+00,0.12
-1.778400e+00,0.04
-1.778000e+00,0.08
-1.777600e+00,0.08
-1.777200e+00,0.08
-1.776800e+00,0.04
-1.776400e+00,0.04
-1.776000e+00,0.08
-1.775600e+00,0.08
-1.775200e+00,0.12
-1.774800e+00,0.04
-1.774400e+00,0
-1.774000e+00,0.08
-1.773600e+00,0.04
-1.773200e+00,0.04
-1.772800e+00,0.08
-1.772400e+00,0.16
-1.772000e+00,0.56
-1.771600e+00,-0.04
-1.771200e+00,0.2
-1.770800e+00,0.08
-1.770400e+00,0.12
-1.770000e+00,0.12
-1.769600e+00,0.12
-1.769200e+00,0.08
-1.768800e+00,0.08
-1.768400e+00,0.04
-1.768000e+00,0.04
-1.767600e+00,0
-1.767200e+00,0
-1.766800e+00,0
-1.766400e+00,-0.04
-1.766000e+00,-0.04
-1.765600e+00,-0.04
-1.765200e+00,-0.04
-1.764800e+00,0
-1.764400e+00,-0.04
-1.764000e+00,-0.04
-1.763600e+00,0.08
-1.763200e+00,-0.04
-1.762800e+00,-0.04
-1.762400e+00,-0.08
-1.762000e+00,-0.04
-1.761600e+00,-0.04
-1.761200e+00,0
-1.760800e+00,0
-1.760400e+00,-0.04
-1.760000e+00,-0.04
-1.759600e+00,-0.04
-1.759200e+00,-0.08
-1.758800e+00,-0.04
-1.758400e+00,-0.04
-1.758000e+00,-0.04
-1.757600e+00,-0.04
-1.757200e+00,-0.04
-1.756800e+00,-0.04
-1.756400e+00,-0.04
-1.756000e+00,-0.04
-1.755600e+00,0.08
-1.755200e+00,0.28
-1.754800e+00,0.24
-1.754400e+00,0.08
-1.754000e+00,0.04
-1.753600e+00,0
-1.753200e+00,0
-1.752800e+00,0
-1.752400e+00,-0.04
-1.752000e+00,-0.04
-1.751600e+00,-0.04
-1.751200e+00,-0.04
-1.750800e+00,-0.04
-1.750400e+00,0
-1.750000e+00,-0.04
-1.749600e+00,-0.04
-1.749200e+00,0
-1.748800e+00,-0.04
-1.748400e+00,-0.04
-1.748000e+00,-0.04
-1.747600e+00,-0.04
-1.747200e+00,-0.04
-1.746800e+00,0
-1.746400e+00,-0.04
-1.746000e+00,0
-1.745600e+00,-0.04
-1.745200e+00,-0.04
-1.744800e+00,-0.04
-1.744400e+00,0
-1.744000e+00,-0.04
-1.743600e+00,-0.04
-1.743200e+00,0
-1.742800e+00,-0.04
-1.742400e+00,-0.04
-1.742000e+00,-0.04
-1.741600e+00,0
-1.741200e+00,0
-1.740800e+00,0
-1.740400e+00,0
-1.740000e+00,-0.04
-1.739600e+00,0
-1.739200e+00,-0.04
-1.738800e+00,0
-1.738400e+00,0.12
-1.738000e+00,-0.04
-1.737600e+00,0
-1.737200e+00,-0.04
-1.736800e+00,-0.04
-1.736400e+00,-0.04
-1.736000e+00,-0.04
-1.735600e+00,-0.04
-1.735200e+00,0
-1.734800e+00,-0.04
-1.734400e+00,-0.04
-1.734000e+00,-0.04
-1.733600e+00,-0.04
-1.733200e+00,0
-1.732800e+00,-0.04
-1.732400e+00,0
-1.732000e+00,-0.04
-1.731600e+00,0
-1.731200e+00,-0.08
-1.730800e+00,-0.04
-1.730400e+00,0
-1.730000e+00,-0.04
-1.729600e+00,-0.04
-1.729200e+00,-0.04
-1.728800e+00,-0.04
-1.728400e+00,0
-1.728000e+00,-0.04
-1.727600e+00,-0.04
-1.727200e+00,-0.04
-1.726800e+00,-0.04
-1.726400e+00,-0.04
-1.726000e+00,-0.08
-1.725600e+00,-0.04
-1.725200e+00,-0.04
-1.724800e+00,-0.04
-1.724400e+00,-0.04
-1.724000e+00,0
-1.723600e+00,0
-1.723200e+00,0
-1.722800e+00,0
-1.722400e+00,-0.04
-1.722000e+00,-0.04
-1.721600e+00,-0.04
-1.721200e+00,-0.04
-1.720800e+00,-0.04
-1.720400e+00,-0.04
-1.720000e+00,0
-1.719600e+00,-0.04
-1.719200e+00,-0.04
-1.718800e+00,0
-1.718400e+00,-0.04
-1.718000e+00,-0.04
-1.717600e+00,-0.04
-1.717200e+00,-0.04
-1.716800e+00,-0.04
-1.716400e+00,-0.04
-1.716000e+00,-0.04
-1.715600e+00,0
-1.715200e+00,-0.04
-1.714800e+00,-0.04
-1.714400e+00,0
-1.714000e+00,-0.04
-1.713600e+00,0
-1.713200e+00,-0.04
-1.712800e+00,-0.04
-1.712400e+00,-0.04
-1.712000e+00,-0.04
-1.711600e+00,-0.04
-1.711200e+00,-0.04
-1.710800e+00,-0.04
-1.710400e+00,0
-1.710000e+00,-0.08
-1.709600e+00,-0.04
-1.709200e+00,-0.04
-1.708800e+00,-0.04
-1.708400e+00,-0.04
-1.708000e+00,-0.04
-1.707600e+00,-0.04
-1.707200e+00,-0.04
-1.706800e+00,-0.04
-1.706400e+00,0
-1.706000e+00,-0.04
-1.705600e+00,-0.04
-1.705200e+00,-0.04
-1.704800e+00,-0.04
-1.704400e+00,0
-1.704000e+00,-0.04
-1.703600e+00,-0.04
-1.703200e+00,-0.04
-1.702800e+00,-0.04
-1.702400e+00,0
-1.702000e+00,-0.04
-1.701600e+00,-0.04
-1.701200e+00,-0.04
-1.700800e+00,0
-1.700400e+00,-0.04
-1.700000e+00,0
-1.699600e+00,0
-1.699200e+00,-0.04
-1.698800e+00,-0.04
-1.698400e+00,-0.04
-1.698000e+00,-0.04
-1.697600e+00,-0.04
-1.697200e+00,-0.04
-1.696800e+00,-0.04
-1.696400e+00,-0.04
-1.696000e+00,-0.04
-1.695600e+00,-0.04
-1.695200e+00,-0.04
-1.694800e+00,0
-1.694400e+00,-0.04
-1.694000e+00,-0.04
-1.693600e+00,0
-1.693200e+00,-0.04
-1.692800e+00,-0.04
-1.692400e+00,-0.04
-1.692000e+00,-0.04
-1.691600e+00,-0.04
-1.691200e+00,-0.04
-1.690800e+00,-0.04
-1.690400e+00,-0.04
-1.690000e+00,-0.04
-1.689600e+00,0
-1.689200e+00,0
-1.688800e+00,-0.04
-1.688400e+00,-0.04
-1.688000e+00,-0.04
-1.687600e+00,-0.04
-1.687200e+00,-0.04
-1.686800e+00,-0.04
-1.686400e+00,-0.04
-1.686000e+00,-0.04
-1.685600e+00,-0.04
-1.685200e+00,-0.08
-1.684800e+00,-0.04
-1.684400e+00,-0.04
-1.684000e+00,-0.04
-1.683600e+00,-0.04
-1.683200e+00,-0.04
-1.682800e+00,-0.04
-1.682400e+00,-0.08
-1.682000e+00,-0.04
-1.681600e+00,-0.08
-1.681200e+00,0
-1.680800e+00,-0.04
-1.680400e+00,-0.04
-1.680000e+00,-0.04
-1.679600e+00,0
-1.679200e+00,-0.04
-1.678800e+00,-0.04
-1.678400e+00,-0.08
-1.678000e+00,-0.04
-1.677600e+00,-0.04
-1.677200e+00,-0.04
-1.676800e+00,-0.04
-1.676400e+00,-0.04
-1.676000e+00,-0.04
-1.675600e+00,-0.04
-1.675200e+00,0
-1.674800e+00,-0.04
-1.674400e+00,-0.04
-1.674000e+00,-0.04
-1.673600e+00,-0.04
-1.673200e+00,-0.04
-1.672800e+00,-0.04
-1.672400e+00,-0.04
-1.672000e+00,-0.04
-1.671600e+00,0
-1.671200e+00,-0.04
-1.670800e+00,-0.04
-1.670400e+00,0
-1.670000e+00,-0.04
-1.669600e+00,-0.04
-1.669200e+00,-0.04
-1.668800e+00,-0.04
-1.668400e+00,-0.04
-1.668000e+00,-0.04
-1.667600e+00,-0.04
-1.667200e+00,-0.04
-1.666800e+00,0
-1.666400e+00,-0.04
-1.666000e+00,-0.04
-1.665600e+00,0
-1.665200e+00,-0.04
-1.664800e+00,-0.04
-1.664400e+00,0
-1.664000e+00,0
-1.663600e+00,-0.04
-1.663200e+00,0
-1.662800e+00,-0.04
-1.662400e+00,-0.04
-1.662000e+00,-0.04
-1.661600e+00,0
-1.661200e+00,-0.04
-1.660800e+00,-0.04
-1.660400e+00,-0.04
-1.660000e+00,-0.08
-1.659600e+00,-0.04
-1.659200e+00,-0.04
-1.658800e+00,-0.04
-1.658400e+00,-0.04
-1.658000e+00,0
-1.657600e+00,-0.04
-1.657200e+00,-0.04
-1.656800e+00,-0.04
-1.656400e+00,-0.04
-1.656000e+00,-0.04
-1.655600e+00,-0.04
-1.655200e+00,-0.04
-1.654800e+00,-0.04
-1.654400e+00,-0.04
-1.654000e+00,-0.04
-1.653600e+00,0
-1.653200e+00,-0.04
-1.652800e+00,-0.04
-1.652400e+00,-0.04
-1.652000e+00,-0.04
-1.651600e+00,-0.04
-1.651200e+00,-0.04
-1.650800e+00,0
-1.650400e+00,-0.04
-1.650000e+00,-0.04
-1.649600e+00,-0.04
-1.649200e+00,-0.08
-1.648800e+00,-0.04
-1.648400e+00,-0.04
-1.648000e+00,-0.04
-1.647600e+00,0
-1.647200e+00,-0.04
-1.646800e+00,-0.04
-1.646400e+00,-0.04
-1.646000e+00,-0.04
-1.645600e+00,-0.04
-1.645200e+00,-0.04
-1.644800e+00,-0.04
-1.644400e+00,0
-1.644000e+00,-0.04
-1.643600e+00,-0.04
-1.643200e+00,-0.04
-1.642800e+00,-0.04
-1.642400e+00,-0.04
-1.642000e+00,-0.12
-1.641600e+00,-0.04
-1.641200e+00,-0.04
-1.640800e+00,0
-1.640400e+00,-0.04
-1.640000e+00,-0.04
-1.639600e+00,-0.04
-1.639200e+00,-0.04
-1.638800e+00,-0.04
-1.638400e+00,-0.04
-1.638000e+00,-0.04
-1.637600e+00,-0.04
-1.637200e+00,-0.04
-1.636800e+00,0
-1.636400e+00,-0.04
-1.636000e+00,-0.04
-1.635600e+00,-0.04
-1.635200e+00,-0.04
-1.634800e+00,-0.04
-1.634400e+00,-0.04
-1.634000e+00,-0.04
-1.633600e+00,-0.04
-1.633200e+00,0
-1.632800e+00,0
-1.632400e+00,-0.04
-1.632000e+00,-0.04
-1.631600e+00,-0.04
-1.631200e+00,-0.04
-1.630800e+00,0
-1.630400e+00,-0.04
-1.630000e+00,-0.04
-1.629600e+00,0
-1.629200e+00,-0.04
-1.628800e+00,-0.04
-1.628400e+00,-0.04
-1.628000e+00,-0.04
-1.627600e+00,-0.04
-1.627200e+00,-0.04
-1.626800e+00,-0.04
-1.626400e+00,-0.04
-1.626000e+00,-0.08
-1.625600e+00,-0.04
-1.625200e+00,-0.04
-1.624800e+00,-0.04
-1.624400e+00,-0.04
-1.624000e+00,0
-1.623600e+00,-0.04
-1.623200e+00,-0.04
-1.622800e+00,-0.04
-1.622400e+00,-0.04
-1.622000e+00,-0.04
-1.621600e+00,-0.04
-1.621200e+00,-0.04
-1.620800e+00,0
-1.620400e+00,-0.04
-1.620000e+00,-0.04
-1.619600e+00,-0.04
-1.619200e+00,-0.04
-1.618800e+00,-0.04
-1.618400e+00,-0.04
-1.618000e+00,-0.04
-1.617600e+00,-0.04
-1.617200e+00,-0.04
-1.616800e+00,0
-1.616400e+00,-0.04
-1.616000e+00,-0.04
-1.615600e+00,-0.08
-1.615200e+00,-0.04
-1.614800e+00,-0.04
-1.614400e+00,-0.04
-1.614000e+00,0
-1.613600e+00,0
-1.613200e+00,-0.04
-1.612800e+00,0
-1.612400e+00,-0.04
-1.612000e+00,-0.04
-1.611600e+00,-0.04
-1.611200e+00,-0.04
-1.610800e+00,-0.04
-1.610400e+00,0
-1.610000e+00,-0.04
-1.609600e+00,0
-1.609200e+00,0
-1.608800e+00,-0.04
-1.608400e+00,-0.04
-1.608000e+00,-0.04
-1.607600e+00,-0.04
-1.607200e+00,-0.04
-1.606800e+00,0
-1.606400e+00,-0.04
-1.606000e+00,-0.04
-1.605600e+00,-0.04
-1.605200e+00,-0.04
-1.604800e+00,-0.04
-1.604400e+00,-0.04
-1.604000e+00,-0.04
-1.603600e+00,-0.04
-1.603200e+00,-0.04
-1.602800e+00,-0.04
-1.602400e+00,-0.04
-1.602000e+00,-0.04
-1.601600e+00,-0.04
-1.601200e+00,-0.04
-1.600800e+00,-0.04
-1.600400e+00,0
-1.600000e+00,-0.04
-1.599600e+00,-0.04
-1.599200e+00,-0.04
-1.598800e+00,-0.04
-1.598400e+00,0
-1.598000e+00,-0.04
-1.597600e+00,-0.04
-1.597200e+00,-0.04
-1.596800e+00,-0.08
-1.596400e+00,0
-1.596000e+00,-0.04
-1.595600e+00,-0.04
-1.595200e+00,-0.04
-1.594800e+00,-0.04
-1.594400e+00,-0.08
-1.594000e+00,-0.04
-1.593600e+00,-0.04
-1.593200e+00,-0.04
-1.592800e+00,-0.04
-1.592400e+00,-0.04
-1.592000e+00,-0.04
-1.591600e+00,0
-1.591200e+00,-0.04
-1.590800e+00,-0.04
-1.590400e+00,-0.04
-1.590000e+00,-0.04
-1.589600e+00,0
-1.589200e+00,-0.04
-1.588800e+00,0
-1.588400e+00,0
-1.588000e+00,-0.04
-1.587600e+00,-0.04
-1.587200e+00,-0.04
-1.586800e+00,-0.04
-1.586400e+00,-0.04
-1.586000e+00,-0.08
-1.585600e+00,0
