measurements/slope_450fF/tek0001ALL.csv

Model,MDO3034
Firmware Version,1.08

Waveform Type,ANALOG,,
Point Format,Y,,
Horizontal Units,s,,
Horizontal Scale,1e-05,,
Horizontal Delay,0,,
Sample Interval,1e-08,,
Record Length,10000,,
Gating,0.0% to 100.0%,,
Probe Attenuation,10,10,1
Vertical Units,V,V,V
Vertical Offset,0,0,0
Vertical Scale,1,1,1
Vertical Position,0,-0.02,0
,,,
,,,
,,,
Label,M2024,M2029,M2030
TIME,CH1,CH3,CH4
-5.000000e-05,-0.0209375,1.63422,3.23328
-4.999000e-05,-0.0209375,1.63688,3.23234
-4.998000e-05,-0.0201563,1.63547,3.23281
-4.997000e-05,-0.0204688,1.63719,3.23156
-4.996000e-05,-0.0232812,1.63656,3.23234
-4.995000e-05,-0.0203125,1.63375,3.23344
-4.994000e-05,-0.0220312,1.63625,3.23609
-4.993000e-05,-0.0204688,1.63578,3.23297
-4.992000e-05,-0.0217188,1.63469,3.23453
-4.991000e-05,-0.020625,1.63719,3.2325
-4.990000e-05,-0.0209375,1.63625,3.23172
-4.989000e-05,-0.0210938,1.63563,3.23156
-4.988000e-05,-0.02125,1.63781,3.23578
-4.987000e-05,-0.0195312,1.63484,3.23234
-4.986000e-05,-0.0217188,1.63625,3.23141
-4.985000e-05,-0.0221875,1.63719,3.23281
-4.984000e-05,-0.0220312,1.63672,3.23406
-4.983000e-05,-0.0217188,1.63734,3.23047
-4.982000e-05,-0.020625,1.63922,3.23109
-4.981000e-05,-0.020625,1.63578,3.23281
-4.980000e-05,-0.0203125,1.63625,3.23547
-4.979000e-05,-0.0207813,1.63828,3.23625
-4.978000e-05,-0.0209375,1.63484,3.23078
-4.977000e-05,-0.0214063,1.63328,3.23219
-4.976000e-05,-0.0214063,1.63672,3.23266
-4.975000e-05,-0.0225,1.63328,3.23109
-4.974000e-05,-0.0210938,1.63734,3.23453
-4.973000e-05,-0.0214063,1.63422,3.22875
-4.972000e-05,-0.0215625,1.63578,3.23313
-4.971000e-05,-0.0209375,1.63781,3.23094
-4.970000e-05,-0.0207813,1.63719,3.23344
-4.969000e-05,-0.0210938,1.63703,3.2325
-4.968000e-05,-0.02,1.63531,3.23344
-4.967000e-05,-0.02,1.63766,3.23203
-4.966000e-05,-0.0214063,1.63688,3.23219
-4.965000e-05,-0.0210938,1.63828,3.23359
-4.964000e-05,-0.0209375,1.63594,3.23313
-4.963000e-05,-0.02,1.63516,3.23594
-4.962000e-05,-0.0215625,1.63719,3.23422
-4.961000e-05,-0.0207813,1.63375,3.23094
-4.960000e-05,-0.0214063,1.63734,3.23125
-4.959000e-05,-0.0214063,1.63781,3.23062
-4.958000e-05,-0.020625,1.63594,3.22828
-4.957000e-05,-0.02125,1.63797,3.23375
-4.956000e-05,-0.0207813,1.63813,3.23641
-4.955000e-05,-0.0190625,1.63563,3.23156
-4.954000e-05,-0.0203125,1.63438,3.23062
-4.953000e-05,-0.0223437,1.63547,3.23313
-4.952000e-05,-0.0215625,1.63578,3.23375
-4.951000e-05,-0.02125,1.63734,3.23219
-4.950000e-05,-0.0207813,1.63672,3.23125
-4.949000e-05,-0.02,1.63734,3.23281
-4.948000e-05,-0.019375,1.63578,3.23625
-4.947000e-05,-0.021875,1.63766,3.23359
-4.946000e-05,-0.02125,1.63609,3.23203
-4.945000e-05,-0.0204688,1.63594,3.23141
-4.944000e-05,-0.0207813,1.63641,3.2325
-4.943000e-05,-0.0229687,1.63703,3.22984
-4.942000e-05,-0.020625,1.63859,3.23453
-4.941000e-05,-0.020625,1.63563,3.23078
-4.940000e-05,-0.0217188,1.63734,3.23234
-4.939000e-05,-0.0204688,1.63734,3.23031
-4.938000e-05,-0.0204688,1.6375,3.23328
-4.937000e-05,-0.0209375,1.63719,3.23422
-4.936000e-05,-0.0196875,1.63688,3.23453
-4.935000e-05,-0.020625,1.63797,3.23188
-4.934000e-05,-0.02125,1.63688,3.23125
-4.933000e-05,-0.0210938,1.63875,3.23109
-4.932000e-05,-0.0215625,1.63703,3.23234
-4.931000e-05,-0.020625,1.63672,3.23516
-4.930000e-05,-0.0220312,1.63781,3.23406
-4.929000e-05,-0.0214063,1.63578,3.23313
-4.928000e-05,-0.0217188,1.63625,3.23453
-4.927000e-05,-0.0207813,1.6375,3.23062
-4.926000e-05,-0.0223437,1.63734,3.23062
-4.925000e-05,-0.0215625,1.63734,3.23188
-4.924000e-05,-0.0215625,1.63875,3.23813
-4.923000e-05,-0.0190625,1.63594,3.23438
-4.922000e-05,-0.0204688,1.63703,3.23141
-4.921000e-05,-0.02125,1.63688,3.23281
-4.920000e-05,-0.02125,1.63844,3.23563
-4.919000e-05,-0.0209375,1.63828,3.23031
-4.918000e-05,-0.0215625,1.63922,3.23266
-4.917000e-05,-0.0204688,1.63703,3.23234
-4.916000e-05,-0.0192187,1.63719,3.23734
-4.915000e-05,-0.0223437,1.63828,3.23172
-4.914000e-05,-0.0210938,1.63453,3.23078
-4.913000e-05,-0.0210938,1.63656,3.23359
-4.912000e-05,-0.0210938,1.63656,3.22953
-4.911000e-05,-0.0221875,1.63609,3.23047
-4.910000e-05,-0.0198438,1.63844,3.23672
-4.909000e-05,-0.0209375,1.63484,3.22969
-4.908000e-05,-0.0210938,1.6375,3.23047
-4.907000e-05,-0.0214063,1.63766,3.23125
-4.906000e-05,-0.0207813,1.63859,3.23266
-4.905000e-05,-0.0204688,1.63672,3.23219
-4.904000e-05,-0.0196875,1.63516,3.23328
-4.903000e-05,-0.02,1.63922,3.23125
-4.902000e-05,-0.0207813,1.63672,3.23172
-4.901000e-05,-0.0204688,1.63813,3.23188
-4.900000e-05,-0.02125,1.63609,3.23234
-4.899000e-05,-0.0204688,1.63594,3.23438
-4.898000e-05,-0.02125,1.63766,3.23687
-4.897000e-05,-0.02125,1.63844,3.23313
-4.896000e-05,-0.0204688,1.63766,3.23375
-4.895000e-05,-0.0210938,1.63688,3.23141
-4.894000e-05,-0.0209375,1.63813,3.22969
-4.893000e-05,-0.02125,1.63922,3.23266
-4.892000e-05,-0.0215625,1.63781,3.235
-4.891000e-05,-0.02,1.63609,3.23438
-4.890000e-05,-0.0209375,1.63766,3.23188
-4.889000e-05,-0.0217188,1.63625,3.23313
-4.888000e-05,-0.0215625,1.63766,3.23516
-4.887000e-05,-0.0210938,1.63688,3.23078
-4.886000e-05,-0.0204688,1.63922,3.23172
-4.885000e-05,-0.0203125,1.63688,3.23359
-4.884000e-05,-0.02,1.63797,3.23656
-4.883000e-05,-0.0215625,1.63844,3.23328
-4.882000e-05,-0.0210938,1.63594,3.23
-4.881000e-05,-0.0209375,1.63594,3.23234
-4.880000e-05,-0.0215625,1.63672,3.22938
-4.879000e-05,-0.021875,1.63484,3.23234
-4.878000e-05,-0.0196875,1.63938,3.23797
-4.877000e-05,-0.02125,1.63469,3.22938
-4.876000e-05,-0.0215625,1.63797,3.23125
-4.875000e-05,-0.0210938,1.6375,3.23188
-4.874000e-05,-0.0207813,1.63906,3.23438
-4.873000e-05,-0.0220312,1.63859,3.23281
-4.872000e-05,-0.0209375,1.63516,3.23359
-4.871000e-05,-0.020625,1.63891,3.23313
-4.870000e-05,-0.0201563,1.63719,3.23297
-4.869000e-05,-0.020625,1.63875,3.23188
-4.868000e-05,-0.0217188,1.63734,3.23391
-4.867000e-05,-0.0209375,1.63609,3.23406
-4.866000e-05,-0.0210938,1.63828,3.23609
-4.865000e-05,-0.0221875,1.63672,3.23266
-4.864000e-05,-0.0215625,1.63891,3.23281
-4.863000e-05,-0.0215625,1.6375,3.23203
-4.862000e-05,-0.0214063,1.63766,3.23172
-4.861000e-05,-0.0215625,1.63734,3.23094
-4.860000e-05,-0.0210938,1.63906,3.23625
-4.859000e-05,-0.0203125,1.63656,3.23141
-4.858000e-05,-0.020625,1.63781,3.23375
-4.857000e-05,-0.0220312,1.63797,3.23234
-4.856000e-05,-0.0210938,1.63969,3.23266
-4.855000e-05,-0.0207813,1.63813,3.23172
-4.854000e-05,-0.0207813,1.63844,3.23203
-4.853000e-05,-0.0196875,1.63641,3.23016
-4.852000e-05,-0.0189062,1.63828,3.23625
-4.851000e-05,-0.0215625,1.63953,3.23391
-4.850000e-05,-0.02125,1.63656,3.23172
-4.849000e-05,-0.0223437,1.63719,3.23313
-4.848000e-05,-0.0215625,1.63563,3.23031
-4.847000e-05,-0.021875,1.63563,3.23109
-4.846000e-05,-0.020625,1.63797,3.23734
-4.845000e-05,-0.0223437,1.63563,3.22891
-4.844000e-05,-0.0209375,1.63875,3.23297
-4.843000e-05,-0.0214063,1.63797,3.22984
-4.842000e-05,-0.0198438,1.63734,3.23313
-4.841000e-05,-0.0207813,1.63828,3.23641
-4.840000e-05,-0.0198438,1.63609,3.235
-4.839000e-05,-0.0204688,1.63891,3.23141
-4.838000e-05,-0.020625,1.63719,3.23203
-4.837000e-05,-0.0204688,1.63984,3.23406
-4.836000e-05,-0.021875,1.63594,3.23188
-4.835000e-05,-0.0201563,1.63906,3.23391
-4.834000e-05,-0.0217188,1.63734,3.23719
-4.833000e-05,-0.0214063,1.63641,3.23391
-4.832000e-05,-0.0209375,1.63969,3.23422
-4.831000e-05,-0.0209375,1.63828,3.22984
-4.830000e-05,-0.0210938,1.63625,3.23094
-4.829000e-05,-0.02125,1.63766,3.23391
-4.828000e-05,-0.0214063,1.63844,3.23594
-4.827000e-05,-0.0207813,1.63672,3.23344
-4.826000e-05,-0.0214063,1.63844,3.23203
-4.825000e-05,-0.0215625,1.63719,3.23344
-4.824000e-05,-0.020625,1.63813,3.2325
-4.823000e-05,-0.0207813,1.63891,3.22938
-4.822000e-05,-0.0207813,1.63844,3.23203
-4.821000e-05,-0.0203125,1.63672,3.23047
-4.820000e-05,-0.0195312,1.63859,3.23656
-4.819000e-05,-0.0223437,1.63766,3.23125
-4.818000e-05,-0.0214063,1.63797,3.22969
-4.817000e-05,-0.02125,1.63703,3.23328
-4.816000e-05,-0.0223437,1.63688,3.23031
-4.815000e-05,-0.021875,1.63625,3.23016
-4.814000e-05,-0.0209375,1.63938,3.23703
-4.813000e-05,-0.0201563,1.63594,3.22938
-4.812000e-05,-0.0210938,1.63828,3.23328
-4.811000e-05,-0.0210938,1.63859,3.22984
-4.810000e-05,-0.0204688,1.63813,3.23281
-4.809000e-05,-0.0210938,1.63875,3.23313
-4.808000e-05,-0.0195312,1.63688,3.23328
-4.807000e-05,-0.0215625,1.63938,3.23234
-4.806000e-05,-0.0223437,1.63734,3.23219
-4.805000e-05,-0.0209375,1.63828,3.23469
-4.804000e-05,-0.0220312,1.63781,3.22953
-4.803000e-05,-0.0214063,1.63828,3.23453
-4.802000e-05,-0.021875,1.63828,3.23703
-4.801000e-05,-0.0207813,1.63844,3.23328
-4.800000e-05,-0.020625,1.63984,3.23266
-4.799000e-05,-0.0204688,1.63781,3.23109
-4.798000e-05,-0.0214063,1.63891,3.23109
-4.797000e-05,-0.0215625,1.63906,3.23313
-4.796000e-05,-0.0214063,1.63844,3.23766
-4.795000e-05,-0.0190625,1.63813,3.23219
-4.794000e-05,-0.0214063,1.63797,3.23062
-4.793000e-05,-0.0207813,1.6375,3.23234
-4.792000e-05,-0.0220312,1.63797,3.23359
-4.791000e-05,-0.02125,1.63828,3.23219
-4.790000e-05,-0.0209375,1.63859,3.22984
-4.789000e-05,-0.0201563,1.63781,3.23172
-4.788000e-05,-0.0195312,1.63797,3.23625
-4.787000e-05,-0.02125,1.63797,3.2325
-4.786000e-05,-0.020625,1.63766,3.23062
-4.785000e-05,-0.02125,1.63781,3.23438
-4.784000e-05,-0.0217188,1.63688,3.22844
-4.783000e-05,-0.021875,1.63891,3.23234
-4.782000e-05,-0.0203125,1.63844,3.23625
-4.781000e-05,-0.02125,1.63641,3.22812
-4.780000e-05,-0.0214063,1.63922,3.23406
-4.779000e-05,-0.0210938,1.63859,3.23109
-4.778000e-05,-0.0210938,1.63828,3.23234
-4.777000e-05,-0.0210938,1.63859,3.235
-4.776000e-05,-0.0196875,1.63828,3.23125
-4.775000e-05,-0.0203125,1.63938,3.23281
-4.774000e-05,-0.0207813,1.63719,3.23047
-4.773000e-05,-0.0207813,1.63844,3.23344
-4.772000e-05,-0.0220312,1.63656,3.23219
-4.771000e-05,-0.0210938,1.63875,3.23531
-4.770000e-05,-0.02125,1.63844,3.23656
-4.769000e-05,-0.0217188,1.63906,3.23203
-4.768000e-05,-0.02125,1.63938,3.23094
-4.767000e-05,-0.0217188,1.63844,3.22969
-4.766000e-05,-0.0215625,1.63922,3.23188
-4.765000e-05,-0.0209375,1.63813,3.2325
-4.764000e-05,-0.0209375,1.63953,3.23844
-4.763000e-05,-0.020625,1.6375,3.23125
-4.762000e-05,-0.0214063,1.63875,3.23203
-4.761000e-05,-0.0217188,1.63781,3.23281
-4.760000e-05,-0.0214063,1.63953,3.23609
-4.759000e-05,-0.0210938,1.63891,3.23125
-4.758000e-05,-0.0203125,1.64,3.23109
-4.757000e-05,-0.0203125,1.63719,3.23047
-4.756000e-05,-0.019375,1.63891,3.23641
-4.755000e-05,-0.02125,1.63766,3.23156
-4.754000e-05,-0.0207813,1.63844,3.2325
-4.753000e-05,-0.0214063,1.63906,3.23391
-4.752000e-05,-0.0201563,1.63688,3.23047
-4.751000e-05,-0.0225,1.63797,3.23062
-4.750000e-05,-0.02,1.63875,3.2375
-4.749000e-05,-0.02125,1.63844,3.22938
-4.748000e-05,-0.02125,1.63625,3.23203
-4.747000e-05,-0.0214063,1.63859,3.22969
-4.746000e-05,-0.0203125,1.63859,3.23328
-4.745000e-05,-0.0204688,1.63875,3.23625
-4.744000e-05,-0.0204688,1.63656,3.23313
-4.743000e-05,-0.0198438,1.63922,3.23422
-4.742000e-05,-0.0215625,1.63734,3.23156
-4.741000e-05,-0.02,1.63844,3.23328
-4.740000e-05,-0.0215625,1.63828,3.23344
-4.739000e-05,-0.02,1.63828,3.23359
-4.738000e-05,-0.0207813,1.63734,3.23531
-4.737000e-05,-0.021875,1.63891,3.23078
-4.736000e-05,-0.0210938,1.63969,3.23141
-4.735000e-05,-0.0215625,1.63891,3.23062
-4.734000e-05,-0.020625,1.63969,3.23266
-4.733000e-05,-0.0215625,1.63984,3.23313
-4.732000e-05,-0.0198438,1.63875,3.23859
-4.731000e-05,-0.0204688,1.63688,3.23016
-4.730000e-05,-0.0210938,1.63797,3.23406
-4.729000e-05,-0.0221875,1.63828,3.23219
-4.728000e-05,-0.0209375,1.63953,3.23266
-4.727000e-05,-0.02125,1.63813,3.23219
-4.726000e-05,-0.0210938,1.63938,3.22938
-4.725000e-05,-0.0201563,1.63734,3.23125
-4.724000e-05,-0.0195312,1.63891,3.23687
-4.723000e-05,-0.0214063,1.63922,3.23062
-4.722000e-05,-0.0215625,1.63969,3.23172
-4.721000e-05,-0.0214063,1.63922,3.2325
-4.720000e-05,-0.0207813,1.63641,3.23047
-4.719000e-05,-0.0221875,1.63859,3.23109
-4.718000e-05,-0.02,1.64031,3.24203
-4.717000e-05,-0.0207813,1.63875,3.22672
-4.716000e-05,-0.0207813,1.63938,3.23453
-4.715000e-05,-0.0210938,1.63938,3.23203
-4.714000e-05,-0.020625,1.63922,3.23438
-4.713000e-05,-0.021875,1.63828,3.23453
-4.712000e-05,-0.0204688,1.63891,3.23359
-4.711000e-05,-0.0201563,1.63938,3.23281
-4.710000e-05,-0.0214063,1.63688,3.23078
-4.709000e-05,-0.0204688,1.63969,3.23563
-4.708000e-05,-0.0214063,1.63875,3.22859
-4.707000e-05,-0.0209375,1.63969,3.23328
-4.706000e-05,-0.0215625,1.63859,3.23656
-4.705000e-05,-0.0215625,1.63703,3.22953
-4.704000e-05,-0.0214063,1.63891,3.23391
-4.703000e-05,-0.0209375,1.63859,3.2325
-4.702000e-05,-0.0209375,1.63875,3.22922
-4.701000e-05,-0.0215625,1.63891,3.23094
-4.700000e-05,-0.0215625,1.63844,3.23953
-4.699000e-05,-0.0201563,1.63828,3.23078
-4.698000e-05,-0.0209375,1.63875,3.23266
-4.697000e-05,-0.0207813,1.63844,3.23281
-4.696000e-05,-0.0201563,1.63922,3.23219
-4.695000e-05,-0.0209375,1.63813,3.23219
-4.694000e-05,-0.0204688,1.63906,3.22859
-4.693000e-05,-0.0198438,1.63828,3.23094
-4.692000e-05,-0.0198438,1.63828,3.23516
-4.691000e-05,-0.0221875,1.63859,3.23219
-4.690000e-05,-0.020625,1.63969,3.22969
-4.689000e-05,-0.0214063,1.63688,3.23375
-4.688000e-05,-0.02125,1.63781,3.22938
-4.687000e-05,-0.0210938,1.63969,3.23109
-4.686000e-05,-0.0203125,1.63969,3.23906
-4.685000e-05,-0.0210938,1.63969,3.22641
-4.684000e-05,-0.0209375,1.63969,3.23203
-4.683000e-05,-0.0215625,1.63891,3.23078
-4.682000e-05,-0.0209375,1.64,3.23188
-4.681000e-05,-0.021875,1.63813,3.23563
-4.680000e-05,-0.0195312,1.63875,3.23188
-4.679000e-05,-0.0203125,1.63906,3.2325
-4.678000e-05,-0.0215625,1.63844,3.23203
-4.677000e-05,-0.02125,1.63953,3.23594
-4.676000e-05,-0.0215625,1.63813,3.23219
-4.675000e-05,-0.0209375,1.63859,3.23453
-4.674000e-05,-0.0210938,1.63875,3.23609
-4.673000e-05,-0.0214063,1.63875,3.23219
-4.672000e-05,-0.0209375,1.64016,3.23375
-4.671000e-05,-0.0223437,1.63859,3.23062
-4.670000e-05,-0.0217188,1.63859,3.23344
-4.669000e-05,-0.0210938,1.63875,3.23266
-4.668000e-05,-0.0210938,1.63828,3.23844
-4.667000e-05,-0.0196875,1.63781,3.23391
-4.666000e-05,-0.0209375,1.63906,3.2325
-4.665000e-05,-0.0209375,1.63922,3.23094
-4.664000e-05,-0.021875,1.63906,3.23344
-4.663000e-05,-0.0215625,1.63859,3.2325
-4.662000e-05,-0.02125,1.64016,3.22859
-4.661000e-05,-0.0190625,1.63875,3.23188
-4.660000e-05,-0.0192187,1.63953,3.23375
-4.659000e-05,-0.02125,1.63891,3.22812
-4.658000e-05,-0.020625,1.63984,3.23234
-4.657000e-05,-0.0215625,1.63906,3.23313
-4.656000e-05,-0.02125,1.63703,3.22875
-4.655000e-05,-0.021875,1.64047,3.23297
-4.654000e-05,-0.020625,1.64,3.23578
-4.653000e-05,-0.0209375,1.64,3.22812
-4.652000e-05,-0.0210938,1.63891,3.23313
-4.651000e-05,-0.0214063,1.63938,3.22969
-4.650000e-05,-0.0209375,1.63891,3.23359
-4.649000e-05,-0.0210938,1.63891,3.235
-4.648000e-05,-0.02,1.63813,3.23188
-4.647000e-05,-0.020625,1.64,3.23234
-4.646000e-05,-0.021875,1.63828,3.23031
-4.645000e-05,-0.0209375,1.64016,3.23484
-4.644000e-05,-0.021875,1.63813,3.22812
-4.643000e-05,-0.0201563,1.63984,3.23484
-4.642000e-05,-0.0210938,1.63766,3.23344
-4.641000e-05,-0.0207813,1.63719,3.23609
-4.640000e-05,-0.0209375,1.63969,3.23234
-4.639000e-05,-0.0209375,1.63891,3.23062
-4.638000e-05,-0.0207813,1.63859,3.23016
-4.637000e-05,-0.0223437,1.64,3.23219
-4.636000e-05,-0.0210938,1.63922,3.23937
-4.635000e-05,-0.0201563,1.64078,3.23141
-4.634000e-05,-0.0210938,1.63859,3.23281
-4.633000e-05,-0.0209375,1.63813,3.23172
-4.632000e-05,-0.0215625,1.63891,3.23031
-4.631000e-05,-0.0214063,1.63938,3.23125
-4.630000e-05,-0.0209375,1.64016,3.22781
-4.629000e-05,-0.0196875,1.64047,3.23094
-4.628000e-05,-0.0196875,1.64,3.23547
-4.627000e-05,-0.0215625,1.63891,3.23078
-4.626000e-05,-0.0207813,1.64094,3.23188
-4.625000e-05,-0.0217188,1.63984,3.23422
-4.624000e-05,-0.0203125,1.63828,3.23125
-4.623000e-05,-0.0214063,1.63938,3.23141
-4.622000e-05,-0.0209375,1.64,3.23687
-4.621000e-05,-0.020625,1.64062,3.22938
-4.620000e-05,-0.02125,1.63938,3.2325
-4.619000e-05,-0.0210938,1.63953,3.23047
-4.618000e-05,-0.0204688,1.64078,3.23281
-4.617000e-05,-0.0220312,1.63969,3.23594
-4.616000e-05,-0.0207813,1.63938,3.23359
-4.615000e-05,-0.0198438,1.64078,3.23375
-4.614000e-05,-0.020625,1.63844,3.23047
-4.613000e-05,-0.0204688,1.63938,3.235
-4.612000e-05,-0.0220312,1.63813,3.22828
-4.611000e-05,-0.0204688,1.63969,3.235
-4.610000e-05,-0.0214063,1.63859,3.23422
-4.609000e-05,-0.0207813,1.63844,3.23313
-4.608000e-05,-0.0209375,1.63938,3.23563
-4.607000e-05,-0.0214063,1.63875,3.23047
-4.606000e-05,-0.0221875,1.64,3.23016
-4.605000e-05,-0.0217188,1.63984,3.23234
-4.604000e-05,-0.0215625,1.63969,3.23797
-4.603000e-05,-0.0192187,1.64234,3.23156
-4.602000e-05,-0.0209375,1.64047,3.23203
-4.601000e-05,-0.0226562,1.63844,3.23234
-4.600000e-05,-0.0217188,1.63953,3.23344
-4.599000e-05,-0.020625,1.64031,3.23328
-4.598000e-05,-0.0215625,1.64078,3.22859
-4.597000e-05,-0.0198438,1.63969,3.23078
-4.596000e-05,-0.0198438,1.64156,3.23547
-4.595000e-05,-0.0217188,1.63813,3.23156
-4.594000e-05,-0.0207813,1.64016,3.23047
-4.593000e-05,-0.0221875,1.64047,3.23453
-4.592000e-05,-0.0207813,1.63797,3.23156
-4.591000e-05,-0.0209375,1.63938,3.23313
-4.590000e-05,-0.0204688,1.63969,3.23594
-4.589000e-05,-0.0220312,1.63813,3.22812
-4.588000e-05,-0.0214063,1.63797,3.23219
-4.587000e-05,-0.0203125,1.64,3.23031
-4.586000e-05,-0.020625,1.63906,3.23328
-4.585000e-05,-0.0217188,1.64031,3.23531
-4.584000e-05,-0.0189062,1.63766,3.23141
-4.583000e-05,-0.0201563,1.64297,3.23422
-4.582000e-05,-0.0210938,1.63813,3.23
-4.581000e-05,-0.0204688,1.63938,3.23516
-4.580000e-05,-0.021875,1.63891,3.23125
-4.579000e-05,-0.0201563,1.63922,3.23375
-4.578000e-05,-0.0210938,1.63875,3.23594
-4.577000e-05,-0.0203125,1.63922,3.23375
-4.576000e-05,-0.0209375,1.63984,3.23734
-4.575000e-05,-0.0223437,1.63875,3.23047
-4.574000e-05,-0.02125,1.64,3.22828
-4.573000e-05,-0.0209375,1.64031,3.23109
-4.572000e-05,-0.0214063,1.63984,3.23781
-4.571000e-05,-0.01875,1.64016,3.23062
-4.570000e-05,-0.02125,1.63953,3.23234
-4.569000e-05,-0.0207813,1.63953,3.23359
-4.568000e-05,-0.02125,1.64031,3.23141
-4.567000e-05,-0.0226562,1.64031,3.23391
-4.566000e-05,-0.0209375,1.64,3.23062
-4.565000e-05,-0.0204688,1.63891,3.23062
-4.564000e-05,-0.0195312,1.64156,3.23406
-4.563000e-05,-0.0215625,1.63828,3.23125
-4.562000e-05,-0.0207813,1.64,3.23203
-4.561000e-05,-0.0210938,1.63969,3.23438
-4.560000e-05,-0.0220312,1.63859,3.22953
-4.559000e-05,-0.020625,1.64047,3.23141
-4.558000e-05,-0.0201563,1.64,3.23656
-4.557000e-05,-0.0203125,1.63875,3.22797
-4.556000e-05,-0.0217188,1.63938,3.23297
-4.555000e-05,-0.020625,1.64125,3.22969
-4.554000e-05,-0.0204688,1.64031,3.23359
-4.553000e-05,-0.0207813,1.64031,3.23484
-4.552000e-05,-0.0203125,1.63891,3.23016
-4.551000e-05,-0.0204688,1.64047,3.23406
-4.550000e-05,-0.0210938,1.64062,3.23172
-4.549000e-05,-0.0204688,1.64266,3.23313
-4.548000e-05,-0.0217188,1.63844,3.22859
-4.547000e-05,-0.0204688,1.64062,3.23578
-4.546000e-05,-0.0220312,1.64078,3.23438
-4.545000e-05,-0.0201563,1.63844,3.23062
-4.544000e-05,-0.0207813,1.64031,3.23547
-4.543000e-05,-0.0217188,1.63969,3.23078
-4.542000e-05,-0.02125,1.64031,3.22609
-4.541000e-05,-0.0207813,1.63984,3.23188
-4.540000e-05,-0.0203125,1.64078,3.23859
-4.539000e-05,-0.0195312,1.64047,3.22891
-4.538000e-05,-0.0203125,1.64,3.23328
-4.537000e-05,-0.0209375,1.64,3.23297
-4.536000e-05,-0.021875,1.63984,3.23375
-4.535000e-05,-0.0215625,1.64062,3.23328
-4.534000e-05,-0.02125,1.64094,3.22828
-4.533000e-05,-0.0203125,1.64094,3.23078
-4.532000e-05,-0.0192187,1.64172,3.23578
-4.531000e-05,-0.0221875,1.63891,3.23313
-4.530000e-05,-0.0207813,1.64047,3.23156
-4.529000e-05,-0.0207813,1.64,3.23453
-4.528000e-05,-0.0217188,1.64109,3.22969
-4.527000e-05,-0.02125,1.63953,3.23062
-4.526000e-05,-0.0209375,1.63969,3.23656
-4.525000e-05,-0.020625,1.63922,3.22891
-4.524000e-05,-0.0210938,1.63969,3.23203
-4.523000e-05,-0.0225,1.63938,3.22984
-4.522000e-05,-0.0209375,1.63953,3.23281
-4.521000e-05,-0.021875,1.63969,3.23469
-4.520000e-05,-0.0196875,1.64031,3.23406
-4.519000e-05,-0.0204688,1.64062,3.23297
-4.518000e-05,-0.02125,1.63891,3.22984
-4.517000e-05,-0.0210938,1.64031,3.23734
-4.516000e-05,-0.02125,1.63984,3.22891
